<?xml version="1.0" encoding="UTF-8" standalone="no"?>
<!-- Created with Inkscape (http://www.inkscape.org/) -->

<svg
   xmlns:dc="http://purl.org/dc/elements/1.1/"
   xmlns:cc="http://creativecommons.org/ns#"
   xmlns:rdf="http://www.w3.org/1999/02/22-rdf-syntax-ns#"
   xmlns:svg="http://www.w3.org/2000/svg"
   xmlns="http://www.w3.org/2000/svg"
   xmlns:sodipodi="http://sodipodi.sourceforge.net/DTD/sodipodi-0.dtd"
   xmlns:inkscape="http://www.inkscape.org/namespaces/inkscape"
   width="100mm"
   height="22.694597mm"
   viewBox="0 0 99.999989 22.694597"
   version="1.1"
   id="svg13775"
   inkscape:version="0.92.3 (2405546, 2018-03-11)"
   sodipodi:docname="linke.svg">
  <defs
     id="defs13769" />
  <sodipodi:namedview
     id="base"
     pagecolor="#ffffff"
     bordercolor="#666666"
     borderopacity="1.0"
     inkscape:pageopacity="0.0"
     inkscape:pageshadow="2"
     inkscape:zoom="0.98994949"
     inkscape:cx="204.704"
     inkscape:cy="125.54716"
     inkscape:document-units="mm"
     inkscape:current-layer="layer1"
     showgrid="false"
     fit-margin-top="0"
     fit-margin-left="0"
     fit-margin-right="0"
     fit-margin-bottom="0"
     inkscape:window-width="1920"
     inkscape:window-height="1015"
     inkscape:window-x="0"
     inkscape:window-y="0"
     inkscape:window-maximized="1" />
  <metadata
     id="metadata13772">
    <rdf:RDF>
      <cc:Work
         rdf:about="">
        <dc:format>image/svg+xml</dc:format>
        <dc:type
           rdf:resource="http://purl.org/dc/dcmitype/StillImage" />
        <dc:title></dc:title>
      </cc:Work>
    </rdf:RDF>
  </metadata>
  <g
     inkscape:label="Layer 1"
     inkscape:groupmode="layer"
     id="layer1"
     transform="translate(-233.22659,-259.7268)">
    <g
       id="g13436"
       transform="matrix(4.0988268,4.0730667,-4.0730667,4.0988268,1165.0513,125.6047)">
      <path
         id="path9219"
         d="m -83.404731,121.13521 c 0.197062,-0.19705 0.226,-0.54432 0.05788,-0.77445 -0.180523,-0.24667 -0.480935,-0.2577 -0.684886,-0.0537 -0.184658,0.18466 -0.205327,0.53606 -0.04134,0.7593 0.172254,0.23565 0.467155,0.26872 0.668348,0.0689 m -1.769399,1.69913 1.127234,-1.12724 -0.480935,-0.64906 -0.520897,0.5209 -0.311436,-0.4203 0.467152,-0.46715 -0.480935,-0.64906 -0.467156,0.46715 -0.283873,-0.38309 0.519518,-0.5209 -0.480934,-0.64905 -1.127235,1.12861 z m -0.118512,0.11851 -1.59577,-0.88195 -0.498849,-1.81212 -0.640785,0.63941 0.536056,1.50482 -0.872299,-1.16858 -0.606337,0.60772 2.039496,2.75056 0.606337,-0.60771 -0.935686,-1.26229 1.317402,0.88195 z m -3.463008,3.46301 0.582908,-0.58291 -0.596691,-0.80616 c -0.192924,-0.25907 -0.409276,-0.48782 -0.615982,-0.73173 l 1.630218,1.12034 0.582912,-0.58291 -2.039496,-2.75056 -0.582913,0.58428 0.519522,0.70005 c 0.234266,0.31695 0.512628,0.58567 0.771701,0.87919 l -1.714281,-1.15755 -0.577395,0.57739 z m -1.070737,1.07073 -0.480935,-0.64905 -0.456131,0.45613 -1.557183,-2.10151 -0.607716,0.60634 2.039497,2.75056 z m -2.849785,2.85116 1.127238,-1.12861 -0.480935,-0.64905 -0.520901,0.52089 -0.311436,-0.41892 0.467155,-0.46853 -0.480935,-0.64906 -0.467155,0.46716 -0.285253,-0.3831 0.522274,-0.5209 -0.482311,-0.64906 -1.127238,1.12862 z m -0.242535,0.24116 -2.039497,-2.75056 -0.606336,0.60771 2.039496,2.74919 z m -3.261815,-0.33348 c 0.276987,-0.27699 0.63252,0.0923 0.854385,0.38998 0.191545,0.26045 0.458887,0.73036 0.184655,1.01148 z m 0.923286,2.67201 0.530543,-0.53054 c 0.369316,-0.36794 0.934311,-1.13688 -0.0069,-2.40606 -0.617361,-0.83233 -1.383549,-0.99219 -2.073946,-0.30179 l -0.489204,0.48783 z m 6.256292,-6.25629 -1.65778,-2.25585 -0.606337,0.60634 1.65778,2.25722 z m 0,0"
         style="fill:#000000;fill-opacity:1;fill-rule:nonzero;stroke:none;stroke-width:0.35277778"
         inkscape:connector-curvature="0" />
      <path
         id="path9221"
         d="m -91.335338,123.48339 -0.811668,1.53376 1.387687,-0.74965 z m 0,0"
         style="fill:#e3000c;fill-opacity:1;fill-rule:nonzero;stroke:none;stroke-width:0.35277778"
         inkscape:connector-curvature="0" />
    </g>
  </g>
</svg>
