<?xml version="1.0" encoding="UTF-8" standalone="no"?>
<!-- Created with Inkscape (http://www.inkscape.org/) -->

<svg
   xmlns:dc="http://purl.org/dc/elements/1.1/"
   xmlns:cc="http://creativecommons.org/ns#"
   xmlns:rdf="http://www.w3.org/1999/02/22-rdf-syntax-ns#"
   xmlns:svg="http://www.w3.org/2000/svg"
   xmlns="http://www.w3.org/2000/svg"
   xmlns:xlink="http://www.w3.org/1999/xlink"
   xmlns:sodipodi="http://sodipodi.sourceforge.net/DTD/sodipodi-0.dtd"
   xmlns:inkscape="http://www.inkscape.org/namespaces/inkscape"
   width="94.522728mm"
   height="32.632069mm"
   viewBox="0 0 94.522729 32.63207"
   version="1.1"
   id="svg8"
   inkscape:version="0.92.3 (2405546, 2018-03-11)"
   sodipodi:docname="wir-stehen-hinter-augsburg-notext-demomaerz2.svg">
  <defs
     id="defs2">
    <linearGradient
       inkscape:collect="always"
       id="linearGradient821">
      <stop
         style="stop-color:#fffffe;stop-opacity:1"
         offset="0"
         id="stop817" />
      <stop
         id="stop827"
         offset="0.00000001"
         style="stop-color:#009ee0;stop-opacity:1" />
      <stop
         id="stop825"
         offset="0.1812131"
         style="stop-color:#009ee0;stop-opacity:1" />
      <stop
         style="stop-color:#53b278;stop-opacity:1"
         offset="1"
         id="stop819" />
    </linearGradient>
    <linearGradient
       inkscape:collect="always"
       xlink:href="#linearGradient821"
       id="linearGradient823"
       x1="10.984447"
       y1="115.91963"
       x2="87.428284"
       y2="115.91963"
       gradientUnits="userSpaceOnUse"
       gradientTransform="matrix(0.93518275,0,0,1.0541126,3.562493,-5.8633712)" />
    <clipPath
       clipPathUnits="userSpaceOnUse"
       id="clipPath976">
      <g
         aria-label="WIR STEHEN HINTER FRIDAYS FOR FUTURE!"
         style="font-style:normal;font-variant:normal;font-weight:bold;font-stretch:normal;font-size:7.76111126px;line-height:1.25;font-family:'Jost*';-inkscape-font-specification:'Jost* Bold';letter-spacing:0px;word-spacing:0px;fill:#000000;fill-opacity:1;stroke:none;stroke-width:0.26458332"
         id="g1042"
         transform="translate(8.6893719e-8,-1.0026041e-6)">
        <path
           d="m 21.207407,111.85536 1.016706,-3.22862 h 1.552222 l -2.343856,5.75098 -1.754011,-3.28295 -1.754011,3.28295 -2.343856,-5.75098 h 1.552223 l 1.024466,3.22862 1.521178,-3.50026 z"
           style="font-style:normal;font-variant:normal;font-weight:bold;font-stretch:normal;font-family:'Jost*';-inkscape-font-specification:'Jost* Bold';text-align:center;text-anchor:middle;stroke-width:0.26458332"
           id="path978"
           inkscape:connector-curvature="0" />
        <path
           d="m 24.37006,108.62674 h 1.334911 v 5.43278 H 24.37006 Z"
           style="font-style:normal;font-variant:normal;font-weight:bold;font-stretch:normal;font-family:'Jost*';-inkscape-font-specification:'Jost* Bold';text-align:center;text-anchor:middle;stroke-width:0.26458332"
           id="path980"
           inkscape:connector-curvature="0" />
        <path
           d="m 26.840882,108.62674 h 1.979083 q 1.039989,0 1.575506,0.49671 0.535517,0.48895 0.535517,1.27282 0,0.5588 -0.2794,0.98566 -0.271639,0.4191 -0.807156,0.62089 l 1.412522,2.0567 h -1.5367 l -1.171928,-1.88595 h -0.403577 v 1.88595 h -1.303867 z m 1.878189,1.1176 h -0.574322 v 1.41252 h 0.574322 q 0.395817,0 0.620889,-0.18627 0.232833,-0.19402 0.232833,-0.52775 0,-0.34149 -0.232833,-0.52 -0.225072,-0.1785 -0.620889,-0.1785 z"
           style="font-style:normal;font-variant:normal;font-weight:bold;font-stretch:normal;font-family:'Jost*';-inkscape-font-specification:'Jost* Bold';text-align:center;text-anchor:middle;stroke-width:0.26458332"
           id="path982"
           inkscape:connector-curvature="0" />
        <path
           d="m 34.805843,112.11924 q 0.2794,0.48895 0.582083,0.7373 0.302684,0.2406 0.729545,0.2406 0.667456,0 0.667456,-0.53552 0,-0.23283 -0.155223,-0.37253 -0.147461,-0.1397 -0.403578,-0.2406 -0.248355,-0.10865 -0.5588,-0.23283 -0.194027,-0.0776 -0.450144,-0.19403 -0.248356,-0.12417 -0.48895,-0.31044 -0.232833,-0.19403 -0.388056,-0.48119 -0.147461,-0.28716 -0.147461,-0.69074 0,-0.4579 0.248356,-0.79939 0.256117,-0.34925 0.6985,-0.54328 0.442383,-0.19403 1.016705,-0.19403 0.535517,0 0.915812,0.17851 0.380294,0.1785 0.62865,0.45014 0.248355,0.27164 0.395816,0.56656 l -0.985661,0.5588 q -0.170744,-0.30268 -0.4191,-0.47343 -0.240594,-0.17074 -0.5588,-0.17074 -0.2794,0 -0.442383,0.12418 -0.155222,0.12418 -0.155222,0.33373 0,0.18626 0.178505,0.3182 0.178506,0.13194 0.457906,0.2406 0.287161,0.10865 0.613128,0.22507 0.380294,0.13194 0.690738,0.34925 0.318206,0.20955 0.504473,0.53551 0.186266,0.32597 0.186266,0.7994 0,0.55104 -0.271639,0.93133 -0.263877,0.37254 -0.729544,0.56656 -0.457906,0.19403 -1.032228,0.19403 -0.496711,0 -0.946855,-0.19403 -0.450145,-0.19402 -0.791634,-0.51999 -0.341489,-0.33373 -0.512233,-0.76059 z"
           style="font-style:normal;font-variant:normal;font-weight:bold;font-stretch:normal;font-family:'Jost*';-inkscape-font-specification:'Jost* Bold';text-align:center;text-anchor:middle;stroke-width:0.26458332"
           id="path984"
           inkscape:connector-curvature="0" />
        <path
           d="m 38.484975,109.80643 v -1.17969 h 4.291894 v 1.17969 h -1.490133 v 4.25309 h -1.311628 v -4.25309 z"
           style="font-style:normal;font-variant:normal;font-weight:bold;font-stretch:normal;font-family:'Jost*';-inkscape-font-specification:'Jost* Bold';text-align:center;text-anchor:middle;stroke-width:0.26458332"
           id="path986"
           inkscape:connector-curvature="0" />
        <path
           d="m 43.378718,108.62674 h 3.608917 v 1.07879 h -2.351617 v 0.97014 h 2.196395 v 1.05551 h -2.196395 v 1.24954 h 2.351617 v 1.0788 h -3.608917 z"
           style="font-style:normal;font-variant:normal;font-weight:bold;font-stretch:normal;font-family:'Jost*';-inkscape-font-specification:'Jost* Bold';text-align:center;text-anchor:middle;stroke-width:0.26458332"
           id="path988"
           inkscape:connector-curvature="0" />
        <path
           d="m 48.047513,108.62674 h 1.303866 v 1.98684 h 2.343856 v -1.98684 h 1.303867 v 5.43278 h -1.303867 v -2.28177 h -2.343856 v 2.28177 h -1.303866 z"
           style="font-style:normal;font-variant:normal;font-weight:bold;font-stretch:normal;font-family:'Jost*';-inkscape-font-specification:'Jost* Bold';text-align:center;text-anchor:middle;stroke-width:0.26458332"
           id="path990"
           inkscape:connector-curvature="0" />
        <path
           d="m 54.141198,108.62674 h 3.608917 v 1.07879 h -2.351617 v 0.97014 h 2.196394 v 1.05551 h -2.196394 v 1.24954 h 2.351617 v 1.0788 h -3.608917 z"
           style="font-style:normal;font-variant:normal;font-weight:bold;font-stretch:normal;font-family:'Jost*';-inkscape-font-specification:'Jost* Bold';text-align:center;text-anchor:middle;stroke-width:0.26458332"
           id="path992"
           inkscape:connector-curvature="0" />
        <path
           d="m 62.558607,108.62674 h 1.265061 v 5.70442 l -3.756377,-3.32952 v 3.05788 h -1.2573 v -5.70442 l 3.748616,3.32952 z"
           style="font-style:normal;font-variant:normal;font-weight:bold;font-stretch:normal;font-family:'Jost*';-inkscape-font-specification:'Jost* Bold';text-align:center;text-anchor:middle;stroke-width:0.26458332"
           id="path994"
           inkscape:connector-curvature="0" />
        <path
           d="m 67.298707,108.62674 h 1.303866 v 1.98684 h 2.343856 v -1.98684 h 1.303867 v 5.43278 h -1.303867 v -2.28177 h -2.343856 v 2.28177 h -1.303866 z"
           style="font-style:normal;font-variant:normal;font-weight:bold;font-stretch:normal;font-family:'Jost*';-inkscape-font-specification:'Jost* Bold';text-align:center;text-anchor:middle;stroke-width:0.26458332"
           id="path996"
           inkscape:connector-curvature="0" />
        <path
           d="m 73.392392,108.62674 h 1.334911 v 5.43278 h -1.334911 z"
           style="font-style:normal;font-variant:normal;font-weight:bold;font-stretch:normal;font-family:'Jost*';-inkscape-font-specification:'Jost* Bold';text-align:center;text-anchor:middle;stroke-width:0.26458332"
           id="path998"
           inkscape:connector-curvature="0" />
        <path
           d="m 79.61183,108.62674 h 1.265061 v 5.70442 l -3.756378,-3.32952 v 3.05788 h -1.2573 v -5.70442 l 3.748617,3.32952 z"
           style="font-style:normal;font-variant:normal;font-weight:bold;font-stretch:normal;font-family:'Jost*';-inkscape-font-specification:'Jost* Bold';text-align:center;text-anchor:middle;stroke-width:0.26458332"
           id="path1000"
           inkscape:connector-curvature="0" />
        <path
           d="m 81.474255,109.80643 v -1.17969 h 4.291895 v 1.17969 h -1.490134 v 4.25309 h -1.311627 v -4.25309 z"
           style="font-style:normal;font-variant:normal;font-weight:bold;font-stretch:normal;font-family:'Jost*';-inkscape-font-specification:'Jost* Bold';text-align:center;text-anchor:middle;stroke-width:0.26458332"
           id="path1002"
           inkscape:connector-curvature="0" />
        <path
           d="m 86.367997,108.62674 h 3.608917 v 1.07879 h -2.351617 v 0.97014 h 2.196394 v 1.05551 h -2.196394 v 1.24954 h 2.351617 v 1.0788 h -3.608917 z"
           style="font-style:normal;font-variant:normal;font-weight:bold;font-stretch:normal;font-family:'Jost*';-inkscape-font-specification:'Jost* Bold';text-align:center;text-anchor:middle;stroke-width:0.26458332"
           id="path1004"
           inkscape:connector-curvature="0" />
        <path
           d="m 91.036797,108.62674 h 1.979084 q 1.039989,0 1.575505,0.49671 0.535517,0.48895 0.535517,1.27282 0,0.5588 -0.2794,0.98566 -0.271639,0.4191 -0.807156,0.62089 l 1.412523,2.0567 h -1.5367 l -1.171928,-1.88595 h -0.403578 v 1.88595 h -1.303867 z m 1.878189,1.1176 h -0.574322 v 1.41252 h 0.574322 q 0.395817,0 0.620889,-0.18627 0.232833,-0.19402 0.232833,-0.52775 0,-0.34149 -0.232833,-0.52 -0.225072,-0.1785 -0.620889,-0.1785 z"
           style="font-style:normal;font-variant:normal;font-weight:bold;font-stretch:normal;font-family:'Jost*';-inkscape-font-specification:'Jost* Bold';text-align:center;text-anchor:middle;stroke-width:0.26458332"
           id="path1006"
           inkscape:connector-curvature="0" />
        <path
           d="m 13.834958,118.32813 h 3.298472 v 1.12536 h -2.041172 v 1.07103 h 1.963561 v 1.05551 h -1.963561 v 2.18088 h -1.2573 z"
           style="font-style:normal;font-variant:normal;font-weight:bold;font-stretch:normal;font-family:'Jost*';-inkscape-font-specification:'Jost* Bold';text-align:center;text-anchor:middle;stroke-width:0.26458332"
           id="path1008"
           inkscape:connector-curvature="0" />
        <path
           d="m 18.124791,118.32813 h 1.979083 q 1.039989,0 1.575506,0.49671 0.535516,0.48895 0.535516,1.27282 0,0.5588 -0.2794,0.98566 -0.271639,0.4191 -0.807155,0.62089 l 1.412522,2.0567 h -1.5367 l -1.171928,-1.88595 h -0.403578 v 1.88595 h -1.303866 z m 1.878189,1.1176 h -0.574323 v 1.41252 h 0.574323 q 0.395816,0 0.620889,-0.18627 0.232833,-0.19402 0.232833,-0.52775 0,-0.34149 -0.232833,-0.52 -0.225073,-0.1785 -0.620889,-0.1785 z"
           style="font-style:normal;font-variant:normal;font-weight:bold;font-stretch:normal;font-family:'Jost*';-inkscape-font-specification:'Jost* Bold';text-align:center;text-anchor:middle;stroke-width:0.26458332"
           id="path1010"
           inkscape:connector-curvature="0" />
        <path
           d="m 23.142228,118.32813 h 1.334911 v 5.43278 h -1.334911 z"
           style="font-style:normal;font-variant:normal;font-weight:bold;font-stretch:normal;font-family:'Jost*';-inkscape-font-specification:'Jost* Bold';text-align:center;text-anchor:middle;stroke-width:0.26458332"
           id="path1012"
           inkscape:connector-curvature="0" />
        <path
           d="M 27.553328,123.76091 H 25.61305 v -5.43278 h 1.940278 q 0.884767,0 1.5367,0.33373 0.659694,0.32596 1.016705,0.93909 0.357012,0.60537 0.357012,1.44357 0,0.8382 -0.357012,1.45132 -0.357011,0.60537 -1.016705,0.9391 -0.651933,0.32597 -1.5367,0.32597 z m -0.04657,-4.26862 H 26.96348 v 3.10445 h 0.543278 q 0.4191,0 0.783872,-0.14746 0.364773,-0.14746 0.589845,-0.48119 0.225072,-0.34149 0.225072,-0.92357 0,-0.58209 -0.225072,-0.92358 -0.225072,-0.34148 -0.589845,-0.48118 -0.364772,-0.14747 -0.783872,-0.14747 z"
           style="font-style:normal;font-variant:normal;font-weight:bold;font-stretch:normal;font-family:'Jost*';-inkscape-font-specification:'Jost* Bold';text-align:center;text-anchor:middle;stroke-width:0.26458332"
           id="path1014"
           inkscape:connector-curvature="0" />
        <path
           d="m 34.717805,123.76091 -0.512234,-1.05552 h -1.722967 l -0.512233,1.05552 h -1.482372 l 2.856089,-5.77427 2.86385,5.77427 z m -1.373717,-3.43818 -0.605367,1.38924 h 1.210734 z"
           style="font-style:normal;font-variant:normal;font-weight:bold;font-stretch:normal;font-family:'Jost*';-inkscape-font-specification:'Jost* Bold';text-align:center;text-anchor:middle;stroke-width:0.26458332"
           id="path1016"
           inkscape:connector-curvature="0" />
        <path
           d="m 39.251142,118.32813 h 1.505656 l -1.893711,3.22086 v 2.21192 h -1.334912 v -2.20416 l -1.901472,-3.22862 h 1.505656 l 1.063272,2.04893 z"
           style="font-style:normal;font-variant:normal;font-weight:bold;font-stretch:normal;font-family:'Jost*';-inkscape-font-specification:'Jost* Bold';text-align:center;text-anchor:middle;stroke-width:0.26458332"
           id="path1018"
           inkscape:connector-curvature="0" />
        <path
           d="m 41.930301,121.82063 q 0.2794,0.48895 0.582084,0.7373 0.302683,0.2406 0.729544,0.2406 0.667456,0 0.667456,-0.53552 0,-0.23283 -0.155223,-0.37253 -0.147461,-0.1397 -0.403577,-0.2406 -0.248356,-0.10865 -0.5588,-0.23283 -0.194028,-0.0776 -0.450145,-0.19403 -0.248355,-0.12418 -0.48895,-0.31044 -0.232833,-0.19403 -0.388055,-0.48119 -0.147461,-0.28716 -0.147461,-0.69074 0,-0.45791 0.248355,-0.79939 0.256117,-0.34925 0.6985,-0.54328 0.442383,-0.19403 1.016706,-0.19403 0.535516,0 0.915811,0.17851 0.380294,0.1785 0.62865,0.45014 0.248355,0.27164 0.395816,0.56656 l -0.985661,0.5588 q -0.170744,-0.30268 -0.4191,-0.47343 -0.240594,-0.17074 -0.5588,-0.17074 -0.2794,0 -0.442383,0.12418 -0.155222,0.12417 -0.155222,0.33372 0,0.18627 0.178505,0.31821 0.178506,0.13194 0.457906,0.24059 0.287161,0.10866 0.613128,0.22508 0.380294,0.13194 0.690739,0.34925 0.318205,0.20955 0.504472,0.53551 0.186266,0.32597 0.186266,0.7994 0,0.55104 -0.271638,0.93133 -0.263878,0.37253 -0.729545,0.56656 -0.457905,0.19403 -1.032228,0.19403 -0.496711,0 -0.946855,-0.19403 -0.450145,-0.19403 -0.791634,-0.51999 -0.341488,-0.33373 -0.512233,-0.76059 z"
           style="font-style:normal;font-variant:normal;font-weight:bold;font-stretch:normal;font-family:'Jost*';-inkscape-font-specification:'Jost* Bold';text-align:center;text-anchor:middle;stroke-width:0.26458332"
           id="path1020"
           inkscape:connector-curvature="0" />
        <path
           d="m 48.487107,118.32813 h 3.298472 v 1.12536 h -2.041172 v 1.07103 h 1.963561 v 1.05551 h -1.963561 v 2.18088 h -1.2573 z"
           style="font-style:normal;font-variant:normal;font-weight:bold;font-stretch:normal;font-family:'Jost*';-inkscape-font-specification:'Jost* Bold';text-align:center;text-anchor:middle;stroke-width:0.26458332"
           id="path1022"
           inkscape:connector-curvature="0" />
        <path
           d="m 52.466495,121.04452 q 0,-0.62865 0.217312,-1.14865 0.225072,-0.51999 0.620888,-0.90029 0.395817,-0.38029 0.923573,-0.58208 0.535516,-0.20955 1.156405,-0.20955 0.62865,0 1.164167,0.20955 0.535517,0.20179 0.923572,0.58208 0.395817,0.3803 0.613128,0.90029 0.225072,0.52 0.225072,1.14865 0,0.62865 -0.217311,1.1564 -0.20955,0.52776 -0.605367,0.91581 -0.395816,0.38806 -0.931333,0.60537 -0.527755,0.20955 -1.171928,0.20955 -0.636411,0 -1.171927,-0.20955 -0.535517,-0.21731 -0.931334,-0.60537 -0.388055,-0.38805 -0.605367,-0.91581 -0.20955,-0.52775 -0.20955,-1.1564 z m 1.389239,0 q 0,0.48119 0.186267,0.85372 0.194028,0.36477 0.535517,0.57432 0.34925,0.20955 0.807155,0.20955 0.465667,0 0.807156,-0.20955 0.34925,-0.20955 0.535517,-0.57432 0.194027,-0.37253 0.194027,-0.85372 0,-0.48119 -0.186266,-0.84596 -0.186267,-0.37254 -0.535517,-0.58209 -0.341489,-0.20955 -0.814917,-0.20955 -0.457905,0 -0.807155,0.20955 -0.341489,0.20955 -0.535517,0.58209 -0.186267,0.36477 -0.186267,0.84596 z"
           style="font-style:normal;font-variant:normal;font-weight:bold;font-stretch:normal;font-family:'Jost*';-inkscape-font-specification:'Jost* Bold';text-align:center;text-anchor:middle;stroke-width:0.26458332"
           id="path1024"
           inkscape:connector-curvature="0" />
        <path
           d="m 59.143475,118.32813 h 1.979083 q 1.039989,0 1.575506,0.49671 0.535517,0.48895 0.535517,1.27282 0,0.5588 -0.2794,0.98566 -0.271639,0.4191 -0.807156,0.62089 l 1.412522,2.0567 h -1.5367 l -1.171927,-1.88595 h -0.403578 v 1.88595 h -1.303867 z m 1.878189,1.1176 h -0.574322 v 1.41252 h 0.574322 q 0.395817,0 0.620889,-0.18627 0.232833,-0.19402 0.232833,-0.52775 0,-0.34149 -0.232833,-0.52 -0.225072,-0.1785 -0.620889,-0.1785 z"
           style="font-style:normal;font-variant:normal;font-weight:bold;font-stretch:normal;font-family:'Jost*';-inkscape-font-specification:'Jost* Bold';text-align:center;text-anchor:middle;stroke-width:0.26458332"
           id="path1026"
           inkscape:connector-curvature="0" />
        <path
           d="m 66.495308,118.32813 h 3.298473 v 1.12536 h -2.041173 v 1.07103 h 1.963562 v 1.05551 h -1.963562 v 2.18088 h -1.2573 z"
           style="font-style:normal;font-variant:normal;font-weight:bold;font-stretch:normal;font-family:'Jost*';-inkscape-font-specification:'Jost* Bold';text-align:center;text-anchor:middle;stroke-width:0.26458332"
           id="path1028"
           inkscape:connector-curvature="0" />
        <path
           d="m 70.746336,118.32813 h 1.311628 v 3.55459 q 0,0.4191 0.20955,0.67521 0.217311,0.24836 0.659694,0.24836 0.442384,0 0.659695,-0.24836 0.217311,-0.25611 0.217311,-0.67521 v -3.55459 h 1.311628 v 3.64772 q 0,0.68298 -0.294923,1.12536 -0.287161,0.44238 -0.783872,0.6597 -0.496711,0.21731 -1.109839,0.21731 -0.613128,0 -1.109839,-0.21731 -0.48895,-0.21732 -0.783872,-0.6597 -0.287161,-0.44238 -0.287161,-1.12536 z"
           style="font-style:normal;font-variant:normal;font-weight:bold;font-stretch:normal;font-family:'Jost*';-inkscape-font-specification:'Jost* Bold';text-align:center;text-anchor:middle;stroke-width:0.26458332"
           id="path1030"
           inkscape:connector-curvature="0" />
        <path
           d="m 75.66858,119.50782 v -1.17969 h 4.291894 v 1.17969 h -1.490133 v 4.25309 h -1.311628 v -4.25309 z"
           style="font-style:normal;font-variant:normal;font-weight:bold;font-stretch:normal;font-family:'Jost*';-inkscape-font-specification:'Jost* Bold';text-align:center;text-anchor:middle;stroke-width:0.26458332"
           id="path1032"
           inkscape:connector-curvature="0" />
        <path
           d="m 80.523516,118.32813 h 1.311627 v 3.55459 q 0,0.4191 0.20955,0.67521 0.217312,0.24836 0.659695,0.24836 0.442383,0 0.659694,-0.24836 0.217312,-0.25611 0.217312,-0.67521 v -3.55459 h 1.311627 v 3.64772 q 0,0.68298 -0.294922,1.12536 -0.287161,0.44238 -0.783872,0.6597 -0.496711,0.21731 -1.109839,0.21731 -0.613128,0 -1.109839,-0.21731 -0.48895,-0.21732 -0.783872,-0.6597 -0.287161,-0.44238 -0.287161,-1.12536 z"
           style="font-style:normal;font-variant:normal;font-weight:bold;font-stretch:normal;font-family:'Jost*';-inkscape-font-specification:'Jost* Bold';text-align:center;text-anchor:middle;stroke-width:0.26458332"
           id="path1034"
           inkscape:connector-curvature="0" />
        <path
           d="m 85.989041,118.32813 h 1.979083 q 1.039989,0 1.575506,0.49671 0.535517,0.48895 0.535517,1.27282 0,0.5588 -0.2794,0.98566 -0.271639,0.4191 -0.807156,0.62089 l 1.412522,2.0567 h -1.5367 l -1.171928,-1.88595 h -0.403577 v 1.88595 h -1.303867 z m 1.878189,1.1176 h -0.574322 v 1.41252 h 0.574322 q 0.395817,0 0.620889,-0.18627 0.232833,-0.19402 0.232833,-0.52775 0,-0.34149 -0.232833,-0.52 -0.225072,-0.1785 -0.620889,-0.1785 z"
           style="font-style:normal;font-variant:normal;font-weight:bold;font-stretch:normal;font-family:'Jost*';-inkscape-font-specification:'Jost* Bold';text-align:center;text-anchor:middle;stroke-width:0.26458332"
           id="path1036"
           inkscape:connector-curvature="0" />
        <path
           d="m 91.006474,118.32813 h 3.608917 v 1.07879 h -2.351617 v 0.97014 h 2.196395 v 1.05551 h -2.196395 v 1.24954 h 2.351617 v 1.0788 h -3.608917 z"
           style="font-style:normal;font-variant:normal;font-weight:bold;font-stretch:normal;font-family:'Jost*';-inkscape-font-specification:'Jost* Bold';text-align:center;text-anchor:middle;stroke-width:0.26458332"
           id="path1038"
           inkscape:connector-curvature="0" />
        <path
           d="m 95.706311,118.32813 h 1.451328 l -0.248356,3.63996 h -0.946855 z m 0,4.95159 q 0,-0.29493 0.20955,-0.48119 0.20955,-0.18627 0.519995,-0.18627 0.318205,0 0.519994,0.18627 0.20955,0.18626 0.20955,0.48119 0,0.28716 -0.20955,0.48119 -0.201789,0.18626 -0.519994,0.18626 -0.310445,0 -0.519995,-0.18626 -0.20955,-0.19403 -0.20955,-0.48119 z"
           style="font-style:normal;font-variant:normal;font-weight:bold;font-stretch:normal;font-family:'Jost*';-inkscape-font-specification:'Jost* Bold';text-align:center;text-anchor:middle;stroke-width:0.26458332"
           id="path1040"
           inkscape:connector-curvature="0" />
      </g>
    </clipPath>
  </defs>
  <sodipodi:namedview
     id="base"
     pagecolor="#ffffff"
     bordercolor="#666666"
     borderopacity="1.0"
     inkscape:pageopacity="0.0"
     inkscape:pageshadow="2"
     inkscape:zoom="2"
     inkscape:cx="165.95634"
     inkscape:cy="73.690349"
     inkscape:document-units="mm"
     inkscape:current-layer="layer1"
     showgrid="false"
     inkscape:window-width="1920"
     inkscape:window-height="1015"
     inkscape:window-x="0"
     inkscape:window-y="0"
     inkscape:window-maximized="1"
     fit-margin-top="0"
     fit-margin-left="0"
     fit-margin-right="0"
     fit-margin-bottom="0"
     inkscape:snap-page="true"
     inkscape:snap-global="true" />
  <metadata
     id="metadata5">
    <rdf:RDF>
      <cc:Work
         rdf:about="">
        <dc:format>image/svg+xml</dc:format>
        <dc:type
           rdf:resource="http://purl.org/dc/dcmitype/StillImage" />
        <dc:title />
      </cc:Work>
    </rdf:RDF>
  </metadata>
  <g
     inkscape:label="Layer 1"
     inkscape:groupmode="layer"
     id="layer1"
     transform="translate(-8.2388154,-108.3551)">
    <path
       style="opacity:1;fill:#1b7340;fill-opacity:1;stroke:none;stroke-width:2.4950211;stroke-linecap:round;stroke-linejoin:round;stroke-miterlimit:4;stroke-dasharray:none;stroke-dashoffset:0;stroke-opacity:1;paint-order:fill markers stroke"
       d="m 36.194736,134.66719 v 6.32003 h 35.104831 v -6.32003 z m 31.291111,0.70125 c 0.173334,0 0.322993,0.0418 0.449586,0.12557 0.12854,0.0838 0.226906,0.20514 0.295071,0.36484 0.07011,0.15775 0.10542,0.34797 0.10542,0.56999 0,0.22202 -0.03531,0.41172 -0.10542,0.56947 -0.06816,0.15776 -0.166531,0.27966 -0.295071,0.36535 -0.126593,0.0837 -0.276252,0.12558 -0.449586,0.12558 -0.167489,0 -0.315362,-0.0418 -0.443899,-0.12558 -0.126593,-0.0857 -0.226113,-0.20759 -0.298175,-0.36535 -0.07206,-0.15775 -0.108003,-0.34745 -0.108003,-0.56947 0,-0.22202 0.03594,-0.41224 0.108003,-0.56999 0.07206,-0.1597 0.171582,-0.28109 0.298175,-0.36484 0.128537,-0.0838 0.27641,-0.12557 0.443899,-0.12557 z m 1.928564,0 c 0.173334,0 0.322996,0.0418 0.449585,0.12557 0.12854,0.0838 0.22691,0.20514 0.295074,0.36484 0.07011,0.15775 0.105418,0.34797 0.105418,0.56999 0,0.22202 -0.03531,0.41172 -0.105418,0.56947 -0.06816,0.15776 -0.166534,0.27966 -0.295074,0.36535 -0.126589,0.0837 -0.276251,0.12558 -0.449585,0.12558 -0.167489,0 -0.315359,-0.0418 -0.443899,-0.12558 -0.126593,-0.0857 -0.226113,-0.20759 -0.298172,-0.36535 -0.07206,-0.15775 -0.108006,-0.34745 -0.108006,-0.56947 0,-0.22202 0.03595,-0.41224 0.108006,-0.56999 0.07206,-0.1597 0.171579,-0.28109 0.298172,-0.36484 0.12854,-0.0838 0.27641,-0.12557 0.443899,-0.12557 z m -1.928564,0.42323 c -0.112958,0 -0.204806,0.0588 -0.274918,0.1757 -0.06816,0.1149 -0.101803,0.26866 -0.101803,0.46147 0,0.19281 0.03364,0.34772 0.101803,0.46457 0.07011,0.11491 0.16196,0.17208 0.274918,0.17208 0.112959,0 0.203655,-0.0572 0.271817,-0.17208 0.07012,-0.11685 0.104905,-0.27176 0.104905,-0.46457 0,-0.19281 -0.03479,-0.34657 -0.104905,-0.46147 -0.06816,-0.11686 -0.158858,-0.1757 -0.271817,-0.1757 z m 1.928564,0 c -0.112958,0 -0.204806,0.0588 -0.274918,0.1757 -0.06816,0.1149 -0.101801,0.26866 -0.101801,0.46147 0,0.19281 0.03364,0.34772 0.101801,0.46457 0.07011,0.11491 0.16196,0.17208 0.274918,0.17208 0.112959,0 0.203655,-0.0572 0.27182,-0.17208 0.07011,-0.11685 0.104902,-0.27176 0.104902,-0.46457 0,-0.19281 -0.03479,-0.34657 -0.104902,-0.46147 -0.06817,-0.11686 -0.158861,-0.1757 -0.27182,-0.1757 z m -6.259049,0.25269 v 3.20446 h -0.732253 v -2.43137 l -0.777732,0.19327 v -0.66508 z m -24.584546,0.01 c 0.206002,0 0.381844,0.0336 0.528135,0.10232 0.146288,0.0686 0.267234,0.15599 0.362767,0.26045 0.09553,0.10458 0.171688,0.21367 0.22841,0.32711 l -0.568439,0.32195 c -0.06568,-0.11646 -0.146828,-0.20718 -0.242364,-0.27286 -0.09255,-0.0657 -0.199541,-0.0992 -0.321945,-0.0992 -0.107487,0 -0.192585,0.0238 -0.25528,0.0718 -0.0597,0.0477 -0.08992,0.11206 -0.08992,0.19275 0,0.0716 0.03418,0.13269 0.102835,0.18345 0.06866,0.0508 0.156589,0.0972 0.264068,0.13901 0.110437,0.0419 0.229108,0.0851 0.354499,0.12971 0.146291,0.0508 0.279003,0.1184 0.398425,0.20205 0.122402,0.0805 0.218853,0.1831 0.29042,0.30851 0.07165,0.12537 0.108006,0.27933 0.108006,0.46147 0,0.21195 -0.05269,0.39115 -0.157096,0.53744 -0.10151,0.14331 -0.24152,0.25195 -0.420648,0.32659 -0.176144,0.0747 -0.374386,0.11162 -0.595313,0.11162 -0.191074,0 -0.373576,-0.0372 -0.546735,-0.11162 -0.173156,-0.0747 -0.325472,-0.17483 -0.456819,-0.30024 -0.131363,-0.12838 -0.229915,-0.27452 -0.29559,-0.43873 l 0.532784,-0.3669 c 0.107476,0.18808 0.220062,0.32975 0.336412,0.42529 0.116438,0.0924 0.256448,0.13901 0.420648,0.13901 0.256749,0 0.385506,-0.10351 0.385506,-0.30954 0,-0.0896 -0.03021,-0.16072 -0.08992,-0.21446 -0.05673,-0.0537 -0.134543,-0.10013 -0.233061,-0.13901 -0.09553,-0.0419 -0.202525,-0.0867 -0.321945,-0.13436 -0.07463,-0.0298 -0.161922,-0.0669 -0.26045,-0.11162 -0.09553,-0.0478 -0.189603,-0.10748 -0.282152,-0.17931 -0.08958,-0.0746 -0.164047,-0.16706 -0.223761,-0.2775 -0.05673,-0.11027 -0.08475,-0.24321 -0.08475,-0.39843 0,-0.17617 0.04761,-0.33011 0.143145,-0.46147 0.09853,-0.13434 0.232905,-0.23851 0.403077,-0.31316 0.170162,-0.0746 0.366128,-0.11162 0.587042,-0.11162 z m 17.597376,0.0129 c 0.235852,0 0.435761,0.0392 0.599964,0.11679 0.1642,0.0748 0.289626,0.17767 0.376203,0.30903 0.08657,0.13134 0.12971,0.27754 0.12971,0.43873 0,0.16122 -0.04876,0.29842 -0.147278,0.41186 -0.09853,0.11332 -0.230092,0.20353 -0.394293,0.26924 0.194059,0.0657 0.348025,0.16369 0.461471,0.29507 0.113458,0.12832 0.170016,0.29412 0.170016,0.49712 0,0.1821 -0.04981,0.34337 -0.14831,0.48369 -0.09853,0.13734 -0.238017,0.24599 -0.420132,0.3266 -0.182118,0.0777 -0.402122,0.11731 -0.658873,0.11731 -0.25078,0 -0.466945,-0.0498 -0.649058,-0.14832 -0.17912,-0.1014 -0.316322,-0.23305 -0.411861,-0.39429 -0.09549,-0.16417 -0.143142,-0.33838 -0.143142,-0.52348 h 0.743106 c 0,0.15525 0.04932,0.27004 0.147797,0.34468 0.09853,0.0746 0.212169,0.11162 0.340547,0.11162 0.131358,0 0.23835,-0.0312 0.321943,-0.094 0.08657,-0.0657 0.129709,-0.16537 0.129709,-0.29972 0,-0.13135 -0.0549,-0.2372 -0.165364,-0.31781 -0.107477,-0.0806 -0.276032,-0.12144 -0.505913,-0.12144 v -0.48369 c 0.176141,0 0.316151,-0.0421 0.420645,-0.12557 0.107466,-0.0867 0.161748,-0.18462 0.161748,-0.29508 0,-0.0955 -0.0302,-0.1717 -0.08992,-0.22841 -0.05673,-0.0567 -0.145166,-0.0847 -0.264583,-0.0847 -0.116438,0 -0.214982,0.0357 -0.29559,0.10749 -0.07762,0.0686 -0.116271,0.15608 -0.116271,0.26355 h -0.694016 c 0,-0.1851 0.0453,-0.35029 0.134874,-0.49661 0.09256,-0.14925 0.220274,-0.26576 0.384474,-0.34933 0.164201,-0.0867 0.358482,-0.13023 0.582393,-0.13023 z m -9.589595,5.3e-4 c 0.26571,0 0.495308,0.0637 0.689364,0.19224 0.19704,0.12838 0.347676,0.31485 0.452168,0.55965 0.107476,0.24184 0.161231,0.53351 0.161231,0.87385 0,0.34035 -0.05373,0.63099 -0.161231,0.87282 -0.104503,0.24181 -0.255128,0.42881 -0.452168,0.56017 -0.194056,0.12837 -0.423654,0.19224 -0.689364,0.19224 -0.256749,0 -0.484055,-0.0637 -0.681096,-0.19224 -0.194056,-0.13136 -0.346358,-0.31836 -0.456819,-0.56017 -0.110461,-0.24183 -0.165364,-0.53247 -0.165364,-0.87282 0,-0.34034 0.0549,-0.63201 0.165364,-0.87385 0.110459,-0.2448 0.262763,-0.43127 0.456819,-0.55965 0.197041,-0.12837 0.424347,-0.19224 0.681096,-0.19224 z m 3.283003,0 v 3.19257 h -0.729671 v -2.42259 l -0.775147,0.19276 v -0.6625 z m 3.38119,0 c 0.265707,0 0.495821,0.0637 0.689879,0.19224 0.197041,0.12838 0.348192,0.31485 0.452687,0.55965 0.107487,0.24184 0.161229,0.53351 0.161229,0.87385 0,0.34035 -0.05374,0.63099 -0.161229,0.87282 -0.104492,0.24181 -0.255646,0.42881 -0.452687,0.56017 -0.194058,0.12837 -0.424172,0.19224 -0.689879,0.19224 -0.256749,0 -0.48354,-0.0637 -0.68058,-0.19224 -0.194056,-0.13136 -0.345853,-0.31836 -0.456301,-0.56017 -0.11046,-0.24183 -0.165883,-0.53247 -0.165883,-0.87282 0,-0.34034 0.05542,-0.63201 0.165883,-0.87385 0.110448,-0.2448 0.262245,-0.43127 0.456301,-0.55965 0.19704,-0.12837 0.423831,-0.19224 0.68058,-0.19224 z m 11.215335,0.0351 h 1.815394 v 0.65629 h -1.258322 l -0.179834,0.56638 c 0.0839,-0.0419 0.171079,-0.0703 0.260966,-0.0853 0.09289,-0.018 0.188444,-0.0269 0.287322,-0.0269 0.167788,0 0.323852,0.04 0.467672,0.12092 0.14382,0.0809 0.260477,0.19807 0.350367,0.35089 0.08989,0.1528 0.134874,0.33834 0.134874,0.55707 0,0.18576 -0.03723,0.34627 -0.112139,0.4811 -0.07191,0.13483 -0.169643,0.24539 -0.292489,0.33228 -0.122846,0.0839 -0.258947,0.14719 -0.40876,0.18914 -0.149812,0.0419 -0.30091,0.0625 -0.453718,0.0625 -0.290637,0 -0.537811,-0.0405 -0.741558,-0.12144 -0.200748,-0.0809 -0.37346,-0.17646 -0.517279,-0.28732 l 0.296622,-0.62477 c 0.125843,0.10787 0.260807,0.19174 0.404627,0.25166 0.143819,0.0569 0.274336,0.0853 0.391189,0.0853 0.188764,0 0.337069,-0.0361 0.444934,-0.108 0.107865,-0.0749 0.161748,-0.18878 0.161748,-0.34159 0,-0.10187 -0.02999,-0.18409 -0.08992,-0.24701 -0.05693,-0.0659 -0.131908,-0.11371 -0.224793,-0.14366 -0.09288,-0.0329 -0.190101,-0.0496 -0.291973,-0.0496 -0.119848,0 -0.257606,0.0138 -0.413411,0.0408 -0.155806,0.024 -0.313521,0.0762 -0.472321,0.15709 z m -17.879528,0.61443 c -0.173154,0 -0.313685,0.0897 -0.421164,0.26872 -0.104492,0.17614 -0.156578,0.41191 -0.156578,0.70745 0,0.29557 0.05208,0.53298 0.156578,0.7121 0.10749,0.17612 0.24801,0.26407 0.421164,0.26407 0.173159,0 0.311502,-0.0879 0.415996,-0.26407 0.107474,-0.17912 0.16123,-0.41653 0.16123,-0.7121 0,-0.29554 -0.05373,-0.53131 -0.16123,-0.70745 -0.104505,-0.17913 -0.242837,-0.26872 -0.415996,-0.26872 z m 6.664193,0 c -0.173157,0 -0.312653,0.0897 -0.42013,0.26872 -0.104505,0.17614 -0.157096,0.41191 -0.157096,0.70745 0,0.29557 0.05259,0.53298 0.157096,0.7121 0.107477,0.17612 0.246973,0.26407 0.42013,0.26407 0.173161,0 0.312533,-0.0879 0.417028,-0.26407 0.107487,-0.17912 0.161232,-0.41653 0.161232,-0.7121 0,-0.29554 -0.05376,-0.53131 -0.161232,-0.70745 -0.104503,-0.17913 -0.243867,-0.26872 -0.417028,-0.26872 z m -12.029758,0.43822 c 0.223912,0 0.42382,0.0448 0.599964,0.13436 0.179128,0.0896 0.319141,0.21498 0.420648,0.3762 0.104492,0.15823 0.156578,0.34636 0.156578,0.56431 0,0.21494 -0.05209,0.4031 -0.156578,0.56431 -0.1015,0.16122 -0.24152,0.28611 -0.420648,0.37569 -0.176144,0.0896 -0.376052,0.13487 -0.599964,0.13487 -0.223914,0 -0.423833,-0.0453 -0.599961,-0.13487 -0.176146,-0.0896 -0.316672,-0.21447 -0.421164,-0.37569 -0.101499,-0.16121 -0.152445,-0.34937 -0.152445,-0.56431 0,-0.21795 0.05095,-0.40608 0.152445,-0.56431 0.104505,-0.16122 0.245018,-0.28665 0.421164,-0.3762 0.176128,-0.0896 0.376047,-0.13436 0.599961,-0.13436 z m 0,0.55552 c -0.131363,0 -0.243864,0.0461 -0.336412,0.1385 -0.09255,0.0925 -0.13901,0.21963 -0.13901,0.38085 0,0.16121 0.04647,0.28779 0.13901,0.38034 0.09255,0.0896 0.205049,0.13436 0.336412,0.13436 0.131358,0 0.244502,-0.0448 0.340032,-0.13436 0.09553,-0.0924 0.143142,-0.21913 0.143142,-0.38034 0,-0.16122 -0.04761,-0.28831 -0.143142,-0.38085 -0.09553,-0.0924 -0.208674,-0.1385 -0.340032,-0.1385 z m 9.838677,0.83303 c 0.122404,0 0.222618,0.0398 0.300241,0.1204 0.07763,0.0806 0.116787,0.17802 0.116787,0.29146 0,0.11048 -0.03917,0.20682 -0.116787,0.29042 -0.07763,0.0805 -0.177837,0.12144 -0.300241,0.12144 -0.11942,0 -0.219115,-0.041 -0.299723,-0.12144 -0.0806,-0.0835 -0.121441,-0.17995 -0.121441,-0.29042 0,-0.11348 0.04084,-0.21084 0.121441,-0.29146 0.08061,-0.0805 0.180303,-0.1204 0.299723,-0.1204 z m 7.093624,0 c 0.122405,0 0.222621,0.0398 0.300239,0.1204 0.07763,0.0806 0.116274,0.17802 0.116274,0.29146 0,0.11048 -0.03865,0.20682 -0.116274,0.29042 -0.07762,0.0805 -0.177837,0.12144 -0.300239,0.12144 -0.119419,0 -0.219117,-0.041 -0.299725,-0.12144 -0.0806,-0.0835 -0.121438,-0.17995 -0.121438,-0.29042 0,-0.11348 0.04085,-0.21084 0.121438,-0.29146 0.0806,-0.0805 0.180306,-0.1204 0.299725,-0.1204 z m 1.247469,0.21084 0.679029,0.14366 -0.561724,1.12344 -0.51263,-0.10335 z m -16.549894,0.0129 0.676444,0.14314 -0.559654,1.11931 -0.510564,-0.10283 z"
       id="rect988"
       inkscape:connector-curvature="0"
       sodipodi:nodetypes="cccccsccsccsccsccssccsccsccsccsscscscscsscscscscscccccccccccccscscccccsccscccccssccccccsccccsccscccsccscccccscsccccscscccccssccsccsccsccscccccccsccsccsccsccsccccccsccsccccccccscsccscccscscscscsscscscscssccsccsccsccsscscccscsscscscscsscscscscscccccccccc" />
    <rect
       style="opacity:1;fill:url(#linearGradient823);fill-opacity:1;stroke:none;stroke-width:2.8614471;stroke-linecap:round;stroke-linejoin:round;stroke-miterlimit:4;stroke-dasharray:none;stroke-dashoffset:0;stroke-opacity:1;paint-order:fill markers stroke"
       id="rect815"
       width="83.330444"
       height="16.566696"
       x="13.834958"
       y="108.3551"
       clip-path="url(#clipPath976)" />
    <g
       aria-label="Augsburg handelt!"
       style="font-style:normal;font-variant:normal;font-weight:normal;font-stretch:normal;font-size:7.4083333px;line-height:1.25;font-family:'Jost*';-inkscape-font-specification:'Jost*';letter-spacing:0px;word-spacing:0px;fill:#000000;fill-opacity:1;stroke:none;stroke-width:0.26458332"
       id="text827">
      <path
         d="m 27.786763,131.67415 -0.48895,-1.00753 h -1.64465 l -0.48895,1.00753 h -1.414991 l 2.726266,-5.5118 2.733675,5.5118 z m -1.311275,-3.28189 -0.57785,1.32609 h 1.1557 z"
         style="font-style:normal;font-variant:normal;font-weight:bold;font-stretch:normal;font-size:7.4083333px;font-family:'Jost*';-inkscape-font-specification:'Jost* Bold';stroke-width:0.26458332"
         id="path943"
         inkscape:connector-curvature="0" />
      <path
         d="m 30.64557,130.34065 q 0,0.29633 0.111125,0.46672 0.111125,0.16299 0.385233,0.16299 0.2667,0 0.429683,-0.16299 0.162984,-0.17039 0.162984,-0.46672 v -2.07433 h 1.118658 v 3.40783 h -1.118658 v -0.51118 q -0.140759,0.2667 -0.40005,0.42969 -0.259292,0.15557 -0.637117,0.15557 -0.629708,0 -0.926042,-0.32596 -0.288925,-0.33338 -0.288925,-0.96309 v -2.19286 h 1.163109 z"
         style="font-style:normal;font-variant:normal;font-weight:bold;font-stretch:normal;font-size:7.4083333px;font-family:'Jost*';-inkscape-font-specification:'Jost* Bold';stroke-width:0.26458332"
         id="path945"
         inkscape:connector-curvature="0" />
      <path
         d="m 33.603115,131.91862 h 1.081617 q 0.02223,0.31856 0.237067,0.47414 0.22225,0.15557 0.548216,0.15557 0.3556,0 0.600075,-0.23706 0.244475,-0.23707 0.244475,-0.7112 v -0.5334 q -0.407458,0.59266 -1.170516,0.59266 -0.414867,0 -0.785284,-0.19261 -0.370416,-0.19262 -0.600075,-0.57785 -0.229658,-0.39265 -0.229658,-0.96309 0,-0.57785 0.229658,-0.96308 0.229659,-0.38523 0.600075,-0.57785 0.370417,-0.19262 0.785284,-0.19262 0.763058,0 1.170516,0.59267 v -0.51858 h 1.074209 v 3.33375 q 0,0.65934 -0.251884,1.0668 -0.251883,0.40745 -0.681566,0.59266 -0.422275,0.18521 -0.940859,0.18521 -0.637116,0 -1.044575,-0.19262 -0.407458,-0.19261 -0.614891,-0.5408 -0.207434,-0.34079 -0.251884,-0.7927 z m 1.096434,-1.99284 q 0,0.40005 0.237066,0.61489 0.244475,0.21485 0.57785,0.21485 0.192617,0 0.377825,-0.0889 0.185209,-0.0963 0.303742,-0.28152 0.118533,-0.18521 0.118533,-0.45932 0,-0.28151 -0.118533,-0.46672 -0.118533,-0.18521 -0.303742,-0.27411 -0.185208,-0.0963 -0.377825,-0.0963 -0.333375,0 -0.57785,0.22225 -0.237066,0.21484 -0.237066,0.61489 z"
         style="font-style:normal;font-variant:normal;font-weight:bold;font-stretch:normal;font-size:7.4083333px;font-family:'Jost*';-inkscape-font-specification:'Jost* Bold';stroke-width:0.26458332"
         id="path947"
         inkscape:connector-curvature="0" />
      <path
         d="m 38.413902,130.37769 q 0.414866,0.36301 0.703791,0.48895 0.288925,0.12594 0.437092,0.12594 0.148167,0 0.237067,-0.0667 0.09631,-0.0741 0.09631,-0.20003 0,-0.20002 -0.22225,-0.30374 -0.214842,-0.10372 -0.503767,-0.20002 -0.244475,-0.0889 -0.466725,-0.20003 -0.22225,-0.11853 -0.363008,-0.31856 -0.140758,-0.20002 -0.140758,-0.5334 0,-0.48154 0.363008,-0.72601 0.370417,-0.25189 0.911225,-0.25189 0.437092,0 0.807508,0.14817 0.370417,0.14076 0.659342,0.3556 l -0.40005,0.72602 q -0.200025,-0.20003 -0.466725,-0.32597 -0.2667,-0.13335 -0.474133,-0.13335 -0.363009,0 -0.363009,0.22966 0,0.13335 0.118534,0.20743 0.118533,0.0741 0.31115,0.13335 0.192616,0.0593 0.407458,0.14076 0.244475,0.0963 0.459317,0.22225 0.214841,0.11853 0.348191,0.31115 0.13335,0.19262 0.13335,0.50377 0,0.58525 -0.348191,0.84455 -0.340784,0.25929 -0.940859,0.25929 -0.540808,0 -0.9779,-0.19262 -0.429683,-0.20002 -0.792691,-0.51117 z"
         style="font-style:normal;font-variant:normal;font-weight:bold;font-stretch:normal;font-size:7.4083333px;font-family:'Jost*';-inkscape-font-specification:'Jost* Bold';stroke-width:0.26458332"
         id="path949"
         inkscape:connector-curvature="0" />
      <path
         d="m 45.511663,129.97023 q 0,0.57044 -0.237067,0.97049 -0.229658,0.40005 -0.600075,0.60749 -0.370417,0.20002 -0.785283,0.20002 -0.75565,0 -1.163109,-0.61489 v 0.54081 h -1.118658 v -5.7785 h 1.118658 v 2.91147 q 0.407459,-0.61489 1.163109,-0.61489 0.414866,0 0.785283,0.20744 0.370417,0.20002 0.600075,0.60007 0.237067,0.39264 0.237067,0.97049 z m -1.177925,0 q 0,-0.40005 -0.244475,-0.63711 -0.237067,-0.24448 -0.570442,-0.24448 -0.192617,0 -0.377825,0.10372 -0.1778,0.10371 -0.296333,0.30374 -0.118534,0.19262 -0.118534,0.47413 0,0.27411 0.118534,0.47414 0.118533,0.20002 0.296333,0.30374 0.185208,0.10371 0.377825,0.10371 0.333375,0 0.570442,-0.23706 0.244475,-0.24448 0.244475,-0.64453 z"
         style="font-style:normal;font-variant:normal;font-weight:bold;font-stretch:normal;font-size:7.4083333px;font-family:'Jost*';-inkscape-font-specification:'Jost* Bold';stroke-width:0.26458332"
         id="path951"
         inkscape:connector-curvature="0" />
      <path
         d="m 47.343257,130.34065 q 0,0.29633 0.111125,0.46672 0.111125,0.16299 0.385234,0.16299 0.2667,0 0.429683,-0.16299 0.162983,-0.17039 0.162983,-0.46672 v -2.07433 h 1.118659 v 3.40783 h -1.118659 v -0.51118 q -0.140758,0.2667 -0.40005,0.42969 -0.259291,0.15557 -0.637116,0.15557 -0.629709,0 -0.926042,-0.32596 -0.288925,-0.33338 -0.288925,-0.96309 v -2.19286 h 1.163108 z"
         style="font-style:normal;font-variant:normal;font-weight:bold;font-stretch:normal;font-size:7.4083333px;font-family:'Jost*';-inkscape-font-specification:'Jost* Bold';stroke-width:0.26458332"
         id="path953"
         inkscape:connector-curvature="0" />
      <path
         d="m 52.508488,129.42202 q -0.0889,-0.0889 -0.185208,-0.14076 -0.09631,-0.0519 -0.244475,-0.0519 -0.244475,0 -0.40005,0.20002 -0.148167,0.19262 -0.148167,0.56304 v 1.68169 h -1.096433 v -3.40783 h 1.096433 v 0.42968 q 0.162983,-0.24448 0.385233,-0.37783 0.229659,-0.14075 0.474134,-0.14075 0.185208,0 0.348191,0.0741 0.170392,0.0741 0.259292,0.20743 z"
         style="font-style:normal;font-variant:normal;font-weight:bold;font-stretch:normal;font-size:7.4083333px;font-family:'Jost*';-inkscape-font-specification:'Jost* Bold';stroke-width:0.26458332"
         id="path955"
         inkscape:connector-curvature="0" />
      <path
         d="m 53.223624,131.91862 h 1.081616 q 0.02222,0.31856 0.237067,0.47414 0.22225,0.15557 0.548217,0.15557 0.3556,0 0.600075,-0.23706 0.244475,-0.23707 0.244475,-0.7112 v -0.5334 q -0.407459,0.59266 -1.170517,0.59266 -0.414867,0 -0.785283,-0.19261 -0.370417,-0.19262 -0.600075,-0.57785 -0.229659,-0.39265 -0.229659,-0.96309 0,-0.57785 0.229659,-0.96308 0.229658,-0.38523 0.600075,-0.57785 0.370416,-0.19262 0.785283,-0.19262 0.763058,0 1.170517,0.59267 v -0.51858 h 1.074208 v 3.33375 q 0,0.65934 -0.251883,1.0668 -0.251884,0.40745 -0.681567,0.59266 -0.422275,0.18521 -0.940858,0.18521 -0.637117,0 -1.044575,-0.19262 -0.407459,-0.19261 -0.614892,-0.5408 -0.207433,-0.34079 -0.251883,-0.7927 z m 1.096433,-1.99284 q 0,0.40005 0.237067,0.61489 0.244475,0.21485 0.57785,0.21485 0.192616,0 0.377825,-0.0889 0.185208,-0.0963 0.303741,-0.28152 0.118534,-0.18521 0.118534,-0.45932 0,-0.28151 -0.118534,-0.46672 -0.118533,-0.18521 -0.303741,-0.27411 -0.185209,-0.0963 -0.377825,-0.0963 -0.333375,0 -0.57785,0.22225 -0.237067,0.21484 -0.237067,0.61489 z"
         style="font-style:normal;font-variant:normal;font-weight:bold;font-stretch:normal;font-size:7.4083333px;font-family:'Jost*';-inkscape-font-specification:'Jost* Bold';stroke-width:0.26458332"
         id="path957"
         inkscape:connector-curvature="0" />
      <path
         d="m 62.307396,129.59982 q 0,-0.30375 -0.111125,-0.46673 -0.111125,-0.16298 -0.392642,-0.16298 -0.2667,0 -0.429683,0.16298 -0.155575,0.16298 -0.155575,0.46673 v 2.07433 h -1.118659 v -5.7785 h 1.118659 v 2.83739 q 0.140758,-0.27411 0.40005,-0.42968 0.259291,-0.16299 0.637116,-0.16299 0.637117,0 0.903817,0.33338 0.2667,0.33337 0.2667,0.96308 v 2.23732 h -1.118658 z"
         style="font-style:normal;font-variant:normal;font-weight:bold;font-stretch:normal;font-size:7.4083333px;font-family:'Jost*';-inkscape-font-specification:'Jost* Bold';stroke-width:0.26458332"
         id="path959"
         inkscape:connector-curvature="0" />
      <path
         d="m 64.732585,129.31089 -0.377825,-0.74824 q 0.288925,-0.14076 0.688975,-0.2667 0.407459,-0.12594 0.866775,-0.12594 0.459317,0 0.814917,0.13335 0.363008,0.12594 0.563033,0.37041 0.207434,0.24448 0.207434,0.60008 v 2.4003 h -1.074209 v -0.48154 q -0.148166,0.2667 -0.451908,0.41486 -0.303742,0.14076 -0.688975,0.14076 -0.540808,0 -0.889,-0.2667 -0.348192,-0.2667 -0.348192,-0.77046 0,-0.50377 0.40005,-0.8001 0.40005,-0.30375 1.074209,-0.30375 0.259291,0 0.496358,0.0593 0.237067,0.0593 0.407458,0.14076 v -0.31115 q 0,-0.21484 -0.162983,-0.34078 -0.155575,-0.13335 -0.437092,-0.13335 -0.363008,0 -0.66675,0.11112 -0.296333,0.10372 -0.422275,0.1778 z m 0.437092,1.34091 q 0,0.18521 0.140758,0.28152 0.148167,0.0889 0.348192,0.0889 0.303742,0 0.525992,-0.14817 0.22225,-0.14817 0.237066,-0.5334 -0.274108,-0.13335 -0.644525,-0.13335 -0.288925,0 -0.451908,0.12594 -0.155575,0.11853 -0.155575,0.31856 z"
         style="font-style:normal;font-variant:normal;font-weight:bold;font-stretch:normal;font-size:7.4083333px;font-family:'Jost*';-inkscape-font-specification:'Jost* Bold';stroke-width:0.26458332"
         id="path961"
         inkscape:connector-curvature="0" />
      <path
         d="m 70.540485,129.59982 q 0,-0.30375 -0.111125,-0.46673 -0.111125,-0.16298 -0.392641,-0.16298 -0.2667,0 -0.429684,0.16298 -0.155575,0.16298 -0.155575,0.46673 v 2.07433 h -1.118658 v -3.40783 h 1.118658 v 0.51117 q 0.140759,-0.2667 0.40005,-0.42227 0.259292,-0.16299 0.637117,-0.16299 0.637117,0 0.926042,0.33338 0.288924,0.32596 0.288924,0.95567 v 2.19287 h -1.163108 z"
         style="font-style:normal;font-variant:normal;font-weight:bold;font-stretch:normal;font-size:7.4083333px;font-family:'Jost*';-inkscape-font-specification:'Jost* Bold';stroke-width:0.26458332"
         id="path963"
         inkscape:connector-curvature="0" />
      <path
         d="m 72.379374,129.97023 q 0,-0.57785 0.229658,-0.97049 0.229659,-0.40005 0.600075,-0.60007 0.370417,-0.20744 0.785284,-0.20744 0.75565,0 1.170516,0.6223 v -2.91888 h 1.118659 v 5.7785 h -1.118659 v -0.54822 q -0.414866,0.6223 -1.170516,0.6223 -0.414867,0 -0.785284,-0.20002 -0.370416,-0.20744 -0.600075,-0.60749 -0.229658,-0.40005 -0.229658,-0.97049 z m 1.170517,0 q 0,0.40005 0.237066,0.64453 0.244475,0.23706 0.57785,0.23706 0.192617,0 0.377825,-0.10371 0.185209,-0.10372 0.303742,-0.30374 0.118533,-0.20003 0.118533,-0.47414 0,-0.28151 -0.118533,-0.47413 -0.118533,-0.20003 -0.303742,-0.30374 -0.185208,-0.10372 -0.377825,-0.10372 -0.333375,0 -0.57785,0.24448 -0.237066,0.23706 -0.237066,0.63711 z"
         style="font-style:normal;font-variant:normal;font-weight:bold;font-stretch:normal;font-size:7.4083333px;font-family:'Jost*';-inkscape-font-specification:'Jost* Bold';stroke-width:0.26458332"
         id="path965"
         inkscape:connector-curvature="0" />
      <path
         d="m 80.700669,130.7407 q -0.251884,0.45191 -0.674159,0.73342 -0.422275,0.27411 -1.1557,0.27411 -0.6223,0 -1.051983,-0.22966 -0.429683,-0.22965 -0.659342,-0.6297 -0.22225,-0.40746 -0.22225,-0.91864 0,-0.0963 0.0074,-0.18521 0.0074,-0.0889 0.02223,-0.1778 0.103716,-0.6297 0.57785,-1.02235 0.474133,-0.39264 1.303866,-0.39264 0.896409,0 1.370542,0.45932 0.474133,0.45932 0.474133,1.26682 0,0.0444 0,0.12595 0.0074,0.0741 -0.0074,0.16298 h -2.607733 q 0.05186,0.39264 0.2667,0.56303 0.214841,0.17039 0.503766,0.17039 0.607484,0 0.859367,-0.43709 z m -1.8669,-1.80023 q -0.296334,0 -0.496359,0.1704 -0.192616,0.16298 -0.244475,0.47413 h 1.400175 q -0.03704,-0.30374 -0.200025,-0.47413 -0.155575,-0.1704 -0.459316,-0.1704 z"
         style="font-style:normal;font-variant:normal;font-weight:bold;font-stretch:normal;font-size:7.4083333px;font-family:'Jost*';-inkscape-font-specification:'Jost* Bold';stroke-width:0.26458332"
         id="path967"
         inkscape:connector-curvature="0" />
      <path
         d="m 81.384201,125.89565 h 1.118658 v 5.7785 h -1.118658 z"
         style="font-style:normal;font-variant:normal;font-weight:bold;font-stretch:normal;font-size:7.4083333px;font-family:'Jost*';-inkscape-font-specification:'Jost* Bold';stroke-width:0.26458332"
         id="path969"
         inkscape:connector-curvature="0" />
      <path
         d="m 82.973519,128.26632 h 0.600075 v -1.18534 h 1.081617 v 1.18534 h 0.592667 v 0.92604 h -0.592667 v 2.48179 h -1.081617 v -2.48179 h -0.600075 z"
         style="font-style:normal;font-variant:normal;font-weight:bold;font-stretch:normal;font-size:7.4083333px;font-family:'Jost*';-inkscape-font-specification:'Jost* Bold';stroke-width:0.26458332"
         id="path971"
         inkscape:connector-curvature="0" />
      <path
         d="m 85.858371,126.48832 h 1.385359 l -0.237067,3.4745 h -0.903817 z m 0,4.72651 q 0,-0.28151 0.200025,-0.45931 0.200025,-0.1778 0.496359,-0.1778 0.303741,0 0.496358,0.1778 0.200025,0.1778 0.200025,0.45931 0,0.27411 -0.200025,0.45932 -0.192617,0.1778 -0.496358,0.1778 -0.296334,0 -0.496359,-0.1778 -0.200025,-0.18521 -0.200025,-0.45932 z"
         style="font-style:normal;font-variant:normal;font-weight:bold;font-stretch:normal;font-size:7.4083333px;font-family:'Jost*';-inkscape-font-specification:'Jost* Bold';stroke-width:0.26458332"
         id="path973"
         inkscape:connector-curvature="0" />
    </g>
    <path
       style="opacity:1;fill:#1b7340;fill-opacity:1;stroke:none;stroke-width:2.4950211;stroke-linecap:round;stroke-linejoin:round;stroke-miterlimit:4;stroke-dasharray:none;stroke-dashoffset:0;stroke-opacity:1;paint-order:fill markers stroke"
       d="m 74.153142,134.66706 v 6.32011 h 28.608408 v -6.32011 z m 7.984394,1.10049 h 0.676275 v 1.71467 c 0.05673,-0.11026 0.137126,-0.19675 0.241615,-0.25944 0.104505,-0.0657 0.233222,-0.0984 0.385479,-0.0984 0.256752,0 0.439079,0.0666 0.546558,0.20105 0.107487,0.13436 0.161076,0.32845 0.161076,0.58222 v 1.35254 h -0.676278 v -1.25355 c 0,-0.12243 -0.02222,-0.21652 -0.067,-0.28221 -0.04477,-0.0657 -0.12386,-0.099 -0.237313,-0.099 -0.107487,0 -0.194379,0.0333 -0.260059,0.099 -0.06269,0.0657 -0.09407,0.15977 -0.09407,0.28221 v 1.25355 h -0.676275 z m 12.341455,0 h 0.676275 v 3.49266 h -0.676275 z m -19.022467,0.35803 h 1.142296 c 0.400055,0 0.703323,0.0954 0.909286,0.2865 0.205999,0.18805 0.308628,0.43315 0.308628,0.73465 0,0.21496 -0.05363,0.4045 -0.161076,0.56869 -0.104502,0.16122 -0.260021,0.28083 -0.466015,0.35845 l 0.81522,1.18656 h -0.886542 l -0.676272,-1.0882 h -0.233011 v 1.0882 h -0.752514 z m 5.380715,0.35842 h 0.653531 v 0.71623 h 0.358426 v 0.56008 H 81.49077 v 1.50012 h -0.653531 v -1.50012 h -0.362734 v -0.56008 h 0.362734 z m 17.396938,0 h 0.65353 v 0.71623 h 0.35843 v 0.56008 h -0.35843 v 1.50012 h -0.65353 v -1.50012 h -0.36273 v -0.56008 h 0.36273 z m -22.025139,0.2864 v 0.81521 h 0.331378 c 0.152257,0 0.271846,-0.0359 0.358426,-0.10754 0.08955,-0.0747 0.134027,-0.17595 0.134027,-0.30434 0,-0.13136 -0.04445,-0.23134 -0.134027,-0.30002 -0.08657,-0.0685 -0.206169,-0.10322 -0.358426,-0.10322 z m 16.885426,0.35818 c 0.16719,0 0.32535,0.042 0.474623,0.12541 0.149275,0.0807 0.270181,0.20284 0.362735,0.36703 0.09553,0.16419 0.143243,0.36745 0.143243,0.60927 0,0.24182 -0.04771,0.44444 -0.143243,0.60864 -0.09256,0.16121 -0.21346,0.28405 -0.362735,0.36767 -0.149273,0.0835 -0.307433,0.1254 -0.474623,0.1254 -0.158229,0 -0.297413,-0.0346 -0.416833,-0.10322 -0.116435,-0.0716 -0.21187,-0.17161 -0.286493,-0.30001 v 1.31689 H 91.71486 v -3.04571 h 0.676278 v 0.33139 c 0.07462,-0.12838 0.170058,-0.22645 0.286493,-0.29511 0.11942,-0.0716 0.258604,-0.10754 0.416833,-0.10754 z m -13.837873,0.0135 c 0.185103,0 0.34915,0.027 0.492456,0.0805 0.146286,0.0508 0.25999,0.12528 0.340598,0.22377 0.0836,0.0985 0.125415,0.21942 0.125415,0.36274 v 1.45093 h -0.64984 v -0.2908 c -0.0597,0.10754 -0.150561,0.1905 -0.272968,0.25021 -0.122407,0.0568 -0.260975,0.0855 -0.416219,0.0855 -0.217942,0 -0.397018,-0.0534 -0.537334,-0.16108 -0.140319,-0.10753 -0.210876,-0.263 -0.210876,-0.46601 0,-0.20301 0.08101,-0.36442 0.242232,-0.48384 0.161213,-0.12241 0.377544,-0.18323 0.649226,-0.18323 0.104505,0 0.204483,0.0119 0.300019,0.0357 0.09553,0.0237 0.177255,0.052 0.24592,0.0848 v -0.18813 c 0,-0.0867 -0.03268,-0.15521 -0.09837,-0.20596 -0.06269,-0.0537 -0.150915,-0.0805 -0.264363,-0.0805 -0.146288,0 -0.280289,0.0228 -0.402693,0.0675 -0.119423,0.0419 -0.204388,0.0772 -0.255143,0.10696 l -0.228704,-0.45187 c 0.116438,-0.0568 0.25562,-0.11015 0.416833,-0.16111 0.164203,-0.0508 0.338709,-0.0763 0.523809,-0.0763 z m 6.393897,0 c 0.185106,0 0.349152,0.027 0.492456,0.0805 0.146286,0.0508 0.259374,0.12528 0.339982,0.22377 0.0836,0.0985 0.12542,0.21942 0.12542,0.36274 v 1.45093 H 85.95912 v -0.2908 c -0.0597,0.10754 -0.150564,0.1905 -0.272971,0.25021 -0.122404,0.0568 -0.26161,0.0855 -0.41683,0.0855 -0.217945,0 -0.39702,-0.0534 -0.537337,-0.16108 -0.140319,-0.10753 -0.210262,-0.263 -0.210259,-0.46601 0,-0.20301 0.0804,-0.36442 0.241615,-0.48384 0.161213,-0.12241 0.377547,-0.18323 0.649224,-0.18323 0.104505,0 0.204488,0.0119 0.300024,0.0357 0.09553,0.0237 0.177869,0.052 0.246534,0.0848 v -0.18813 c 0,-0.0867 -0.03267,-0.15521 -0.09837,-0.20596 -0.06269,-0.0537 -0.150918,-0.0805 -0.264364,-0.0805 -0.14629,0 -0.280291,0.0228 -0.402695,0.0675 -0.11942,0.0419 -0.205,0.0772 -0.255757,0.10696 l -0.228087,-0.45187 c 0.116435,-0.0568 0.255003,-0.11015 0.416216,-0.16111 0.164203,-0.0508 0.339323,-0.0763 0.524423,-0.0763 z m 11.003042,0 c 0.1851,0 0.34915,0.027 0.492451,0.0805 0.14629,0.0508 0.259376,0.12528 0.339984,0.22377 0.0836,0.0985 0.125423,0.21942 0.125423,0.36274 v 1.45093 h -0.649232 v -0.2908 c -0.0597,0.10754 -0.150561,0.1905 -0.272968,0.25021 -0.122404,0.0568 -0.260972,0.0855 -0.416219,0.0855 -0.217942,0 -0.397629,-0.0534 -0.537948,-0.16108 -0.140316,-0.10753 -0.210261,-0.263 -0.210261,-0.46601 0,-0.20301 0.0804,-0.36442 0.241614,-0.48384 0.161219,-0.12241 0.378167,-0.18323 0.649841,-0.18323 0.104505,0 0.204491,0.0119 0.300024,0.0357 0.09553,0.0237 0.177255,0.052 0.245917,0.0848 v -0.18813 c 0,-0.0867 -0.03269,-0.15521 -0.09837,-0.20596 -0.06269,-0.0537 -0.150916,-0.0805 -0.264361,-0.0805 -0.146289,0 -0.280287,0.0228 -0.402691,0.0675 -0.119422,0.0419 -0.205004,0.0772 -0.255757,0.10696 l -0.228092,-0.45187 c 0.116435,-0.0568 0.255003,-0.11015 0.416219,-0.16111 0.16419,-0.0508 0.339323,-0.0763 0.524423,-0.0763 z m -6.233435,0.0135 c 0.176144,0 0.338876,0.0294 0.488151,0.0891 0.14927,0.0568 0.282567,0.12858 0.399002,0.21516 l -0.242234,0.43895 c -0.08062,-0.0805 -0.174715,-0.14661 -0.282191,-0.19736 -0.107487,-0.0538 -0.202901,-0.0805 -0.286494,-0.0805 -0.14629,0 -0.219482,0.0465 -0.219482,0.13894 0,0.0538 0.02416,0.0956 0.07193,0.12542 0.04777,0.0298 0.110503,0.0567 0.188126,0.0805 0.07762,0.0239 0.159343,0.0519 0.24592,0.085 0.09853,0.0387 0.191307,0.0838 0.277887,0.13463 0.08657,0.0478 0.156524,0.11048 0.210264,0.18813 0.05374,0.0777 0.08055,0.17896 0.08055,0.30433 0,0.23586 -0.06994,0.4058 -0.210262,0.5103 -0.137332,0.10447 -0.326864,0.15675 -0.568688,0.15675 -0.217939,0 -0.414676,-0.0386 -0.590819,-0.11624 -0.173157,-0.0805 -0.333254,-0.18384 -0.479542,-0.30924 l 0.282192,-0.44326 c 0.167187,0.1463 0.309004,0.24497 0.425442,0.29572 0.116435,0.0508 0.204652,0.0763 0.264361,0.0763 0.05971,0 0.107407,-0.0136 0.143248,-0.0406 0.0388,-0.0298 0.0584,-0.0698 0.0584,-0.1205 0,-0.0806 -0.04507,-0.14203 -0.134644,-0.18384 -0.08657,-0.0419 -0.187891,-0.0822 -0.304326,-0.1211 -0.09852,-0.036 -0.192627,-0.0759 -0.282191,-0.12051 -0.08958,-0.0477 -0.162772,-0.11173 -0.21948,-0.19241 -0.05673,-0.0806 -0.08486,-0.18844 -0.08486,-0.32278 0,-0.19407 0.07258,-0.34044 0.218869,-0.43898 0.149275,-0.10141 0.33292,-0.15186 0.550862,-0.15186 z m -1.943989,0.0443 h 0.675661 v 2.06019 h -0.675661 v -0.30863 c -0.05673,0.1073 -0.137745,0.19376 -0.242237,0.25946 -0.104502,0.0626 -0.232603,0.094 -0.384862,0.094 -0.253762,0 -0.440659,-0.0653 -0.560078,-0.19673 -0.116438,-0.13436 -0.174604,-0.32845 -0.174604,-0.58221 V 137.2 h 0.703331 v 1.25356 c 0,0.11942 0.02222,0.21353 0.067,0.28221 0.04477,0.0657 0.122544,0.0983 0.233008,0.0983 0.107487,0 0.193765,-0.0327 0.259445,-0.0983 0.06568,-0.0686 0.09899,-0.16281 0.09899,-0.28221 z m 11.049151,0 h 2.011003 l -1.02548,1.44662 h 0.88223 v 0.61357 h -2.060193 l 1.083893,-1.44662 h -0.891453 z m -6.655194,0.52863 c -0.07762,0 -0.153456,0.0195 -0.22809,0.0584 -0.07166,0.0358 -0.131138,0.0907 -0.178906,0.16539 -0.04777,0.0717 -0.07193,0.1644 -0.07193,0.27789 0,0.11037 0.02416,0.20263 0.07193,0.27727 0.04777,0.0747 0.107249,0.13148 0.178906,0.17031 0.07463,0.0357 0.150466,0.054 0.22809,0.054 0.134347,0 0.249367,-0.0438 0.3449,-0.13033 0.09853,-0.0867 0.148169,-0.21013 0.148169,-0.37134 0,-0.16121 -0.04964,-0.28537 -0.148169,-0.37196 -0.09553,-0.0867 -0.210553,-0.12971 -0.3449,-0.12971 z m -13.694008,0.64491 c -0.116438,0 -0.207904,0.0255 -0.273587,0.0763 -0.06269,0.0478 -0.09408,0.11162 -0.09408,0.19243 0,0.0748 0.02873,0.13149 0.08546,0.17031 0.0597,0.0358 0.129651,0.0534 0.210261,0.0534 0.122405,0 0.228285,-0.0299 0.317847,-0.0897 0.08956,-0.0597 0.137279,-0.16691 0.143251,-0.32214 -0.110461,-0.0537 -0.239893,-0.0805 -0.389168,-0.0805 z m 6.393283,0 c -0.116438,0 -0.207288,0.0255 -0.272971,0.0763 -0.06269,0.0478 -0.09408,0.11162 -0.09408,0.19243 0,0.0748 0.02873,0.13149 0.08546,0.17031 0.0597,0.0358 0.129649,0.0534 0.210259,0.0534 0.122405,0 0.228285,-0.0299 0.317847,-0.0897 0.08958,-0.0597 0.137279,-0.16691 0.143251,-0.32214 -0.110461,-0.0537 -0.240509,-0.0805 -0.389779,-0.0805 z m 11.003653,0 c -0.116438,0 -0.207904,0.0255 -0.273587,0.0763 -0.06269,0.0478 -0.09407,0.11162 -0.09407,0.19243 0,0.0748 0.02873,0.13149 0.08546,0.17031 0.0597,0.0358 0.129652,0.0534 0.210262,0.0534 0.122404,0 0.228285,-0.0299 0.317852,-0.0897 0.08955,-0.0597 0.137274,-0.16691 0.143243,-0.32214 -0.110458,-0.0537 -0.23989,-0.0805 -0.389165,-0.0805 z"
       id="rect988-7"
       inkscape:connector-curvature="0"
       sodipodi:nodetypes="ccccccccccscsccscscscccccccccscscccccccccccccccccccccccccccccccccccccscsccccccsccscccccccccccccsccccscscsccscscccccccccsccccscccsccscscccccccccsccccscscsccscscccccccccccsscccccscsccccscsccccscccccccccscsccscscccccccccccccccsccscscccccscsccccccscsccccccscsccc" />
    <path
       style="opacity:1;fill:#1b7340;fill-opacity:1;stroke:none;stroke-width:2.4950211;stroke-linecap:round;stroke-linejoin:round;stroke-miterlimit:4;stroke-dasharray:none;stroke-dashoffset:0;stroke-opacity:1;paint-order:fill markers stroke"
       d="m 8.2388154,134.66706 v 6.32011 H 33.341159 v -6.32011 0 z m 4.2851426,1.10049 h 0.676279 v 3.49266 h -0.676279 z m 10.103589,0 h 0.676278 v 3.49266 h -0.676278 v -0.33137 c -0.167186,0.25077 -0.402498,0.37625 -0.707015,0.37625 -0.167188,0 -0.325967,-0.0405 -0.475241,-0.1211 -0.149274,-0.0835 -0.270182,-0.20582 -0.36273,-0.36705 -0.09256,-0.16121 -0.13833,-0.35664 -0.13833,-0.5865 0,-0.23288 0.04578,-0.4283 0.13833,-0.58653 0.09255,-0.16119 0.213456,-0.28211 0.36273,-0.36274 0.149274,-0.0835 0.308053,-0.12541 0.475241,-0.12541 0.304517,0 0.539829,0.12486 0.707015,0.37565 z m -8.546921,0.2945 c 0.107487,0 0.19965,0.0345 0.277274,0.10322 0.07762,0.0687 0.116818,0.1569 0.116818,0.26436 0,0.10753 -0.03919,0.19507 -0.116818,0.26375 -0.07762,0.0657 -0.169798,0.099 -0.277274,0.099 -0.107488,0 -0.200265,-0.0333 -0.277889,-0.099 -0.07761,-0.0686 -0.116198,-0.15628 -0.116198,-0.26375 0,-0.10731 0.03858,-0.19567 0.116198,-0.26436 0.07762,-0.0685 0.170414,-0.10322 0.277889,-0.10322 z m -4.6165176,0.0635 h 0.7795636 v 1.24065 l 1.065446,-1.24065 h 0.891456 l -1.272018,1.46873 1.339032,1.66612 h -0.917893 l -1.106023,-1.37465 v 1.37469 H 9.4641084 Z m 10.1410926,1.0165 c 0.185101,0 0.349151,0.027 0.492452,0.0805 0.146288,0.0508 0.25999,0.12528 0.340599,0.22377 0.0836,0.0985 0.12542,0.21942 0.12542,0.36274 v 1.45093 h -0.649228 v -0.2908 c -0.05971,0.10754 -0.151187,0.1905 -0.273584,0.25021 -0.122406,0.0568 -0.260974,0.0855 -0.416221,0.0855 -0.217937,0 -0.397014,-0.0534 -0.537332,-0.16108 -0.140316,-0.10753 -0.210876,-0.263 -0.210876,-0.46601 0,-0.20301 0.08101,-0.36442 0.242231,-0.48384 0.161216,-0.12241 0.377548,-0.18323 0.649227,-0.18323 0.104504,0 0.204486,0.0119 0.300022,0.0357 0.09553,0.0237 0.177867,0.052 0.246533,0.0848 v -0.18813 c 0,-0.0867 -0.03331,-0.15521 -0.09899,-0.20596 -0.06269,-0.0537 -0.150303,-0.0805 -0.263748,-0.0805 -0.146288,0 -0.280904,0.0228 -0.403309,0.0675 -0.119419,0.0419 -0.204397,0.0772 -0.255139,0.10696 l -0.228705,-0.45187 c 0.116436,-0.0568 0.255614,-0.11015 0.416833,-0.16111 0.1642,-0.0508 0.338709,-0.0763 0.523807,-0.0763 z m -3.396144,0.0135 c 0.161216,0 0.288626,0.0282 0.381175,0.085 0.09553,0.0538 0.16416,0.13609 0.205958,0.24653 0.07463,-0.10141 0.166808,-0.18253 0.277273,-0.24223 0.113444,-0.0598 0.240241,-0.0892 0.380559,-0.0892 0.241825,0 0.410444,0.0667 0.505979,0.20104 0.09553,0.13126 0.143864,0.32415 0.143864,0.57791 v 1.32552 h -0.676278 v -1.25357 c 0,-0.12242 -0.0196,-0.21654 -0.05839,-0.28222 -0.03879,-0.0657 -0.107442,-0.099 -0.205958,-0.099 -0.09255,0 -0.167061,0.0334 -0.223787,0.099 -0.05373,0.0657 -0.08055,0.15979 -0.08055,0.28222 v 1.25357 h -0.676278 v -1.25357 c 0,-0.12242 -0.02092,-0.21654 -0.06271,-0.28222 -0.0388,-0.0657 -0.107442,-0.099 -0.205957,-0.099 -0.09255,0 -0.165744,0.0334 -0.219482,0.099 -0.05374,0.0657 -0.08055,0.15979 -0.08055,0.28222 v 1.25357 h -0.649843 v -2.06021 h 0.649845 v 0.30495 c 0.05673,-0.10731 0.133873,-0.19244 0.232392,-0.25514 0.09853,-0.0626 0.219429,-0.094 0.362732,-0.094 z m 8.64529,0 c 0.361233,0 0.637677,0.0921 0.828748,0.27728 0.19107,0.1851 0.286494,0.44061 0.286494,0.76605 v 0.0763 c 0.0029,0.0299 0.0016,0.0624 -0.0042,0.0983 h -1.576344 c 0.02091,0.15823 0.0745,0.27195 0.161079,0.34061 0.08657,0.0686 0.187891,0.10254 0.304324,0.10254 0.2448,0 0.417998,-0.0883 0.519505,-0.26437 l 0.600042,0.14325 c -0.101498,0.18212 -0.236824,0.32984 -0.406996,0.44326 -0.170173,0.11037 -0.403463,0.16601 -0.699026,0.16601 -0.25078,0 -0.462544,-0.0465 -0.635702,-0.13895 -0.173157,-0.0925 -0.305837,-0.21934 -0.398389,-0.38055 -0.08957,-0.1642 -0.13464,-0.34919 -0.13464,-0.55517 0,-0.0387 0.0012,-0.0761 0.0042,-0.11173 0.0029,-0.0358 0.0077,-0.0718 0.01353,-0.10753 0.0418,-0.25377 0.158136,-0.45963 0.349205,-0.61787 0.191071,-0.15824 0.453798,-0.23732 0.788172,-0.23732 z m 2.777656,0 c 0.161217,0 0.288624,0.0282 0.381175,0.085 0.09553,0.0538 0.16416,0.13609 0.205957,0.24653 0.07463,-0.10141 0.166807,-0.18253 0.277275,-0.24223 0.113455,-0.0598 0.240241,-0.0892 0.380559,-0.0892 0.241824,0 0.410443,0.0667 0.505979,0.20104 0.09553,0.13127 0.143862,0.32415 0.143863,0.57791 v 1.32552 h -0.676278 v -1.25357 c 0,-0.12242 -0.0196,-0.21654 -0.05839,-0.28222 -0.0388,-0.0657 -0.107431,-0.099 -0.205958,-0.099 -0.09255,0 -0.167062,0.0334 -0.223786,0.099 -0.05374,0.0657 -0.08055,0.15979 -0.08055,0.28222 v 1.25357 H 27.60557 v -1.25357 c 0,-0.12242 -0.02092,-0.21654 -0.0627,-0.28222 -0.03879,-0.0657 -0.107419,-0.099 -0.205957,-0.099 -0.09255,0 -0.165745,0.0334 -0.219484,0.099 -0.05373,0.0657 -0.08055,0.15979 -0.08055,0.28222 v 1.25357 h -0.649841 v -2.06021 h 0.649841 v 0.30495 c 0.05673,-0.10731 0.133885,-0.19244 0.232395,-0.25514 0.09853,-0.0626 0.219426,-0.094 0.362729,-0.094 z m 3.476682,0 c 0.223911,0 0.423899,0.0445 0.600044,0.13403 0.179129,0.0896 0.319629,0.21504 0.421136,0.37627 0.104493,0.15823 0.156775,0.34643 0.156775,0.56438 0,0.21494 -0.05229,0.40317 -0.156775,0.56438 -0.101509,0.16123 -0.242007,0.28608 -0.421136,0.37566 -0.176145,0.0896 -0.376133,0.13462 -0.600044,0.13462 -0.223911,0 -0.423899,-0.045 -0.600043,-0.13462 -0.176143,-0.0896 -0.316652,-0.21443 -0.421136,-0.37566 -0.101498,-0.16121 -0.151855,-0.34944 -0.151855,-0.56438 0,-0.21795 0.05035,-0.40615 0.151855,-0.56438 0.104493,-0.16123 0.244993,-0.28671 0.421136,-0.37627 0.176144,-0.0896 0.376132,-0.13403 0.600043,-0.13403 z m -17.359435,0.0443 h 0.657834 v 2.06019 H 13.74925 Z m 11.096489,0.40763 c -0.11942,0 -0.219414,0.0347 -0.300021,0.10322 -0.07762,0.0656 -0.127271,0.16109 -0.148168,0.28649 h 0.846577 c -0.01493,-0.1224 -0.05544,-0.21793 -0.121114,-0.28649 -0.06269,-0.0687 -0.154873,-0.10322 -0.277274,-0.10322 z m -2.70142,0.0897 c -0.134338,0 -0.250697,0.049 -0.349207,0.14754 -0.09553,0.0955 -0.143248,0.22426 -0.143248,0.38548 0,0.16121 0.04772,0.29066 0.143248,0.38918 0.09851,0.0955 0.214869,0.14386 0.349207,0.14386 0.07762,0 0.153453,-0.0208 0.228088,-0.0626 0.07463,-0.0419 0.136053,-0.10323 0.183824,-0.18382 0.04777,-0.0805 0.07131,-0.17603 0.07131,-0.28649 0,-0.11348 -0.02354,-0.20887 -0.07131,-0.28651 -0.04777,-0.0806 -0.109201,-0.14201 -0.183824,-0.18382 -0.07463,-0.0419 -0.150465,-0.0626 -0.228088,-0.0626 z m 8.964366,0.0135 c -0.131361,0 -0.243127,0.0465 -0.335679,0.13894 -0.09255,0.0925 -0.138944,0.21934 -0.138944,0.38056 0,0.16121 0.04639,0.288 0.138944,0.38055 0.09256,0.0896 0.204318,0.13404 0.335679,0.13404 0.131362,0 0.245064,-0.0445 0.340599,-0.13404 0.09553,-0.0924 0.143248,-0.21934 0.143248,-0.38055 0,-0.16122 -0.04771,-0.28801 -0.143248,-0.38056 -0.09553,-0.0924 -0.209237,-0.13894 -0.340599,-0.13894 z m -11.584024,0.66271 c -0.116435,0 -0.207288,0.0255 -0.272968,0.0763 -0.06269,0.0478 -0.09407,0.11162 -0.09407,0.19243 0,0.0748 0.02812,0.13149 0.08485,0.17031 0.05971,0.0358 0.129653,0.0534 0.210262,0.0534 0.122404,0 0.228284,-0.0299 0.317851,-0.0897 0.08957,-0.0597 0.13789,-0.16691 0.143861,-0.32214 -0.110459,-0.0537 -0.240508,-0.0805 -0.389783,-0.0805 z"
       id="rect988-5"
       inkscape:connector-curvature="0"
       sodipodi:nodetypes="ccccccccccccccccsccsccsccscscscscscccccccccccccccsccccscscsccscsccccccccccscsccscscsccscscsccccccccccsccccscccsccscccccccccsccccscscsccscscsccccccccsccsccsccsccscccccsccccsccscsccsccccscscscscsccscscccc" />
  </g>
</svg>
