<svg xmlns="http://www.w3.org/2000/svg" width="3000" height="820" viewBox="0 0 3000 820">
  <!-- metadata ignored -->
<!-- x ignored -->
   <!-- rdf ignored -->
      <!-- rdf ignored -->
         <!-- xmp ignored -->Adobe Photoshop CC 2017 (Macintosh)
      
   

                                                                                                    
                                                                                                    
                                                                                                    
                                                                                                    
                                                                                                    
                                                                                                    
                                                                                                    
                                                                                                    
                                                                                                    
                                                                                                    
                                                                                                    
                                                                                                    
                                                                                                    
                                                                                                    
                                                                                                    
                                                                                                    
                                                                                                    
                                                                                                    
                                                                                                    
                                                                                                    
                           

<defs>
    <style type="text/css">
      .cls-1, .cls-2 {
        font-size: 416.667px;
        text-anchor: middle;
        font-family: Ubuntu;
      }

      .cls-1 {
        fill: #c80032;
      }

      .cls-2 {
        fill: #6c3;
      }
    </style>

  </defs>
  <text id="betamodus_A4" class="cls-1" x="1494.756" y="1787.231"><tspan x="1494.756">betamodus</tspan></text>
  <text id="betamodus_a4_oben" class="cls-2" x="1492.407" y="631.51"><tspan x="1492.407">betamodus</tspan></text>
</svg>