<?xml version="1.0" encoding="UTF-8" standalone="no"?>
<svg
   xmlns:dc="http://purl.org/dc/elements/1.1/"
   xmlns:cc="http://creativecommons.org/ns#"
   xmlns:rdf="http://www.w3.org/1999/02/22-rdf-syntax-ns#"
   xmlns:svg="http://www.w3.org/2000/svg"
   xmlns="http://www.w3.org/2000/svg"
   xmlns:sodipodi="http://sodipodi.sourceforge.net/DTD/sodipodi-0.dtd"
   xmlns:inkscape="http://www.inkscape.org/namespaces/inkscape"
   width="2089.3765"
   height="328.75024"
   viewBox="0 0 2089.3765 328.75025"
   version="1.1"
   id="svg12"
   sodipodi:docname="betamodus.svg"
   inkscape:version="0.92.3 (2405546, 2018-03-11)"><metadata
   id="metadata16">
  <rdf:RDF>
    <cc:Work
       rdf:about="">
      <dc:format>image/svg+xml</dc:format>
      <dc:type
         rdf:resource="http://purl.org/dc/dcmitype/StillImage" />
      <dc:title />
    </cc:Work>
  </rdf:RDF>
</metadata>
<sodipodi:namedview
   pagecolor="#ffffff"
   bordercolor="#666666"
   borderopacity="1"
   objecttolerance="10"
   gridtolerance="10"
   guidetolerance="10"
   inkscape:pageopacity="0"
   inkscape:pageshadow="2"
   inkscape:window-width="1920"
   inkscape:window-height="1015"
   id="namedview14"
   showgrid="false"
   fit-margin-top="0"
   fit-margin-left="0"
   fit-margin-right="0"
   fit-margin-bottom="0"
   inkscape:zoom="0.35866667"
   inkscape:cx="708.79561"
   inkscape:cy="-45.963896"
   inkscape:window-x="0"
   inkscape:window-y="0"
   inkscape:window-maximized="1"
   inkscape:current-layer="svg12" />
<!-- metadata ignored -->
<!-- x ignored -->
<!-- rdf ignored -->
<!-- rdf ignored -->
<!-- xmp ignored -->

Adobe Photoshop CC 2017 (Macintosh)
      
   

                                                                                                    
                                                                                                    
                                                                                                    
                                                                                                    
                                                                                                    
                                                                                                    
                                                                                                    
                                                                                                    
                                                                                                    
                                                                                                    
                                                                                                    
                                                                                                    
                                                                                                    
                                                                                                    
                                                                                                    
                                                                                                    
                                                                                                    
                                                                                                    
                                                                                                    
                                                                                                    
                           

<defs
   id="defs4">
  <style
     type="text/css"
     id="style2">
      .cls-1, .cls-2 {
        font-size: 416.667px;
        text-anchor: middle;
        font-family: Ubuntu;
      }

      .cls-1 {
        fill: #c80032;
      }

      .cls-2 {
        fill: #6c3;
      }
    </style>
</defs>
<g
   aria-label="betamodus"
   style="font-size:416.66699219px;font-family:Ubuntu;text-anchor:middle;fill:#66cc33"
   id="betamodus_a4_oben">
  <path
     d="m 38.750035,116.25009 q 7.083339,-4.58333 21.250016,-9.58334 14.583345,-5 33.33336,-5 23.333349,0 41.250029,8.33334 18.33335,8.33334 30.83336,23.33335 12.50001,15.00001 18.75001,35.83336 6.66668,20.83335 6.66668,45.83337 0,26.25002 -7.91668,47.50004 -7.5,20.83335 -21.66668,35.41669 -14.16668,14.58335 -34.16669,22.50002 -20.00002,7.91667 -45.000038,7.91667 -27.083355,0 -47.916704,-3.75 -20.83335,-3.75 -34.1666935749512,-7.50001 V 6.6666736 L 38.750035,1.7089844e-6 Z m 0,173.33347 q 5.833338,1.66667 16.250012,3.33334 10.833342,1.25 26.666688,1.25 31.250025,0 50.000035,-20.41668 18.75002,-20.83335 18.75002,-58.75005 0,-16.66668 -3.33334,-31.25002 -3.33333,-14.58335 -10.83334,-25.00002 -7.5,-10.83335 -19.58335,-16.66668 -11.66667,-6.25001 -28.333353,-6.25001 -15.833346,0 -29.16669,5.41667 -13.333343,5.41667 -20.416682,11.25001 z"
     style=""
     id="path814" />
  <path
     d="m 233.68508,215.41684 q 0,-28.75003 8.33334,-50.00004 8.33334,-21.66669 22.08335,-35.83336 13.75001,-14.16668 31.66669,-21.25002 17.91668,-7.08334 36.6667,-7.08334 43.75003,0 67.08338,27.50002 23.33335,27.08336 23.33335,82.91673 0,2.50001 0,6.66668 0,3.75 -0.41666,7.08333 H 274.10178 q 2.5,33.75003 19.58335,51.25004 17.08334,17.50002 53.33337,17.50002 20.41668,0 34.16669,-3.33334 14.16668,-3.75 21.25002,-7.08334 l 5.41667,32.50003 q -7.08334,3.75 -25.00002,7.91667 -17.50001,4.16667 -40.00003,4.16667 -28.33335,0 -49.1667,-8.33334 -20.41669,-8.75001 -33.75003,-23.75002 -13.33334,-15.00001 -20.00002,-35.41669 -6.25,-20.83335 -6.25,-45.4167 z M 382.4352,194.16682 q 0.41666,-26.25002 -13.33335,-42.9167 -13.33334,-17.08335 -37.08336,-17.08335 -13.33334,0 -23.75002,5.41667 -10.00001,5.00001 -17.08335,13.33335 -7.08333,8.33334 -11.25,19.16668 -3.75001,10.83334 -5.00001,22.08335 z"
     style=""
     id="path816" />
  <path
     d="m 514.76602,106.66675 h 82.0834 v 32.50003 h -82.0834 v 100.00008 q 0,16.25001 2.50001,27.08335 2.5,10.41667 7.5,16.66668 5.00001,5.83334 12.50001,8.33334 7.50001,2.5 17.50002,2.5 17.50001,0 27.91668,-3.75 10.83335,-4.16667 15.00002,-5.83334 l 7.5,32.08336 q -5.83334,2.91667 -20.41668,7.08334 -14.58335,4.58333 -33.33336,4.58333 -22.08335,0 -36.6667,-5.41667 -14.16667,-5.83333 -22.91668,-17.08334 -8.75001,-11.25001 -12.50001,-27.50002 -3.33334,-16.66668 -3.33334,-38.33337 V 46.250038 l 38.75003,-6.666672 z"
     style=""
     id="path818" />
  <path
     d="m 719.49276,295.4169 q 13.75001,0 24.16668,-0.41667 10.83335,-0.83333 17.91668,-2.5 v -64.58338 q -4.16667,-2.08334 -13.75001,-3.33334 -9.16667,-1.66667 -22.50001,-1.66667 -8.75001,0 -18.75002,1.25 -9.58334,1.25 -17.91668,5.41667 -7.91667,3.75001 -13.33334,10.83335 -5.41667,6.66667 -5.41667,17.91668 0,20.83335 13.33334,29.16669 13.33334,7.91667 36.25003,7.91667 z m -3.33334,-194.16682 q 23.33335,0 39.1667,6.25001 16.25001,5.83333 25.83335,17.08334 10.00001,10.83334 14.16668,26.25002 4.16667,15.00001 4.16667,33.33336 v 135.41677 q -5,0.83334 -14.16668,2.50001 -8.75,1.25 -20.00001,2.5 -11.25001,1.25 -24.58336,2.08333 -12.91667,1.25 -25.83335,1.25 -18.33335,0 -33.75003,-3.75 -15.41667,-3.75 -26.66668,-11.66667 -11.25001,-8.33334 -17.50002,-21.66669 -6.25,-13.33334 -6.25,-32.08336 0,-17.91668 7.08334,-30.83335 7.5,-12.91668 20.00001,-20.83335 12.50001,-7.91668 29.16669,-11.66668 16.66668,-3.75 35.00003,-3.75 5.83334,0 12.08334,0.83333 6.25001,0.41667 11.66668,1.66667 5.83334,0.83333 10.00001,1.66667 4.16667,0.83333 5.83333,1.25 v -10.83334 q 0,-9.58334 -2.08333,-18.75002 -2.08334,-9.58334 -7.50001,-16.66668 -5.41667,-7.5 -15.00001,-11.66667 -9.16667,-4.58334 -24.16668,-4.58334 -19.16669,0 -33.75003,2.91667 -14.16668,2.5 -21.25002,5.41667 l -4.58333,-32.08336 q 7.5,-3.33333 25.00002,-6.25 17.50001,-3.33334 37.91669,-3.33334 z"
     style=""
     id="path820" />
  <path
     d="m 863.44471,112.91676 q 13.33334,-3.33334 35.00002,-7.08334 22.08335,-3.75001 50.83338,-3.75001 20.83335,0 35.00002,5.83334 14.16668,5.41667 23.75007,16.25002 2.9166,-2.08334 9.1666,-5.83334 6.25,-3.75001 15.4167,-7.08334 9.1667,-3.75 20.4167,-6.25001 11.25,-2.91667 24.1667,-2.91667 25,0 40.8333,7.50001 15.8334,7.08334 24.5834,20.41668 9.1667,13.33335 12.0833,31.66669 3.3334,18.33335 3.3334,40.00004 v 121.66676 h -38.7501 V 210.00017 q 0,-19.16669 -2.0833,-32.9167 -1.6667,-13.75001 -7.0833,-22.91668 -5,-9.16668 -14.1667,-13.33334 -8.75,-4.58334 -22.9167,-4.58334 -19.5833,0 -32.5,5.41667 -12.5,5 -17.0834,9.16667 3.3334,10.83334 5,23.75002 1.6667,12.91668 1.6667,27.08336 V 323.33359 H 991.36147 V 210.00017 q 0,-19.16669 -2.08333,-32.9167 -2.08334,-13.75001 -7.50001,-22.91668 -5,-9.16668 -14.16668,-13.33334 -8.75,-4.58334 -22.50001,-4.58334 -5.83334,0 -12.50001,0.41667 -6.66667,0.41666 -12.91668,1.25 -5.83334,0.41666 -10.83334,1.25 -5.00001,0.83333 -6.66667,1.25 v 182.91681 h -38.75003 z"
     style=""
     id="path822" />
  <path
     d="m 1413.5818,215.00017 q 0,25.83335 -7.5,46.6667 -7.5,20.83335 -21.25,35.83336 -13.3333,15.00002 -32.0834,23.33336 -18.75,7.91667 -40.8333,7.91667 -22.0834,0 -40.8334,-7.91667 -18.75,-8.33334 -32.5,-23.33336 -13.3334,-15.00001 -20.8334,-35.83336 -7.5,-20.83335 -7.5,-46.6667 0,-25.41669 7.5,-46.25004 7.5,-21.25001 20.8334,-36.25002 13.75,-15.00002 32.5,-22.91669 18.75,-8.33334 40.8334,-8.33334 22.0833,0 40.8333,8.33334 18.7501,7.91667 32.0834,22.91669 13.75,15.00001 21.25,36.25002 7.5,20.83335 7.5,46.25004 z m -40.4167,0 q 0,-36.6667 -16.6667,-57.91671 -16.25,-21.66669 -44.5833,-21.66669 -28.3334,0 -45.0001,21.66669 -16.25,21.25001 -16.25,57.91671 0,36.66669 16.25,58.33338 16.6667,21.25002 45.0001,21.25002 28.3333,0 44.5833,-21.25002 16.6667,-21.66669 16.6667,-58.33338 z"
     style=""
     id="path824" />
  <path
     d="m 1608.1002,152.50012 q -7.0833,-5.83334 -20.4167,-11.25001 -13.3333,-5.41667 -29.1667,-5.41667 -16.6666,0 -28.75,6.25001 -11.6667,5.83333 -19.1667,16.66668 -7.5,10.41667 -10.8333,25.00002 -3.3333,14.58334 -3.3333,31.25002 0,37.9167 18.75,58.75005 18.75,20.41668 50,20.41668 15.8334,0 26.25,-1.25 10.8334,-1.66667 16.6667,-3.33334 z m 0,-145.8334464 38.75,-6.6666718910156 V 317.08358 q -13.3333,3.75001 -34.1667,7.50001 -20.8333,3.75 -47.9167,3.75 -25,0 -45,-7.91667 -20,-7.91667 -34.1667,-22.50002 -14.1667,-14.58334 -22.0833,-35.41669 -7.5,-21.25002 -7.5,-47.50004 0,-25.00002 6.25,-45.83337 6.6666,-20.83335 19.1666,-35.83336 12.5001,-15.00001 30.4167,-23.33335 18.3334,-8.33334 41.6667,-8.33334 18.7501,0 32.9167,5 14.5834,5.00001 21.6667,9.58334 z"
     style=""
     id="path826" />
  <path
     d="m 1886.3687,317.08358 q -13.3334,3.33334 -35.4167,7.08334 -21.6667,3.75 -50.4167,3.75 -25.0001,0 -42.0834,-7.08333 -17.0833,-7.50001 -27.5,-20.83335 -10.4167,-13.33335 -15,-31.25003 -4.5834,-18.33335 -4.5834,-40.4167 V 106.66675 h 38.7501 v 113.33342 q 0,39.58337 12.5,56.66671 12.5,17.08335 42.0833,17.08335 6.25,0 12.9167,-0.41667 6.6667,-0.41666 12.5,-0.83333 5.8334,-0.83333 10.4167,-1.25 5,-0.83333 7.0833,-1.66667 V 106.66675 h 38.7501 z"
     style=""
     id="path828" />
  <path
     d="m 2003.5432,295.4169 q 23.75,0 35,-6.25001 11.6667,-6.25 11.6667,-20.00001 0,-14.16668 -11.25,-22.50002 -11.25,-8.33334 -37.0834,-18.75001 -12.5,-5.00001 -24.1667,-10.00001 -11.25,-5.41667 -19.5833,-12.50001 -8.3334,-7.08334 -13.3334,-17.08335 -5,-10.00001 -5,-24.58335 0,-28.75002 21.25,-45.4167 21.2501,-17.08335 57.9168,-17.08335 9.1666,0 18.3333,1.25 9.1667,0.83334 17.0833,2.5 7.9167,1.25 13.7501,2.91667 6.25,1.66667 9.5833,2.91667 l -7.0833,33.33336 q -6.25,-3.33333 -19.5834,-6.66667 -13.3333,-3.75 -32.0833,-3.75 -16.2501,0 -28.3334,6.66667 -12.0833,6.25 -12.0833,20.00001 0,7.08334 2.5,12.50001 2.9166,5.41667 8.3333,10.00001 5.8333,4.16667 14.1667,7.91667 8.3333,3.75001 20,7.91668 15.4167,5.83333 27.5,11.66667 12.0834,5.41667 20.4167,12.91668 8.75,7.50001 13.3333,18.33335 4.5834,10.41667 4.5834,25.83335 0,30.00002 -22.5,45.4167 -22.0834,15.41668 -63.3334,15.41668 -28.75,0 -45.0001,-5 -16.25,-4.58334 -22.0833,-7.08334 l 7.0833,-33.33336 q 6.6667,2.5 21.25,7.50001 14.5834,5 38.7501,5 z"
     style=""
     id="path830" />
</g>
</svg>
