<?xml version="1.0" encoding="UTF-8" standalone="no"?>
<!-- Created with Inkscape (http://www.inkscape.org/) -->

<svg
   xmlns:dc="http://purl.org/dc/elements/1.1/"
   xmlns:cc="http://creativecommons.org/ns#"
   xmlns:rdf="http://www.w3.org/1999/02/22-rdf-syntax-ns#"
   xmlns:svg="http://www.w3.org/2000/svg"
   xmlns="http://www.w3.org/2000/svg"
   xmlns:sodipodi="http://sodipodi.sourceforge.net/DTD/sodipodi-0.dtd"
   xmlns:inkscape="http://www.inkscape.org/namespaces/inkscape"
   version="1.1"
   id="svg2"
   xml:space="preserve"
   width="185.19698"
   height="91.580864"
   viewBox="0 0 185.19698 91.580865"
   sodipodi:docname="deargoods.svg"
   inkscape:version="0.92.3 (2405546, 2018-03-11)"><metadata
     id="metadata8"><rdf:RDF><cc:Work
         rdf:about=""><dc:format>image/svg+xml</dc:format><dc:type
           rdf:resource="http://purl.org/dc/dcmitype/StillImage" /><dc:title></dc:title></cc:Work></rdf:RDF></metadata><defs
     id="defs6" /><sodipodi:namedview
     pagecolor="#ffffff"
     bordercolor="#666666"
     borderopacity="1"
     objecttolerance="10"
     gridtolerance="10"
     guidetolerance="10"
     inkscape:pageopacity="0"
     inkscape:pageshadow="2"
     inkscape:window-width="640"
     inkscape:window-height="480"
     id="namedview4"
     showgrid="false"
     fit-margin-top="0"
     fit-margin-left="0"
     fit-margin-right="0"
     fit-margin-bottom="0"
     inkscape:zoom="1.2488535"
     inkscape:cx="78.584057"
     inkscape:cy="45.789541"
     inkscape:window-x="979"
     inkscape:window-y="276"
     inkscape:window-maximized="0"
     inkscape:current-layer="g10" /><g
     id="g10"
     inkscape:groupmode="layer"
     inkscape:label="ink_ext_XXXXXX"
     transform="matrix(1.3333333,0,0,-1.3333333,-1.889754,140.27799)"><g
       id="g12"
       transform="scale(0.1)"><path
         d="m 463.414,658.102 78.25,13.796 c 37.352,6.586 65.504,23.313 84.461,50.176 17.055,24.149 23.133,50.114 18.234,77.895 -4.066,23.078 -14.296,40.242 -30.679,51.496 -16.387,11.25 -37.973,14.512 -64.754,9.789 l -79.149,-13.953 1.246,-7.059 c 8.29,0.731 13.829,0.723 16.614,-0.019 2.785,-0.746 4.586,-3.422 5.398,-8.035 0.313,-1.774 0.43,-3.879 0.36,-6.317 -0.079,-2.433 -0.297,-5.469 -0.665,-9.098 l -11.906,-128.16 c -0.754,-8.179 -2.976,-14.015 -6.664,-17.5 -2.187,-2.121 -6.183,-4.105 -11.988,-5.953 z m 137.93,151.488 c 3.972,-22.531 3.34,-44.68 -1.887,-66.449 -8.598,-35.903 -29.109,-56.711 -61.531,-62.426 -5.684,-1.004 -9.754,-0.899 -12.211,0.312 -2.457,1.211 -4,3.594 -4.625,7.141 -0.141,0.797 -0.238,1.738 -0.293,2.828 -0.055,1.09 -0.024,2.328 0.098,3.723 l 13.277,144.312 c 0.324,3.352 1.359,6.16 3.113,8.438 1.754,2.273 5.563,3.929 11.426,4.961 17.504,3.09 30.891,-0.864 40.156,-11.848 5.938,-7.184 10.098,-17.516 12.477,-30.992 z m 127.199,4.289 c 1.391,-7.883 -0.309,-17.449 -5.098,-28.703 -4.789,-11.258 -14.726,-20.039 -29.812,-26.352 1.531,19.356 4.472,34.711 8.832,46.074 4.355,11.36 9.73,17.606 16.121,18.731 3.016,0.531 5.297,-0.188 6.832,-2.152 1.535,-1.965 2.578,-4.5 3.125,-7.598 z m -70.148,-81.766 c 2.515,-14.277 8.628,-24.148 18.332,-29.613 9.703,-5.469 19.347,-7.355 28.933,-5.664 12.871,2.269 23.352,8.512 31.434,18.723 5.094,6.386 10.051,15.91 14.867,28.566 l -8.809,3.25 c -2.882,-7.008 -5.742,-12.59 -8.578,-16.75 -5.293,-7.891 -11.219,-12.41 -17.789,-13.57 -8.078,-1.422 -14.058,0.586 -17.949,6.035 -2.16,2.914 -3.734,7.164 -4.719,12.758 -0.265,1.507 -0.476,3.484 -0.637,5.929 -0.156,2.442 -0.207,5.086 -0.16,7.93 20.18,6.481 35.844,16.004 46.993,28.57 11.144,12.563 15.703,24.606 13.671,36.121 -1.343,7.622 -5.156,13.024 -11.437,16.211 -6.281,3.188 -13.641,4.036 -22.07,2.551 -19.532,-3.445 -35.77,-16.183 -48.723,-38.215 -12.535,-21.316 -16.984,-42.261 -13.359,-62.832 z m 185.882,95.832 c 2.082,-11.804 0.821,-28.504 -3.785,-50.09 -7.195,-26.07 -15.324,-39.859 -24.383,-41.363 -3.546,-0.625 -6.687,0.465 -9.425,3.278 -2.735,2.812 -4.485,6.394 -5.254,10.746 -1.938,11.004 -0.164,27.652 5.32,49.945 6.258,25.172 14.305,38.629 24.148,40.363 4.614,0.813 8.122,-0.676 10.524,-4.461 1.277,-2.062 2.23,-4.871 2.855,-8.418 z m -76.398,-83.347 c 2.285,-12.961 7.012,-21.602 14.18,-25.918 7.168,-4.317 14.347,-5.844 21.539,-4.575 7.988,1.407 14.797,5.215 20.429,11.426 5.629,6.211 10.203,13.375 13.711,21.5 1.582,3.481 2.742,6.114 3.485,7.891 0.734,1.777 0.961,2.457 0.668,2.039 -0.731,-9.371 -0.887,-15.211 -0.481,-17.52 1.067,-6.035 3.82,-10.261 8.278,-12.679 4.453,-2.418 8.761,-3.258 12.937,-2.524 6.832,1.203 13.063,5.461 18.684,12.766 5.621,7.309 11.16,17.023 16.617,29.152 l -6.449,3.117 c -1.094,-2.113 -2.465,-4.714 -4.118,-7.796 -1.656,-3.082 -2.836,-5.192 -3.55,-6.321 -1.473,-2.551 -2.86,-4.554 -4.157,-6.019 -1.3,-1.465 -2.746,-2.336 -4.343,-2.617 -0.887,-0.161 -1.743,0.011 -2.559,0.507 -0.824,0.496 -1.371,1.543 -1.652,3.141 -0.692,3.906 -0.645,10.641 0.14,20.207 0.219,4.98 0.793,12.219 1.727,21.719 l 6.512,66.906 -28.118,-7.02 -2.062,-15.324 c -2.543,5.59 -5.008,9.457 -7.399,11.598 -4,3.504 -9.457,4.648 -16.371,3.43 -17.027,-3.004 -31.886,-16.743 -44.574,-41.219 -12.254,-23.852 -16.609,-45.809 -13.074,-65.867 z m 177.562,-1.5 c 0.911,5.742 2.219,15.168 3.938,28.285 1.715,13.117 3.309,23.281 4.785,30.5 2.094,10.433 5.106,20.847 9.039,31.246 3.934,10.391 7.633,15.894 11.094,16.508 0.797,0.14 1.473,0.074 2.019,-0.196 0.551,-0.269 1.094,-0.628 1.633,-1.082 l 3.094,-2.75 c 1.645,-1.543 3.5,-2.589 5.566,-3.136 2.063,-0.555 4.204,-0.633 6.422,-0.243 4.969,0.875 8.489,3.645 10.549,8.313 2.06,4.664 2.63,9.613 1.7,14.852 -0.76,4.347 -2.72,8.074 -5.878,11.179 -3.152,3.106 -7.39,4.192 -12.711,3.25 -7.628,-1.344 -14.597,-8.246 -20.902,-20.707 -3.59,-7.133 -7.953,-18.929 -13.098,-35.394 l -1.246,0.054 6.641,51.004 c -12.027,-4.5 -20.566,-7.562 -25.613,-9.183 -7.785,-2.563 -17.426,-5.223 -28.918,-7.981 l 1.265,-7.191 c 5.414,0.957 9.321,1.14 11.711,0.554 2.391,-0.585 3.883,-2.566 4.481,-5.937 0.672,-3.816 0.031,-16.285 -1.918,-37.402 -1.446,-19.567 -3.629,-43.016 -6.539,-70.344 l 32.886,5.801"
         style="fill:#000000;fill-opacity:1;fill-rule:nonzero;stroke:none"
         id="path14"
         inkscape:connector-curvature="0" /><path
         d="m 426.137,900.879 c 0,17.211 -6.602,31.101 -19.805,41.672 -13.203,10.566 -30.668,18.804 -52.394,18.804 -19.278,0 -34.653,-6.585 -46.125,-13.855 -11.477,-7.27 -22.672,-21.34 -33.59,-42.207 -0.336,-0.715 -0.836,-1.695 -1.504,-2.945 -17.828,-33.797 -37.883,-54.399 -60.164,-61.801 22.168,-7.227 42.222,-27.871 60.164,-61.942 l 1.504,-2.675 c 10.918,-20.778 22.168,-34.825 33.757,-42.137 11.586,-7.313 26.907,-13.922 45.958,-13.922 21.726,0 39.191,8.215 52.394,18.738 13.203,10.524 19.805,24.438 19.805,41.739 0,36.636 -33.051,55.203 -52.66,60.199 19.609,5.082 52.66,24.258 52.66,60.332"
         style="fill:#000000;fill-opacity:1;fill-rule:nonzero;stroke:none"
         id="path16"
         inkscape:connector-curvature="0" /><path
         d="m 106.586,1046.91 c -15.6641,7.14 -31.0391,6.89 -46.1329,-0.74 -15.0898,-7.63 -29.8281,-20.11 -38.8359,-39.88 -7.9961,-17.536 -8.3789,-34.259 -6.5234,-47.716 1.8554,-13.457 10.0156,-29.48 24.4765,-48.07 0.5117,-0.598 1.1953,-1.461 2.0547,-2.59 23.3633,-30.234 33.793,-57.027 31.2891,-80.375 15.7695,17.18 42.8709,26.867 81.3129,29.063 l 3.058,0.257 c 23.434,1.321 40.883,5.735 52.344,13.246 11.457,7.512 23.824,18.711 31.726,36.047 9.012,19.77 8.778,39.071 4.676,55.446 -4.101,16.379 -14.023,28.156 -29.765,35.332 -33.34,15.19 -63.942,-7.184 -76.618,-22.953 3.508,19.949 -0.238,57.973 -33.062,72.933"
         style="fill:#000000;fill-opacity:1;fill-rule:nonzero;stroke:none"
         id="path18"
         inkscape:connector-curvature="0" /><path
         d="m 229.832,721.934 c 10.359,13.75 13.445,28.812 9.262,45.199 -4.184,16.387 -13.176,33.472 -30.528,46.551 -15.394,11.597 -31.636,15.593 -45.175,16.691 -13.539,1.105 -30.95,-3.395 -52.227,-13.488 -0.695,-0.371 -1.687,-0.852 -2.973,-1.446 C 73.6133,799.176 45.1953,794.789 22.9453,802.289 36.3047,783.176 39.8945,754.617 33.7188,716.613 l -0.4063,-3.043 c -3.7852,-23.164 -3.2539,-41.152 1.6016,-53.968 4.8515,-12.813 13.1093,-27.313 28.3242,-38.778 17.3515,-13.074 36.2422,-17.023 53.1207,-16.566 16.875,0.461 30.524,7.597 40.934,21.414 22.051,29.266 6.828,63.98 -5.824,79.769 18.719,-7.742 56.652,-12.316 78.363,16.493"
         style="fill:#000000;fill-opacity:1;fill-rule:nonzero;stroke:none"
         id="path20"
         inkscape:connector-curvature="0" /><path
         d="m 438.254,390.25 41.129,7.25 -27.992,158.762 -123.387,-21.758 8.484,-48.121 64.985,11.457 c 3.476,-41.371 -16.801,-68.27 -58.754,-75.668 -57.992,-10.223 -88.492,35.285 -97.121,84.23 -9.067,51.411 4.031,104.61 62.019,114.836 30.438,5.367 57.676,-7.218 70.809,-38.406 l 61.695,10.883 c -18.742,65.394 -82.027,92.402 -142.074,81.812 -90.899,-16.023 -132.399,-93.316 -117.024,-180.511 14.938,-84.727 80.375,-143.164 171.27,-127.137 28.379,5.012 56.035,21.332 73.508,54.523 z m 45.445,117.426 c 11.895,-67.453 62.914,-104.254 129.543,-92.504 67.039,11.816 102.395,63.851 90.5,131.301 -11.965,67.863 -62.984,104.668 -130.027,92.847 -66.629,-11.746 -101.981,-63.781 -90.016,-131.644 z m 58.403,10.297 c -6.016,34.136 -0.11,70.379 39.375,77.34 39.894,7.035 57.843,-25 63.863,-59.137 5.945,-33.727 0.039,-69.965 -39.86,-77 -39.484,-6.961 -57.429,25.07 -63.378,58.797 z m 178.5,31.472 c 11.894,-67.449 62.91,-104.254 129.543,-92.507 67.039,11.824 102.39,63.855 90.5,131.308 -11.969,67.863 -62.985,104.668 -130.028,92.848 -66.629,-11.75 -101.98,-63.785 -90.015,-131.649 z m 58.402,10.301 c -6.02,34.137 -0.109,70.375 39.375,77.34 39.894,7.035 57.84,-25 63.859,-59.137 5.95,-33.726 0.039,-69.969 -39.855,-77.004 -39.485,-6.961 -57.43,25.075 -63.379,58.801 z m 358.846,-46.141 55.53,9.793 -51.78,293.665 -58.41,-10.301 18.86,-106.938 -0.82,-0.144 0.41,0.074 c -17.27,18.582 -43.84,24.926 -68.93,20.5 -62.515,-11.024 -84.827,-69.664 -74.745,-126.832 10.371,-58.817 51.345,-108.418 115.505,-97.106 27.15,4.789 49.26,18.864 58.77,44.289 l 0.83,0.149 z m -19.68,106.793 c 6.17,-34.96 0.6,-70.718 -38.06,-77.535 -36.2,-6.383 -57.58,25.895 -63.45,59.211 -6.17,34.957 1.19,70.184 39.44,76.93 37.84,6.672 55.98,-24.059 62.07,-58.606 z m 86.46,-23.769 c 12.41,-55.914 63.79,-65.938 113.15,-57.234 48.53,8.558 93.87,35.21 84.01,91.148 -6.96,39.484 -42.45,45.949 -77.97,47.742 -34.69,1.942 -68.1,-0.98 -71.8,19.996 -3.05,17.274 15.85,23.149 29.01,25.473 20.98,3.695 39.34,0.574 44.97,-21.758 l 55.53,9.789 c -13.74,51.438 -59.27,59.524 -105.75,51.328 -45.65,-8.047 -90.07,-30.3 -80.5,-84.59 6.6,-37.429 42.43,-43.41 77.46,-44.867 43.55,-1.648 68.9,-3.539 72.02,-21.226 3.63,-20.563 -16.6,-30.914 -33.46,-33.891 -23.03,-4.059 -46.23,2.449 -51.14,27.879 l -55.53,-9.789"
         style="fill:#000000;fill-opacity:1;fill-rule:nonzero;stroke:none"
         id="path22"
         inkscape:connector-curvature="0" /></g></g></svg>