<?xml version="1.0" encoding="UTF-8" standalone="no"?>
<!-- Created with Inkscape (http://www.inkscape.org/) -->

<svg
   xmlns:dc="http://purl.org/dc/elements/1.1/"
   xmlns:cc="http://creativecommons.org/ns#"
   xmlns:rdf="http://www.w3.org/1999/02/22-rdf-syntax-ns#"
   xmlns:svg="http://www.w3.org/2000/svg"
   xmlns="http://www.w3.org/2000/svg"
   xmlns:xlink="http://www.w3.org/1999/xlink"
   xmlns:sodipodi="http://sodipodi.sourceforge.net/DTD/sodipodi-0.dtd"
   xmlns:inkscape="http://www.inkscape.org/namespaces/inkscape"
   width="83.330444mm"
   height="25.089638mm"
   viewBox="0 0 83.330445 25.089639"
   version="1.1"
   id="svg8"
   inkscape:version="0.92.3 (2405546, 2018-03-11)"
   sodipodi:docname="wir-stehen-hinter-augsburg-notext.svg">
  <defs
     id="defs2">
    <linearGradient
       inkscape:collect="always"
       id="linearGradient821">
      <stop
         style="stop-color:#fffffe;stop-opacity:1"
         offset="0"
         id="stop817" />
      <stop
         id="stop827"
         offset="0.00000001"
         style="stop-color:#009ee0;stop-opacity:1" />
      <stop
         id="stop825"
         offset="0.1812131"
         style="stop-color:#009ee0;stop-opacity:1" />
      <stop
         style="stop-color:#53b278;stop-opacity:1"
         offset="1"
         id="stop819" />
    </linearGradient>
    <linearGradient
       inkscape:collect="always"
       xlink:href="#linearGradient821"
       id="linearGradient823"
       x1="10.984447"
       y1="115.91963"
       x2="87.428284"
       y2="115.91963"
       gradientUnits="userSpaceOnUse"
       gradientTransform="matrix(0.93518275,0,0,1.0541126,3.562493,-5.8633712)" />
    <clipPath
       clipPathUnits="userSpaceOnUse"
       id="clipPath976">
      <g
         aria-label="WIR STEHEN HINTER
FRIDAYS FOR FUTURE!"
         style="font-style:normal;font-variant:normal;font-weight:bold;font-stretch:normal;font-size:7.76111126px;line-height:1.25;font-family:'Jost*';-inkscape-font-specification:'Jost* Bold';letter-spacing:0px;word-spacing:0px;fill:#000000;fill-opacity:1;stroke:none;stroke-width:0.26458332"
         id="g1042"
         transform="translate(8.6893719e-8,-1.0026041e-6)">
        <path
           d="m 21.207407,111.85536 1.016706,-3.22862 h 1.552222 l -2.343856,5.75098 -1.754011,-3.28295 -1.754011,3.28295 -2.343856,-5.75098 h 1.552223 l 1.024466,3.22862 1.521178,-3.50026 z"
           style="font-style:normal;font-variant:normal;font-weight:bold;font-stretch:normal;font-family:'Jost*';-inkscape-font-specification:'Jost* Bold';text-align:center;text-anchor:middle;stroke-width:0.26458332"
           id="path978"
           inkscape:connector-curvature="0" />
        <path
           d="m 24.37006,108.62674 h 1.334911 v 5.43278 H 24.37006 Z"
           style="font-style:normal;font-variant:normal;font-weight:bold;font-stretch:normal;font-family:'Jost*';-inkscape-font-specification:'Jost* Bold';text-align:center;text-anchor:middle;stroke-width:0.26458332"
           id="path980"
           inkscape:connector-curvature="0" />
        <path
           d="m 26.840882,108.62674 h 1.979083 q 1.039989,0 1.575506,0.49671 0.535517,0.48895 0.535517,1.27282 0,0.5588 -0.2794,0.98566 -0.271639,0.4191 -0.807156,0.62089 l 1.412522,2.0567 h -1.5367 l -1.171928,-1.88595 h -0.403577 v 1.88595 h -1.303867 z m 1.878189,1.1176 h -0.574322 v 1.41252 h 0.574322 q 0.395817,0 0.620889,-0.18627 0.232833,-0.19402 0.232833,-0.52775 0,-0.34149 -0.232833,-0.52 -0.225072,-0.1785 -0.620889,-0.1785 z"
           style="font-style:normal;font-variant:normal;font-weight:bold;font-stretch:normal;font-family:'Jost*';-inkscape-font-specification:'Jost* Bold';text-align:center;text-anchor:middle;stroke-width:0.26458332"
           id="path982"
           inkscape:connector-curvature="0" />
        <path
           d="m 34.805843,112.11924 q 0.2794,0.48895 0.582083,0.7373 0.302684,0.2406 0.729545,0.2406 0.667456,0 0.667456,-0.53552 0,-0.23283 -0.155223,-0.37253 -0.147461,-0.1397 -0.403578,-0.2406 -0.248355,-0.10865 -0.5588,-0.23283 -0.194027,-0.0776 -0.450144,-0.19403 -0.248356,-0.12417 -0.48895,-0.31044 -0.232833,-0.19403 -0.388056,-0.48119 -0.147461,-0.28716 -0.147461,-0.69074 0,-0.4579 0.248356,-0.79939 0.256117,-0.34925 0.6985,-0.54328 0.442383,-0.19403 1.016705,-0.19403 0.535517,0 0.915812,0.17851 0.380294,0.1785 0.62865,0.45014 0.248355,0.27164 0.395816,0.56656 l -0.985661,0.5588 q -0.170744,-0.30268 -0.4191,-0.47343 -0.240594,-0.17074 -0.5588,-0.17074 -0.2794,0 -0.442383,0.12418 -0.155222,0.12418 -0.155222,0.33373 0,0.18626 0.178505,0.3182 0.178506,0.13194 0.457906,0.2406 0.287161,0.10865 0.613128,0.22507 0.380294,0.13194 0.690738,0.34925 0.318206,0.20955 0.504473,0.53551 0.186266,0.32597 0.186266,0.7994 0,0.55104 -0.271639,0.93133 -0.263877,0.37254 -0.729544,0.56656 -0.457906,0.19403 -1.032228,0.19403 -0.496711,0 -0.946855,-0.19403 -0.450145,-0.19402 -0.791634,-0.51999 -0.341489,-0.33373 -0.512233,-0.76059 z"
           style="font-style:normal;font-variant:normal;font-weight:bold;font-stretch:normal;font-family:'Jost*';-inkscape-font-specification:'Jost* Bold';text-align:center;text-anchor:middle;stroke-width:0.26458332"
           id="path984"
           inkscape:connector-curvature="0" />
        <path
           d="m 38.484975,109.80643 v -1.17969 h 4.291894 v 1.17969 h -1.490133 v 4.25309 h -1.311628 v -4.25309 z"
           style="font-style:normal;font-variant:normal;font-weight:bold;font-stretch:normal;font-family:'Jost*';-inkscape-font-specification:'Jost* Bold';text-align:center;text-anchor:middle;stroke-width:0.26458332"
           id="path986"
           inkscape:connector-curvature="0" />
        <path
           d="m 43.378718,108.62674 h 3.608917 v 1.07879 h -2.351617 v 0.97014 h 2.196395 v 1.05551 h -2.196395 v 1.24954 h 2.351617 v 1.0788 h -3.608917 z"
           style="font-style:normal;font-variant:normal;font-weight:bold;font-stretch:normal;font-family:'Jost*';-inkscape-font-specification:'Jost* Bold';text-align:center;text-anchor:middle;stroke-width:0.26458332"
           id="path988"
           inkscape:connector-curvature="0" />
        <path
           d="m 48.047513,108.62674 h 1.303866 v 1.98684 h 2.343856 v -1.98684 h 1.303867 v 5.43278 h -1.303867 v -2.28177 h -2.343856 v 2.28177 h -1.303866 z"
           style="font-style:normal;font-variant:normal;font-weight:bold;font-stretch:normal;font-family:'Jost*';-inkscape-font-specification:'Jost* Bold';text-align:center;text-anchor:middle;stroke-width:0.26458332"
           id="path990"
           inkscape:connector-curvature="0" />
        <path
           d="m 54.141198,108.62674 h 3.608917 v 1.07879 h -2.351617 v 0.97014 h 2.196394 v 1.05551 h -2.196394 v 1.24954 h 2.351617 v 1.0788 h -3.608917 z"
           style="font-style:normal;font-variant:normal;font-weight:bold;font-stretch:normal;font-family:'Jost*';-inkscape-font-specification:'Jost* Bold';text-align:center;text-anchor:middle;stroke-width:0.26458332"
           id="path992"
           inkscape:connector-curvature="0" />
        <path
           d="m 62.558607,108.62674 h 1.265061 v 5.70442 l -3.756377,-3.32952 v 3.05788 h -1.2573 v -5.70442 l 3.748616,3.32952 z"
           style="font-style:normal;font-variant:normal;font-weight:bold;font-stretch:normal;font-family:'Jost*';-inkscape-font-specification:'Jost* Bold';text-align:center;text-anchor:middle;stroke-width:0.26458332"
           id="path994"
           inkscape:connector-curvature="0" />
        <path
           d="m 67.298707,108.62674 h 1.303866 v 1.98684 h 2.343856 v -1.98684 h 1.303867 v 5.43278 h -1.303867 v -2.28177 h -2.343856 v 2.28177 h -1.303866 z"
           style="font-style:normal;font-variant:normal;font-weight:bold;font-stretch:normal;font-family:'Jost*';-inkscape-font-specification:'Jost* Bold';text-align:center;text-anchor:middle;stroke-width:0.26458332"
           id="path996"
           inkscape:connector-curvature="0" />
        <path
           d="m 73.392392,108.62674 h 1.334911 v 5.43278 h -1.334911 z"
           style="font-style:normal;font-variant:normal;font-weight:bold;font-stretch:normal;font-family:'Jost*';-inkscape-font-specification:'Jost* Bold';text-align:center;text-anchor:middle;stroke-width:0.26458332"
           id="path998"
           inkscape:connector-curvature="0" />
        <path
           d="m 79.61183,108.62674 h 1.265061 v 5.70442 l -3.756378,-3.32952 v 3.05788 h -1.2573 v -5.70442 l 3.748617,3.32952 z"
           style="font-style:normal;font-variant:normal;font-weight:bold;font-stretch:normal;font-family:'Jost*';-inkscape-font-specification:'Jost* Bold';text-align:center;text-anchor:middle;stroke-width:0.26458332"
           id="path1000"
           inkscape:connector-curvature="0" />
        <path
           d="m 81.474255,109.80643 v -1.17969 h 4.291895 v 1.17969 h -1.490134 v 4.25309 h -1.311627 v -4.25309 z"
           style="font-style:normal;font-variant:normal;font-weight:bold;font-stretch:normal;font-family:'Jost*';-inkscape-font-specification:'Jost* Bold';text-align:center;text-anchor:middle;stroke-width:0.26458332"
           id="path1002"
           inkscape:connector-curvature="0" />
        <path
           d="m 86.367997,108.62674 h 3.608917 v 1.07879 h -2.351617 v 0.97014 h 2.196394 v 1.05551 h -2.196394 v 1.24954 h 2.351617 v 1.0788 h -3.608917 z"
           style="font-style:normal;font-variant:normal;font-weight:bold;font-stretch:normal;font-family:'Jost*';-inkscape-font-specification:'Jost* Bold';text-align:center;text-anchor:middle;stroke-width:0.26458332"
           id="path1004"
           inkscape:connector-curvature="0" />
        <path
           d="m 91.036797,108.62674 h 1.979084 q 1.039989,0 1.575505,0.49671 0.535517,0.48895 0.535517,1.27282 0,0.5588 -0.2794,0.98566 -0.271639,0.4191 -0.807156,0.62089 l 1.412523,2.0567 h -1.5367 l -1.171928,-1.88595 h -0.403578 v 1.88595 h -1.303867 z m 1.878189,1.1176 h -0.574322 v 1.41252 h 0.574322 q 0.395817,0 0.620889,-0.18627 0.232833,-0.19402 0.232833,-0.52775 0,-0.34149 -0.232833,-0.52 -0.225072,-0.1785 -0.620889,-0.1785 z"
           style="font-style:normal;font-variant:normal;font-weight:bold;font-stretch:normal;font-family:'Jost*';-inkscape-font-specification:'Jost* Bold';text-align:center;text-anchor:middle;stroke-width:0.26458332"
           id="path1006"
           inkscape:connector-curvature="0" />
        <path
           d="m 13.834958,118.32813 h 3.298472 v 1.12536 h -2.041172 v 1.07103 h 1.963561 v 1.05551 h -1.963561 v 2.18088 h -1.2573 z"
           style="font-style:normal;font-variant:normal;font-weight:bold;font-stretch:normal;font-family:'Jost*';-inkscape-font-specification:'Jost* Bold';text-align:center;text-anchor:middle;stroke-width:0.26458332"
           id="path1008"
           inkscape:connector-curvature="0" />
        <path
           d="m 18.124791,118.32813 h 1.979083 q 1.039989,0 1.575506,0.49671 0.535516,0.48895 0.535516,1.27282 0,0.5588 -0.2794,0.98566 -0.271639,0.4191 -0.807155,0.62089 l 1.412522,2.0567 h -1.5367 l -1.171928,-1.88595 h -0.403578 v 1.88595 h -1.303866 z m 1.878189,1.1176 h -0.574323 v 1.41252 h 0.574323 q 0.395816,0 0.620889,-0.18627 0.232833,-0.19402 0.232833,-0.52775 0,-0.34149 -0.232833,-0.52 -0.225073,-0.1785 -0.620889,-0.1785 z"
           style="font-style:normal;font-variant:normal;font-weight:bold;font-stretch:normal;font-family:'Jost*';-inkscape-font-specification:'Jost* Bold';text-align:center;text-anchor:middle;stroke-width:0.26458332"
           id="path1010"
           inkscape:connector-curvature="0" />
        <path
           d="m 23.142228,118.32813 h 1.334911 v 5.43278 h -1.334911 z"
           style="font-style:normal;font-variant:normal;font-weight:bold;font-stretch:normal;font-family:'Jost*';-inkscape-font-specification:'Jost* Bold';text-align:center;text-anchor:middle;stroke-width:0.26458332"
           id="path1012"
           inkscape:connector-curvature="0" />
        <path
           d="M 27.553328,123.76091 H 25.61305 v -5.43278 h 1.940278 q 0.884767,0 1.5367,0.33373 0.659694,0.32596 1.016705,0.93909 0.357012,0.60537 0.357012,1.44357 0,0.8382 -0.357012,1.45132 -0.357011,0.60537 -1.016705,0.9391 -0.651933,0.32597 -1.5367,0.32597 z m -0.04657,-4.26862 H 26.96348 v 3.10445 h 0.543278 q 0.4191,0 0.783872,-0.14746 0.364773,-0.14746 0.589845,-0.48119 0.225072,-0.34149 0.225072,-0.92357 0,-0.58209 -0.225072,-0.92358 -0.225072,-0.34148 -0.589845,-0.48118 -0.364772,-0.14747 -0.783872,-0.14747 z"
           style="font-style:normal;font-variant:normal;font-weight:bold;font-stretch:normal;font-family:'Jost*';-inkscape-font-specification:'Jost* Bold';text-align:center;text-anchor:middle;stroke-width:0.26458332"
           id="path1014"
           inkscape:connector-curvature="0" />
        <path
           d="m 34.717805,123.76091 -0.512234,-1.05552 h -1.722967 l -0.512233,1.05552 h -1.482372 l 2.856089,-5.77427 2.86385,5.77427 z m -1.373717,-3.43818 -0.605367,1.38924 h 1.210734 z"
           style="font-style:normal;font-variant:normal;font-weight:bold;font-stretch:normal;font-family:'Jost*';-inkscape-font-specification:'Jost* Bold';text-align:center;text-anchor:middle;stroke-width:0.26458332"
           id="path1016"
           inkscape:connector-curvature="0" />
        <path
           d="m 39.251142,118.32813 h 1.505656 l -1.893711,3.22086 v 2.21192 h -1.334912 v -2.20416 l -1.901472,-3.22862 h 1.505656 l 1.063272,2.04893 z"
           style="font-style:normal;font-variant:normal;font-weight:bold;font-stretch:normal;font-family:'Jost*';-inkscape-font-specification:'Jost* Bold';text-align:center;text-anchor:middle;stroke-width:0.26458332"
           id="path1018"
           inkscape:connector-curvature="0" />
        <path
           d="m 41.930301,121.82063 q 0.2794,0.48895 0.582084,0.7373 0.302683,0.2406 0.729544,0.2406 0.667456,0 0.667456,-0.53552 0,-0.23283 -0.155223,-0.37253 -0.147461,-0.1397 -0.403577,-0.2406 -0.248356,-0.10865 -0.5588,-0.23283 -0.194028,-0.0776 -0.450145,-0.19403 -0.248355,-0.12418 -0.48895,-0.31044 -0.232833,-0.19403 -0.388055,-0.48119 -0.147461,-0.28716 -0.147461,-0.69074 0,-0.45791 0.248355,-0.79939 0.256117,-0.34925 0.6985,-0.54328 0.442383,-0.19403 1.016706,-0.19403 0.535516,0 0.915811,0.17851 0.380294,0.1785 0.62865,0.45014 0.248355,0.27164 0.395816,0.56656 l -0.985661,0.5588 q -0.170744,-0.30268 -0.4191,-0.47343 -0.240594,-0.17074 -0.5588,-0.17074 -0.2794,0 -0.442383,0.12418 -0.155222,0.12417 -0.155222,0.33372 0,0.18627 0.178505,0.31821 0.178506,0.13194 0.457906,0.24059 0.287161,0.10866 0.613128,0.22508 0.380294,0.13194 0.690739,0.34925 0.318205,0.20955 0.504472,0.53551 0.186266,0.32597 0.186266,0.7994 0,0.55104 -0.271638,0.93133 -0.263878,0.37253 -0.729545,0.56656 -0.457905,0.19403 -1.032228,0.19403 -0.496711,0 -0.946855,-0.19403 -0.450145,-0.19403 -0.791634,-0.51999 -0.341488,-0.33373 -0.512233,-0.76059 z"
           style="font-style:normal;font-variant:normal;font-weight:bold;font-stretch:normal;font-family:'Jost*';-inkscape-font-specification:'Jost* Bold';text-align:center;text-anchor:middle;stroke-width:0.26458332"
           id="path1020"
           inkscape:connector-curvature="0" />
        <path
           d="m 48.487107,118.32813 h 3.298472 v 1.12536 h -2.041172 v 1.07103 h 1.963561 v 1.05551 h -1.963561 v 2.18088 h -1.2573 z"
           style="font-style:normal;font-variant:normal;font-weight:bold;font-stretch:normal;font-family:'Jost*';-inkscape-font-specification:'Jost* Bold';text-align:center;text-anchor:middle;stroke-width:0.26458332"
           id="path1022"
           inkscape:connector-curvature="0" />
        <path
           d="m 52.466495,121.04452 q 0,-0.62865 0.217312,-1.14865 0.225072,-0.51999 0.620888,-0.90029 0.395817,-0.38029 0.923573,-0.58208 0.535516,-0.20955 1.156405,-0.20955 0.62865,0 1.164167,0.20955 0.535517,0.20179 0.923572,0.58208 0.395817,0.3803 0.613128,0.90029 0.225072,0.52 0.225072,1.14865 0,0.62865 -0.217311,1.1564 -0.20955,0.52776 -0.605367,0.91581 -0.395816,0.38806 -0.931333,0.60537 -0.527755,0.20955 -1.171928,0.20955 -0.636411,0 -1.171927,-0.20955 -0.535517,-0.21731 -0.931334,-0.60537 -0.388055,-0.38805 -0.605367,-0.91581 -0.20955,-0.52775 -0.20955,-1.1564 z m 1.389239,0 q 0,0.48119 0.186267,0.85372 0.194028,0.36477 0.535517,0.57432 0.34925,0.20955 0.807155,0.20955 0.465667,0 0.807156,-0.20955 0.34925,-0.20955 0.535517,-0.57432 0.194027,-0.37253 0.194027,-0.85372 0,-0.48119 -0.186266,-0.84596 -0.186267,-0.37254 -0.535517,-0.58209 -0.341489,-0.20955 -0.814917,-0.20955 -0.457905,0 -0.807155,0.20955 -0.341489,0.20955 -0.535517,0.58209 -0.186267,0.36477 -0.186267,0.84596 z"
           style="font-style:normal;font-variant:normal;font-weight:bold;font-stretch:normal;font-family:'Jost*';-inkscape-font-specification:'Jost* Bold';text-align:center;text-anchor:middle;stroke-width:0.26458332"
           id="path1024"
           inkscape:connector-curvature="0" />
        <path
           d="m 59.143475,118.32813 h 1.979083 q 1.039989,0 1.575506,0.49671 0.535517,0.48895 0.535517,1.27282 0,0.5588 -0.2794,0.98566 -0.271639,0.4191 -0.807156,0.62089 l 1.412522,2.0567 h -1.5367 l -1.171927,-1.88595 h -0.403578 v 1.88595 h -1.303867 z m 1.878189,1.1176 h -0.574322 v 1.41252 h 0.574322 q 0.395817,0 0.620889,-0.18627 0.232833,-0.19402 0.232833,-0.52775 0,-0.34149 -0.232833,-0.52 -0.225072,-0.1785 -0.620889,-0.1785 z"
           style="font-style:normal;font-variant:normal;font-weight:bold;font-stretch:normal;font-family:'Jost*';-inkscape-font-specification:'Jost* Bold';text-align:center;text-anchor:middle;stroke-width:0.26458332"
           id="path1026"
           inkscape:connector-curvature="0" />
        <path
           d="m 66.495308,118.32813 h 3.298473 v 1.12536 h -2.041173 v 1.07103 h 1.963562 v 1.05551 h -1.963562 v 2.18088 h -1.2573 z"
           style="font-style:normal;font-variant:normal;font-weight:bold;font-stretch:normal;font-family:'Jost*';-inkscape-font-specification:'Jost* Bold';text-align:center;text-anchor:middle;stroke-width:0.26458332"
           id="path1028"
           inkscape:connector-curvature="0" />
        <path
           d="m 70.746336,118.32813 h 1.311628 v 3.55459 q 0,0.4191 0.20955,0.67521 0.217311,0.24836 0.659694,0.24836 0.442384,0 0.659695,-0.24836 0.217311,-0.25611 0.217311,-0.67521 v -3.55459 h 1.311628 v 3.64772 q 0,0.68298 -0.294923,1.12536 -0.287161,0.44238 -0.783872,0.6597 -0.496711,0.21731 -1.109839,0.21731 -0.613128,0 -1.109839,-0.21731 -0.48895,-0.21732 -0.783872,-0.6597 -0.287161,-0.44238 -0.287161,-1.12536 z"
           style="font-style:normal;font-variant:normal;font-weight:bold;font-stretch:normal;font-family:'Jost*';-inkscape-font-specification:'Jost* Bold';text-align:center;text-anchor:middle;stroke-width:0.26458332"
           id="path1030"
           inkscape:connector-curvature="0" />
        <path
           d="m 75.66858,119.50782 v -1.17969 h 4.291894 v 1.17969 h -1.490133 v 4.25309 h -1.311628 v -4.25309 z"
           style="font-style:normal;font-variant:normal;font-weight:bold;font-stretch:normal;font-family:'Jost*';-inkscape-font-specification:'Jost* Bold';text-align:center;text-anchor:middle;stroke-width:0.26458332"
           id="path1032"
           inkscape:connector-curvature="0" />
        <path
           d="m 80.523516,118.32813 h 1.311627 v 3.55459 q 0,0.4191 0.20955,0.67521 0.217312,0.24836 0.659695,0.24836 0.442383,0 0.659694,-0.24836 0.217312,-0.25611 0.217312,-0.67521 v -3.55459 h 1.311627 v 3.64772 q 0,0.68298 -0.294922,1.12536 -0.287161,0.44238 -0.783872,0.6597 -0.496711,0.21731 -1.109839,0.21731 -0.613128,0 -1.109839,-0.21731 -0.48895,-0.21732 -0.783872,-0.6597 -0.287161,-0.44238 -0.287161,-1.12536 z"
           style="font-style:normal;font-variant:normal;font-weight:bold;font-stretch:normal;font-family:'Jost*';-inkscape-font-specification:'Jost* Bold';text-align:center;text-anchor:middle;stroke-width:0.26458332"
           id="path1034"
           inkscape:connector-curvature="0" />
        <path
           d="m 85.989041,118.32813 h 1.979083 q 1.039989,0 1.575506,0.49671 0.535517,0.48895 0.535517,1.27282 0,0.5588 -0.2794,0.98566 -0.271639,0.4191 -0.807156,0.62089 l 1.412522,2.0567 h -1.5367 l -1.171928,-1.88595 h -0.403577 v 1.88595 h -1.303867 z m 1.878189,1.1176 h -0.574322 v 1.41252 h 0.574322 q 0.395817,0 0.620889,-0.18627 0.232833,-0.19402 0.232833,-0.52775 0,-0.34149 -0.232833,-0.52 -0.225072,-0.1785 -0.620889,-0.1785 z"
           style="font-style:normal;font-variant:normal;font-weight:bold;font-stretch:normal;font-family:'Jost*';-inkscape-font-specification:'Jost* Bold';text-align:center;text-anchor:middle;stroke-width:0.26458332"
           id="path1036"
           inkscape:connector-curvature="0" />
        <path
           d="m 91.006474,118.32813 h 3.608917 v 1.07879 h -2.351617 v 0.97014 h 2.196395 v 1.05551 h -2.196395 v 1.24954 h 2.351617 v 1.0788 h -3.608917 z"
           style="font-style:normal;font-variant:normal;font-weight:bold;font-stretch:normal;font-family:'Jost*';-inkscape-font-specification:'Jost* Bold';text-align:center;text-anchor:middle;stroke-width:0.26458332"
           id="path1038"
           inkscape:connector-curvature="0" />
        <path
           d="m 95.706311,118.32813 h 1.451328 l -0.248356,3.63996 h -0.946855 z m 0,4.95159 q 0,-0.29493 0.20955,-0.48119 0.20955,-0.18627 0.519995,-0.18627 0.318205,0 0.519994,0.18627 0.20955,0.18626 0.20955,0.48119 0,0.28716 -0.20955,0.48119 -0.201789,0.18626 -0.519994,0.18626 -0.310445,0 -0.519995,-0.18626 -0.20955,-0.19403 -0.20955,-0.48119 z"
           style="font-style:normal;font-variant:normal;font-weight:bold;font-stretch:normal;font-family:'Jost*';-inkscape-font-specification:'Jost* Bold';text-align:center;text-anchor:middle;stroke-width:0.26458332"
           id="path1040"
           inkscape:connector-curvature="0" />
      </g>
    </clipPath>
  </defs>
  <sodipodi:namedview
     id="base"
     pagecolor="#ffffff"
     bordercolor="#666666"
     borderopacity="1.0"
     inkscape:pageopacity="0.0"
     inkscape:pageshadow="2"
     inkscape:zoom="2.8"
     inkscape:cx="163.59941"
     inkscape:cy="50.490081"
     inkscape:document-units="mm"
     inkscape:current-layer="layer1"
     showgrid="false"
     inkscape:window-width="1920"
     inkscape:window-height="1015"
     inkscape:window-x="0"
     inkscape:window-y="0"
     inkscape:window-maximized="1"
     fit-margin-top="0"
     fit-margin-left="0"
     fit-margin-right="0"
     fit-margin-bottom="0"
     inkscape:snap-page="true" />
  <metadata
     id="metadata5">
    <rdf:RDF>
      <cc:Work
         rdf:about="">
        <dc:format>image/svg+xml</dc:format>
        <dc:type
           rdf:resource="http://purl.org/dc/dcmitype/StillImage" />
        <dc:title></dc:title>
      </cc:Work>
    </rdf:RDF>
  </metadata>
  <g
     inkscape:label="Layer 1"
     inkscape:groupmode="layer"
     id="layer1"
     transform="translate(-13.834958,-108.3551)">
    <rect
       style="opacity:1;fill:url(#linearGradient823);fill-opacity:1;stroke:none;stroke-width:2.8614471;stroke-linecap:round;stroke-linejoin:round;stroke-miterlimit:4;stroke-dasharray:none;stroke-dashoffset:0;stroke-opacity:1;paint-order:fill markers stroke"
       id="rect815"
       width="83.330444"
       height="16.566696"
       x="13.834958"
       y="108.3551"
       clip-path="url(#clipPath976)" />
    <g
       aria-label="Augsburg handelt!"
       style="font-style:normal;font-variant:normal;font-weight:normal;font-stretch:normal;font-size:7.4083333px;line-height:1.25;font-family:'Jost*';-inkscape-font-specification:'Jost*';letter-spacing:0px;word-spacing:0px;fill:#000000;fill-opacity:1;stroke:none;stroke-width:0.26458332"
       id="text827">
      <path
         d="m 27.786763,131.67415 -0.48895,-1.00753 h -1.64465 l -0.48895,1.00753 h -1.414991 l 2.726266,-5.5118 2.733675,5.5118 z m -1.311275,-3.28189 -0.57785,1.32609 h 1.1557 z"
         style="font-style:normal;font-variant:normal;font-weight:bold;font-stretch:normal;font-size:7.4083333px;font-family:'Jost*';-inkscape-font-specification:'Jost* Bold';stroke-width:0.26458332"
         id="path943" />
      <path
         d="m 30.64557,130.34065 q 0,0.29633 0.111125,0.46672 0.111125,0.16299 0.385233,0.16299 0.2667,0 0.429683,-0.16299 0.162984,-0.17039 0.162984,-0.46672 v -2.07433 h 1.118658 v 3.40783 h -1.118658 v -0.51118 q -0.140759,0.2667 -0.40005,0.42969 -0.259292,0.15557 -0.637117,0.15557 -0.629708,0 -0.926042,-0.32596 -0.288925,-0.33338 -0.288925,-0.96309 v -2.19286 h 1.163109 z"
         style="font-style:normal;font-variant:normal;font-weight:bold;font-stretch:normal;font-size:7.4083333px;font-family:'Jost*';-inkscape-font-specification:'Jost* Bold';stroke-width:0.26458332"
         id="path945" />
      <path
         d="m 33.603115,131.91862 h 1.081617 q 0.02223,0.31856 0.237067,0.47414 0.22225,0.15557 0.548216,0.15557 0.3556,0 0.600075,-0.23706 0.244475,-0.23707 0.244475,-0.7112 v -0.5334 q -0.407458,0.59266 -1.170516,0.59266 -0.414867,0 -0.785284,-0.19261 -0.370416,-0.19262 -0.600075,-0.57785 -0.229658,-0.39265 -0.229658,-0.96309 0,-0.57785 0.229658,-0.96308 0.229659,-0.38523 0.600075,-0.57785 0.370417,-0.19262 0.785284,-0.19262 0.763058,0 1.170516,0.59267 v -0.51858 h 1.074209 v 3.33375 q 0,0.65934 -0.251884,1.0668 -0.251883,0.40745 -0.681566,0.59266 -0.422275,0.18521 -0.940859,0.18521 -0.637116,0 -1.044575,-0.19262 -0.407458,-0.19261 -0.614891,-0.5408 -0.207434,-0.34079 -0.251884,-0.7927 z m 1.096434,-1.99284 q 0,0.40005 0.237066,0.61489 0.244475,0.21485 0.57785,0.21485 0.192617,0 0.377825,-0.0889 0.185209,-0.0963 0.303742,-0.28152 0.118533,-0.18521 0.118533,-0.45932 0,-0.28151 -0.118533,-0.46672 -0.118533,-0.18521 -0.303742,-0.27411 -0.185208,-0.0963 -0.377825,-0.0963 -0.333375,0 -0.57785,0.22225 -0.237066,0.21484 -0.237066,0.61489 z"
         style="font-style:normal;font-variant:normal;font-weight:bold;font-stretch:normal;font-size:7.4083333px;font-family:'Jost*';-inkscape-font-specification:'Jost* Bold';stroke-width:0.26458332"
         id="path947" />
      <path
         d="m 38.413902,130.37769 q 0.414866,0.36301 0.703791,0.48895 0.288925,0.12594 0.437092,0.12594 0.148167,0 0.237067,-0.0667 0.09631,-0.0741 0.09631,-0.20003 0,-0.20002 -0.22225,-0.30374 -0.214842,-0.10372 -0.503767,-0.20002 -0.244475,-0.0889 -0.466725,-0.20003 -0.22225,-0.11853 -0.363008,-0.31856 -0.140758,-0.20002 -0.140758,-0.5334 0,-0.48154 0.363008,-0.72601 0.370417,-0.25189 0.911225,-0.25189 0.437092,0 0.807508,0.14817 0.370417,0.14076 0.659342,0.3556 l -0.40005,0.72602 q -0.200025,-0.20003 -0.466725,-0.32597 -0.2667,-0.13335 -0.474133,-0.13335 -0.363009,0 -0.363009,0.22966 0,0.13335 0.118534,0.20743 0.118533,0.0741 0.31115,0.13335 0.192616,0.0593 0.407458,0.14076 0.244475,0.0963 0.459317,0.22225 0.214841,0.11853 0.348191,0.31115 0.13335,0.19262 0.13335,0.50377 0,0.58525 -0.348191,0.84455 -0.340784,0.25929 -0.940859,0.25929 -0.540808,0 -0.9779,-0.19262 -0.429683,-0.20002 -0.792691,-0.51117 z"
         style="font-style:normal;font-variant:normal;font-weight:bold;font-stretch:normal;font-size:7.4083333px;font-family:'Jost*';-inkscape-font-specification:'Jost* Bold';stroke-width:0.26458332"
         id="path949" />
      <path
         d="m 45.511663,129.97023 q 0,0.57044 -0.237067,0.97049 -0.229658,0.40005 -0.600075,0.60749 -0.370417,0.20002 -0.785283,0.20002 -0.75565,0 -1.163109,-0.61489 v 0.54081 h -1.118658 v -5.7785 h 1.118658 v 2.91147 q 0.407459,-0.61489 1.163109,-0.61489 0.414866,0 0.785283,0.20744 0.370417,0.20002 0.600075,0.60007 0.237067,0.39264 0.237067,0.97049 z m -1.177925,0 q 0,-0.40005 -0.244475,-0.63711 -0.237067,-0.24448 -0.570442,-0.24448 -0.192617,0 -0.377825,0.10372 -0.1778,0.10371 -0.296333,0.30374 -0.118534,0.19262 -0.118534,0.47413 0,0.27411 0.118534,0.47414 0.118533,0.20002 0.296333,0.30374 0.185208,0.10371 0.377825,0.10371 0.333375,0 0.570442,-0.23706 0.244475,-0.24448 0.244475,-0.64453 z"
         style="font-style:normal;font-variant:normal;font-weight:bold;font-stretch:normal;font-size:7.4083333px;font-family:'Jost*';-inkscape-font-specification:'Jost* Bold';stroke-width:0.26458332"
         id="path951" />
      <path
         d="m 47.343257,130.34065 q 0,0.29633 0.111125,0.46672 0.111125,0.16299 0.385234,0.16299 0.2667,0 0.429683,-0.16299 0.162983,-0.17039 0.162983,-0.46672 v -2.07433 h 1.118659 v 3.40783 h -1.118659 v -0.51118 q -0.140758,0.2667 -0.40005,0.42969 -0.259291,0.15557 -0.637116,0.15557 -0.629709,0 -0.926042,-0.32596 -0.288925,-0.33338 -0.288925,-0.96309 v -2.19286 h 1.163108 z"
         style="font-style:normal;font-variant:normal;font-weight:bold;font-stretch:normal;font-size:7.4083333px;font-family:'Jost*';-inkscape-font-specification:'Jost* Bold';stroke-width:0.26458332"
         id="path953" />
      <path
         d="m 52.508488,129.42202 q -0.0889,-0.0889 -0.185208,-0.14076 -0.09631,-0.0519 -0.244475,-0.0519 -0.244475,0 -0.40005,0.20002 -0.148167,0.19262 -0.148167,0.56304 v 1.68169 h -1.096433 v -3.40783 h 1.096433 v 0.42968 q 0.162983,-0.24448 0.385233,-0.37783 0.229659,-0.14075 0.474134,-0.14075 0.185208,0 0.348191,0.0741 0.170392,0.0741 0.259292,0.20743 z"
         style="font-style:normal;font-variant:normal;font-weight:bold;font-stretch:normal;font-size:7.4083333px;font-family:'Jost*';-inkscape-font-specification:'Jost* Bold';stroke-width:0.26458332"
         id="path955" />
      <path
         d="m 53.223624,131.91862 h 1.081616 q 0.02222,0.31856 0.237067,0.47414 0.22225,0.15557 0.548217,0.15557 0.3556,0 0.600075,-0.23706 0.244475,-0.23707 0.244475,-0.7112 v -0.5334 q -0.407459,0.59266 -1.170517,0.59266 -0.414867,0 -0.785283,-0.19261 -0.370417,-0.19262 -0.600075,-0.57785 -0.229659,-0.39265 -0.229659,-0.96309 0,-0.57785 0.229659,-0.96308 0.229658,-0.38523 0.600075,-0.57785 0.370416,-0.19262 0.785283,-0.19262 0.763058,0 1.170517,0.59267 v -0.51858 h 1.074208 v 3.33375 q 0,0.65934 -0.251883,1.0668 -0.251884,0.40745 -0.681567,0.59266 -0.422275,0.18521 -0.940858,0.18521 -0.637117,0 -1.044575,-0.19262 -0.407459,-0.19261 -0.614892,-0.5408 -0.207433,-0.34079 -0.251883,-0.7927 z m 1.096433,-1.99284 q 0,0.40005 0.237067,0.61489 0.244475,0.21485 0.57785,0.21485 0.192616,0 0.377825,-0.0889 0.185208,-0.0963 0.303741,-0.28152 0.118534,-0.18521 0.118534,-0.45932 0,-0.28151 -0.118534,-0.46672 -0.118533,-0.18521 -0.303741,-0.27411 -0.185209,-0.0963 -0.377825,-0.0963 -0.333375,0 -0.57785,0.22225 -0.237067,0.21484 -0.237067,0.61489 z"
         style="font-style:normal;font-variant:normal;font-weight:bold;font-stretch:normal;font-size:7.4083333px;font-family:'Jost*';-inkscape-font-specification:'Jost* Bold';stroke-width:0.26458332"
         id="path957" />
      <path
         d="m 62.307396,129.59982 q 0,-0.30375 -0.111125,-0.46673 -0.111125,-0.16298 -0.392642,-0.16298 -0.2667,0 -0.429683,0.16298 -0.155575,0.16298 -0.155575,0.46673 v 2.07433 h -1.118659 v -5.7785 h 1.118659 v 2.83739 q 0.140758,-0.27411 0.40005,-0.42968 0.259291,-0.16299 0.637116,-0.16299 0.637117,0 0.903817,0.33338 0.2667,0.33337 0.2667,0.96308 v 2.23732 h -1.118658 z"
         style="font-style:normal;font-variant:normal;font-weight:bold;font-stretch:normal;font-size:7.4083333px;font-family:'Jost*';-inkscape-font-specification:'Jost* Bold';stroke-width:0.26458332"
         id="path959" />
      <path
         d="m 64.732585,129.31089 -0.377825,-0.74824 q 0.288925,-0.14076 0.688975,-0.2667 0.407459,-0.12594 0.866775,-0.12594 0.459317,0 0.814917,0.13335 0.363008,0.12594 0.563033,0.37041 0.207434,0.24448 0.207434,0.60008 v 2.4003 h -1.074209 v -0.48154 q -0.148166,0.2667 -0.451908,0.41486 -0.303742,0.14076 -0.688975,0.14076 -0.540808,0 -0.889,-0.2667 -0.348192,-0.2667 -0.348192,-0.77046 0,-0.50377 0.40005,-0.8001 0.40005,-0.30375 1.074209,-0.30375 0.259291,0 0.496358,0.0593 0.237067,0.0593 0.407458,0.14076 v -0.31115 q 0,-0.21484 -0.162983,-0.34078 -0.155575,-0.13335 -0.437092,-0.13335 -0.363008,0 -0.66675,0.11112 -0.296333,0.10372 -0.422275,0.1778 z m 0.437092,1.34091 q 0,0.18521 0.140758,0.28152 0.148167,0.0889 0.348192,0.0889 0.303742,0 0.525992,-0.14817 0.22225,-0.14817 0.237066,-0.5334 -0.274108,-0.13335 -0.644525,-0.13335 -0.288925,0 -0.451908,0.12594 -0.155575,0.11853 -0.155575,0.31856 z"
         style="font-style:normal;font-variant:normal;font-weight:bold;font-stretch:normal;font-size:7.4083333px;font-family:'Jost*';-inkscape-font-specification:'Jost* Bold';stroke-width:0.26458332"
         id="path961" />
      <path
         d="m 70.540485,129.59982 q 0,-0.30375 -0.111125,-0.46673 -0.111125,-0.16298 -0.392641,-0.16298 -0.2667,0 -0.429684,0.16298 -0.155575,0.16298 -0.155575,0.46673 v 2.07433 h -1.118658 v -3.40783 h 1.118658 v 0.51117 q 0.140759,-0.2667 0.40005,-0.42227 0.259292,-0.16299 0.637117,-0.16299 0.637117,0 0.926042,0.33338 0.288924,0.32596 0.288924,0.95567 v 2.19287 h -1.163108 z"
         style="font-style:normal;font-variant:normal;font-weight:bold;font-stretch:normal;font-size:7.4083333px;font-family:'Jost*';-inkscape-font-specification:'Jost* Bold';stroke-width:0.26458332"
         id="path963" />
      <path
         d="m 72.379374,129.97023 q 0,-0.57785 0.229658,-0.97049 0.229659,-0.40005 0.600075,-0.60007 0.370417,-0.20744 0.785284,-0.20744 0.75565,0 1.170516,0.6223 v -2.91888 h 1.118659 v 5.7785 h -1.118659 v -0.54822 q -0.414866,0.6223 -1.170516,0.6223 -0.414867,0 -0.785284,-0.20002 -0.370416,-0.20744 -0.600075,-0.60749 -0.229658,-0.40005 -0.229658,-0.97049 z m 1.170517,0 q 0,0.40005 0.237066,0.64453 0.244475,0.23706 0.57785,0.23706 0.192617,0 0.377825,-0.10371 0.185209,-0.10372 0.303742,-0.30374 0.118533,-0.20003 0.118533,-0.47414 0,-0.28151 -0.118533,-0.47413 -0.118533,-0.20003 -0.303742,-0.30374 -0.185208,-0.10372 -0.377825,-0.10372 -0.333375,0 -0.57785,0.24448 -0.237066,0.23706 -0.237066,0.63711 z"
         style="font-style:normal;font-variant:normal;font-weight:bold;font-stretch:normal;font-size:7.4083333px;font-family:'Jost*';-inkscape-font-specification:'Jost* Bold';stroke-width:0.26458332"
         id="path965" />
      <path
         d="m 80.700669,130.7407 q -0.251884,0.45191 -0.674159,0.73342 -0.422275,0.27411 -1.1557,0.27411 -0.6223,0 -1.051983,-0.22966 -0.429683,-0.22965 -0.659342,-0.6297 -0.22225,-0.40746 -0.22225,-0.91864 0,-0.0963 0.0074,-0.18521 0.0074,-0.0889 0.02223,-0.1778 0.103716,-0.6297 0.57785,-1.02235 0.474133,-0.39264 1.303866,-0.39264 0.896409,0 1.370542,0.45932 0.474133,0.45932 0.474133,1.26682 0,0.0444 0,0.12595 0.0074,0.0741 -0.0074,0.16298 h -2.607733 q 0.05186,0.39264 0.2667,0.56303 0.214841,0.17039 0.503766,0.17039 0.607484,0 0.859367,-0.43709 z m -1.8669,-1.80023 q -0.296334,0 -0.496359,0.1704 -0.192616,0.16298 -0.244475,0.47413 h 1.400175 q -0.03704,-0.30374 -0.200025,-0.47413 -0.155575,-0.1704 -0.459316,-0.1704 z"
         style="font-style:normal;font-variant:normal;font-weight:bold;font-stretch:normal;font-size:7.4083333px;font-family:'Jost*';-inkscape-font-specification:'Jost* Bold';stroke-width:0.26458332"
         id="path967" />
      <path
         d="m 81.384201,125.89565 h 1.118658 v 5.7785 h -1.118658 z"
         style="font-style:normal;font-variant:normal;font-weight:bold;font-stretch:normal;font-size:7.4083333px;font-family:'Jost*';-inkscape-font-specification:'Jost* Bold';stroke-width:0.26458332"
         id="path969" />
      <path
         d="m 82.973519,128.26632 h 0.600075 v -1.18534 h 1.081617 v 1.18534 h 0.592667 v 0.92604 h -0.592667 v 2.48179 h -1.081617 v -2.48179 h -0.600075 z"
         style="font-style:normal;font-variant:normal;font-weight:bold;font-stretch:normal;font-size:7.4083333px;font-family:'Jost*';-inkscape-font-specification:'Jost* Bold';stroke-width:0.26458332"
         id="path971" />
      <path
         d="m 85.858371,126.48832 h 1.385359 l -0.237067,3.4745 h -0.903817 z m 0,4.72651 q 0,-0.28151 0.200025,-0.45931 0.200025,-0.1778 0.496359,-0.1778 0.303741,0 0.496358,0.1778 0.200025,0.1778 0.200025,0.45931 0,0.27411 -0.200025,0.45932 -0.192617,0.1778 -0.496358,0.1778 -0.296334,0 -0.496359,-0.1778 -0.200025,-0.18521 -0.200025,-0.45932 z"
         style="font-style:normal;font-variant:normal;font-weight:bold;font-stretch:normal;font-size:7.4083333px;font-family:'Jost*';-inkscape-font-specification:'Jost* Bold';stroke-width:0.26458332"
         id="path973" />
    </g>
  </g>
</svg>
