<?xml version="1.0" encoding="UTF-8" standalone="no"?>
<!-- Created with Inkscape (http://www.inkscape.org/) -->

<svg
   xmlns:dc="http://purl.org/dc/elements/1.1/"
   xmlns:cc="http://creativecommons.org/ns#"
   xmlns:rdf="http://www.w3.org/1999/02/22-rdf-syntax-ns#"
   xmlns:svg="http://www.w3.org/2000/svg"
   xmlns="http://www.w3.org/2000/svg"
   xmlns:sodipodi="http://sodipodi.sourceforge.net/DTD/sodipodi-0.dtd"
   xmlns:inkscape="http://www.inkscape.org/namespaces/inkscape"
   width="142.53452mm"
   height="30.275944mm"
   viewBox="0 0 142.53452 30.275944"
   version="1.1"
   id="svg8"
   inkscape:version="0.92.3 (2405546, 2018-03-11)"
   sodipodi:docname="mutter-erde.svg">
  <defs
     id="defs2" />
  <sodipodi:namedview
     id="base"
     pagecolor="#ffffff"
     bordercolor="#666666"
     borderopacity="1.0"
     inkscape:pageopacity="0.0"
     inkscape:pageshadow="2"
     inkscape:zoom="0.70710678"
     inkscape:cx="333.39804"
     inkscape:cy="0.34751017"
     inkscape:document-units="mm"
     inkscape:current-layer="layer1"
     showgrid="false"
     inkscape:window-width="1920"
     inkscape:window-height="1015"
     inkscape:window-x="0"
     inkscape:window-y="0"
     inkscape:window-maximized="1"
     inkscape:snap-global="true"
     inkscape:snap-bbox="false"
     inkscape:snap-bbox-edge-midpoints="true"
     inkscape:bbox-nodes="true"
     inkscape:bbox-paths="true"
     inkscape:snap-text-baseline="false"
     inkscape:lockguides="false"
     fit-margin-top="0"
     fit-margin-left="0"
     fit-margin-right="0"
     fit-margin-bottom="0" />
  <metadata
     id="metadata5">
    <rdf:RDF>
      <cc:Work
         rdf:about="">
        <dc:format>image/svg+xml</dc:format>
        <dc:type
           rdf:resource="http://purl.org/dc/dcmitype/StillImage" />
        <dc:title></dc:title>
      </cc:Work>
    </rdf:RDF>
  </metadata>
  <g
     inkscape:label="Layer 1"
     inkscape:groupmode="layer"
     id="layer1"
     transform="translate(-15.861858,-76.428447)">
    <g
       id="g1155"
       style="fill:#dd8e6f;fill-opacity:1">
      <path
         d="m 15.861858,100.93661 h 1.030772 l 2.508719,4.73322 v -4.73322 h 0.742763 v 5.65788 h -1.030773 l -2.508719,-4.73322 v 4.73322 h -0.742762 z"
         style="font-style:normal;font-variant:normal;font-weight:normal;font-stretch:normal;font-size:medium;line-height:1.25;font-family:sans-serif;-inkscape-font-specification:sans-serif;letter-spacing:0px;word-spacing:0px;opacity:1;fill:#dd8e6f;fill-opacity:1;stroke:none;stroke-width:0.26458332"
         id="path887"
         inkscape:connector-curvature="0" />
      <path
         d="m 23.558546,101.69074 -1.038352,2.81568 h 2.080493 z m -0.432015,-0.75413 h 0.867819 l 2.156286,5.65788 h -0.795817 l -0.515387,-1.45142 h -2.550404 l -0.515386,1.45142 h -0.807186 z"
         style="font-style:normal;font-variant:normal;font-weight:normal;font-stretch:normal;font-size:medium;line-height:1.25;font-family:sans-serif;-inkscape-font-specification:sans-serif;letter-spacing:0px;word-spacing:0px;opacity:1;fill:#dd8e6f;fill-opacity:1;stroke:none;stroke-width:0.26458332"
         id="path889"
         inkscape:connector-curvature="0" />
      <path
         sodipodi:nodetypes="ccccccccc"
         d="m 25.866169,100.93661 h 4.16821 v 0.77786 h -1.674403 v 4.88002 h -0.76929 v -4.88002 h -1.724517 z"
         style="font-style:normal;font-variant:normal;font-weight:normal;font-stretch:normal;font-size:medium;line-height:1.25;font-family:sans-serif;-inkscape-font-specification:sans-serif;letter-spacing:0px;word-spacing:0px;opacity:1;fill:#dd8e6f;fill-opacity:1;stroke:none;stroke-width:0.26458332"
         id="path891"
         inkscape:connector-curvature="0" />
      <path
         d="m 30.685849,100.93661 h 0.736655 v 3.43717 q 0,0.90951 0.31571,1.3112 0.31571,0.39791 1.023335,0.39791 0.703995,0 1.019705,-0.39791 0.315709,-0.40169 0.315709,-1.3112 v -3.43717 h 0.736656 v 3.53191 q 0,1.10657 -0.526183,1.67122 -0.522554,0.56465 -1.545887,0.56465 -1.026965,0 -1.553147,-0.56465 -0.522553,-0.56465 -0.522553,-1.67122 z"
         style="font-style:normal;font-variant:normal;font-weight:normal;font-stretch:normal;font-size:medium;line-height:1.25;font-family:sans-serif;-inkscape-font-specification:sans-serif;letter-spacing:0px;word-spacing:0px;opacity:1;fill:#dd8e6f;fill-opacity:1;stroke:none;stroke-width:0.25891054"
         id="path893"
         inkscape:connector-curvature="0" />
      <path
         d="m 40.371765,104.05754 h 2.042597 v 0.6215 h -2.042597 z"
         style="font-style:normal;font-variant:normal;font-weight:normal;font-stretch:normal;font-size:medium;line-height:1.25;font-family:sans-serif;-inkscape-font-specification:sans-serif;letter-spacing:0px;word-spacing:0px;opacity:1;fill:#dd8e6f;fill-opacity:1;stroke:none;stroke-width:0.26458332"
         id="path897"
         inkscape:connector-curvature="0" />
      <path
         d="m 45.174086,100.93661 h 0.769289 v 3.43717 q 0,0.90951 0.329696,1.3112 0.329696,0.39791 1.068669,0.39791 0.735183,0 1.064879,-0.39791 0.329695,-0.40169 0.329695,-1.3112 v -3.43717 h 0.76929 v 3.53191 q 0,1.10657 -0.549492,1.67122 -0.545704,0.56465 -1.614372,0.56465 -1.072458,0 -1.621951,-0.56465 -0.545703,-0.56465 -0.545703,-1.67122 z"
         style="font-style:normal;font-variant:normal;font-weight:normal;font-stretch:normal;font-size:medium;line-height:1.25;font-family:sans-serif;-inkscape-font-specification:sans-serif;letter-spacing:0px;word-spacing:0px;opacity:1;fill:#dd8e6f;fill-opacity:1;stroke:none;stroke-width:0.26458332"
         id="path899"
         inkscape:connector-curvature="0" />
      <path
         d="m 50.544749,100.93661 h 1.030772 l 2.508719,4.73322 v -4.73322 h 0.742763 v 5.65788 H 53.79623 l -2.508719,-4.73322 v 4.73322 h -0.742762 z"
         style="font-style:normal;font-variant:normal;font-weight:normal;font-stretch:normal;font-size:medium;line-height:1.25;font-family:sans-serif;-inkscape-font-specification:sans-serif;letter-spacing:0px;word-spacing:0px;opacity:1;fill:#dd8e6f;fill-opacity:1;stroke:none;stroke-width:0.26458332"
         id="path901"
         inkscape:connector-curvature="0" />
      <path
         d="m 56.614795,101.56568 v 4.39974 h 0.924663 q 1.170988,0 1.712902,-0.53055 0.545703,-0.53054 0.545703,-1.675 0,-1.13689 -0.545703,-1.66364 -0.541914,-0.53055 -1.712902,-0.53055 z m -0.765501,-0.62907 h 1.572686 q 1.644689,0 2.413979,0.68592 0.76929,0.68213 0.76929,2.13734 0,1.46278 -0.77308,2.1487 -0.773079,0.68592 -2.410189,0.68592 h -1.572686 z"
         style="font-style:normal;font-variant:normal;font-weight:normal;font-stretch:normal;font-size:medium;line-height:1.25;font-family:sans-serif;-inkscape-font-specification:sans-serif;letter-spacing:0px;word-spacing:0px;opacity:1;fill:#dd8e6f;fill-opacity:1;stroke:none;stroke-width:0.26458332"
         id="path903"
         inkscape:connector-curvature="0" />
      <path
         sodipodi:nodetypes="ccccccccccc"
         d="m 63.357091,100.93661 h 3.067734 v 0.64423 h -2.302233 v 1.75095 h 2.042994 v 0.64423 h -2.042994 v 2.61847 h -0.765501 z"
         style="font-style:normal;font-variant:normal;font-weight:normal;font-stretch:normal;font-size:medium;line-height:1.25;font-family:sans-serif;-inkscape-font-specification:sans-serif;letter-spacing:0px;word-spacing:0px;opacity:1;fill:#dd8e6f;fill-opacity:1;stroke:none;stroke-width:0.26458332"
         id="path905"
         inkscape:connector-curvature="0" />
      <path
         sodipodi:nodetypes="ccccccccccccc"
         d="m 67.160652,100.93661 h 2.992735 v 0.64423 h -2.227235 v 1.67501 h 1.959418 v 0.64423 h -1.959418 v 2.05018 H 70.2216 v 0.64423 h -3.060948 z"
         style="font-style:normal;font-variant:normal;font-weight:normal;font-stretch:normal;font-size:medium;line-height:1.25;font-family:sans-serif;-inkscape-font-specification:sans-serif;letter-spacing:0px;word-spacing:0px;opacity:1;fill:#dd8e6f;fill-opacity:1;stroke:none;stroke-width:0.26458332"
         id="path907"
         inkscape:connector-curvature="0" />
      <path
         d="m 71.286879,100.93661 h 0.7655 v 5.65788 h -0.7655 z"
         style="font-style:normal;font-variant:normal;font-weight:normal;font-stretch:normal;font-size:medium;line-height:1.25;font-family:sans-serif;-inkscape-font-specification:sans-serif;letter-spacing:0px;word-spacing:0px;opacity:1;fill:#dd8e6f;fill-opacity:1;stroke:none;stroke-width:0.26458332"
         id="path909"
         inkscape:connector-curvature="0" />
      <path
         d="m 73.174896,100.93661 h 1.030773 l 2.508718,4.73322 v -4.73322 h 0.742763 v 5.65788 h -1.030773 l -2.508718,-4.73322 v 4.73322 h -0.742763 z"
         style="font-style:normal;font-variant:normal;font-weight:normal;font-stretch:normal;font-size:medium;line-height:1.25;font-family:sans-serif;-inkscape-font-specification:sans-serif;letter-spacing:0px;word-spacing:0px;opacity:1;fill:#dd8e6f;fill-opacity:1;stroke:none;stroke-width:0.26458332"
         id="path911"
         inkscape:connector-curvature="0" />
      <path
         d="m 78.546255,100.93661 h 0.7655 v 2.39124 l 2.539035,-2.39124 h 0.985298 l -2.808098,2.63756 3.008947,3.02032 h -1.008035 l -2.717147,-2.72473 v 2.72473 h -0.7655 z"
         style="font-style:normal;font-variant:normal;font-weight:normal;font-stretch:normal;font-size:medium;line-height:1.25;font-family:sans-serif;-inkscape-font-specification:sans-serif;letter-spacing:0px;word-spacing:0px;opacity:1;fill:#dd8e6f;fill-opacity:1;stroke:none;stroke-width:0.26458332"
         id="path913"
         inkscape:connector-curvature="0" />
      <path
         d="m 85.728704,101.45579 q -0.833713,0 -1.326362,0.62149 -0.488859,0.6215 -0.488859,1.69395 0,1.06867 0.488859,1.69017 0.492649,0.62149 1.326362,0.62149 0.833713,0 1.318783,-0.62149 0.488859,-0.6215 0.488859,-1.69017 0,-1.07245 -0.488859,-1.69395 -0.48507,-0.62149 -1.318783,-0.62149 z m 0,-0.6215 q 1.189936,0 1.902382,0.79961 0.712446,0.79581 0.712446,2.13733 0,1.33773 -0.712446,2.13734 -0.712446,0.79582 -1.902382,0.79582 -1.193725,0 -1.909961,-0.79582 -0.712446,-0.79582 -0.712446,-2.13734 0,-1.34152 0.712446,-2.13733 0.716236,-0.79961 1.909961,-0.79961 z"
         style="font-style:normal;font-variant:normal;font-weight:normal;font-stretch:normal;font-size:medium;line-height:1.25;font-family:sans-serif;-inkscape-font-specification:sans-serif;letter-spacing:0px;word-spacing:0px;opacity:1;fill:#dd8e6f;fill-opacity:1;stroke:none;stroke-width:0.26458332"
         id="path915"
         inkscape:connector-curvature="0" />
      <path
         sodipodi:nodetypes="cccscsccccscsccccscscccsscsscc"
         d="m 91.784576,101.16944 v 0.73234 c -0.216329,-0.13631 -0.42043,-0.23792 -0.612303,-0.30484 -0.191874,-0.0669 -0.377164,-0.10038 -0.55587,-0.10038 -0.310385,0 -0.513314,0.0102 -0.682614,0.16876 -0.16742,0.15861 -0.25113,0.38413 -0.25113,0.67658 0,0.24535 0.05549,0.43123 0.16648,0.55763 0.112867,0.12391 0.267554,0.24082 0.579819,0.31765 l 0.344246,0.0929 c 0.425131,0.10656 0.730069,0.29491 0.931349,0.56506 0.203161,0.26765 0.321277,0.62701 0.321277,1.07806 0,0.5378 -0.104249,0.87934 -0.378892,1.15691 -0.272762,0.27757 -0.723049,0.48251 -1.251642,0.48251 -0.199399,0 -0.411965,-0.0297 -0.637699,-0.0892 -0.223853,-0.0594 -0.505779,-0.16392 -0.746562,-0.28048 l 0.0248,-0.83937 c 0.231377,0.17099 0.458051,0.29986 0.680023,0.38661 0.221972,0.0867 0.440182,0.13011 0.654629,0.13011 0.325434,0 0.469076,-0.002 0.6459,-0.17011 0.176825,-0.16852 0.265237,-0.40892 0.265237,-0.72119 0,-0.27261 -0.06396,-0.48575 -0.191873,-0.63941 -0.126034,-0.15365 -0.201606,-0.2689 -0.491299,-0.34573 l -0.347065,-0.0891 c -0.425133,-0.11152 -0.782304,-0.28624 -0.972297,-0.52416 -0.189993,-0.23792 -0.284989,-0.56878 -0.284989,-0.99257 0,-0.49071 0.130737,-0.87733 0.392212,-1.15986 0.263357,-0.28253 0.675081,-0.42379 1.135954,-0.42379 0.197518,0 0.398798,0.0236 0.603839,0.0707 0.205042,0.0471 0.444019,0.11192 0.658466,0.20605 z"
         style="font-style:normal;font-variant:normal;font-weight:normal;font-stretch:normal;font-size:medium;line-height:1.25;font-family:sans-serif;-inkscape-font-specification:sans-serif;letter-spacing:0px;word-spacing:0px;opacity:1;fill:#dd8e6f;fill-opacity:1;stroke:none;stroke-width:0.22612405"
         id="path917"
         inkscape:connector-curvature="0" />
      <path
         d="m 98.910043,100.93661 h 0.7655 v 5.65788 h -0.7655 z"
         style="font-style:normal;font-variant:normal;font-weight:normal;font-stretch:normal;font-size:medium;line-height:1.25;font-family:sans-serif;-inkscape-font-specification:sans-serif;letter-spacing:0px;word-spacing:0px;opacity:1;fill:#dd8e6f;fill-opacity:1;stroke:none;stroke-width:0.26458332"
         id="path921"
         inkscape:connector-curvature="0" />
      <path
         d="m 100.9484,100.93661 h 1.03077 l 2.50872,4.73322 v -4.73322 h 0.74276 v 5.65788 h -1.03077 l -2.50872,-4.73322 v 4.73322 h -0.74276 z"
         style="font-style:normal;font-variant:normal;font-weight:normal;font-stretch:normal;font-size:medium;line-height:1.25;font-family:sans-serif;-inkscape-font-specification:sans-serif;letter-spacing:0px;word-spacing:0px;opacity:1;fill:#dd8e6f;fill-opacity:1;stroke:none;stroke-width:0.26458332"
         id="path923"
         inkscape:connector-curvature="0" />
      <path
         d="m 113.49345,100.93661 h 3.57739 v 0.64423 h -2.81189 v 1.67501 h 2.69441 v 0.64423 h -2.69441 v 2.05018 h 2.8801 v 0.64423 h -3.6456 z"
         style="font-style:normal;font-variant:normal;font-weight:normal;font-stretch:normal;font-size:medium;line-height:1.25;font-family:sans-serif;-inkscape-font-specification:sans-serif;letter-spacing:0px;word-spacing:0px;opacity:1;fill:#dd8e6f;fill-opacity:1;stroke:none;stroke-width:0.26458332"
         id="path927"
         inkscape:connector-curvature="0" />
      <path
         sodipodi:nodetypes="ccccscsccccsccccccscsc"
         d="m 120.49859,104.04701 1.16696,2.54748 h -0.82235 l -1.01219,-2.38691 c 0,0 -0.21829,-0.004 -0.37825,-0.004 h -0.83371 v 2.39124 h -0.7655 v -5.65788 h 1.72806 c 0.64675,0 1.12929,0.13516 1.44762,0.40549 0.31833,0.27033 0.4775,0.67834 0.4775,1.22404 0,0.35622 -0.0834,0.65181 -0.25012,0.88677 -0.16421,0.23495 -0.44222,0.50315 -0.75802,0.5941 z m -1.87954,-2.48133 v 2.00849 h 0.96256 c 0.36885,0 0.64676,-0.0846 0.83371,-0.2539 0.18948,-0.17179 0.28422,-0.42317 0.28422,-0.75413 0,-0.33096 -0.0947,-0.57981 -0.28422,-0.74655 -0.18695,-0.16927 -0.46486,-0.25391 -0.83371,-0.25391 z"
         style="font-style:normal;font-variant:normal;font-weight:normal;font-stretch:normal;font-size:medium;line-height:1.25;font-family:sans-serif;-inkscape-font-specification:sans-serif;letter-spacing:0px;word-spacing:0px;opacity:1;fill:#dd8e6f;fill-opacity:1;stroke:none;stroke-width:0.26458332"
         id="path929"
         inkscape:connector-curvature="0" />
      <path
         d="m 126.40907,101.69074 -1.03835,2.81568 h 2.08049 z m -0.43202,-0.75413 h 0.86782 l 2.15629,5.65788 h -0.79582 l -0.51539,-1.45142 h -2.5504 l -0.51539,1.45142 h -0.80718 z"
         style="font-style:normal;font-variant:normal;font-weight:normal;font-stretch:normal;font-size:medium;line-height:1.25;font-family:sans-serif;-inkscape-font-specification:sans-serif;letter-spacing:0px;word-spacing:0px;opacity:1;fill:#dd8e6f;fill-opacity:1;stroke:none;stroke-width:0.26458332"
         id="path931"
         inkscape:connector-curvature="0" />
      <path
         sodipodi:nodetypes="ccccccc"
         d="m 129.63975,100.93661 h 0.7655 v 5.01365 h 2.29203 v 0.64423 h -3.05753 z"
         style="font-style:normal;font-variant:normal;font-weight:normal;font-stretch:normal;font-size:medium;line-height:1.25;font-family:sans-serif;-inkscape-font-specification:sans-serif;letter-spacing:0px;word-spacing:0px;opacity:1;fill:#dd8e6f;fill-opacity:1;stroke:none;stroke-width:0.26458332"
         id="path933"
         inkscape:connector-curvature="0" />
      <path
         d="m 146.47769,101.69074 -1.03835,2.81568 h 2.08049 z m -0.43202,-0.75413 h 0.86782 l 2.15629,5.65788 h -0.79582 l -0.51538,-1.45142 h -2.55041 l -0.51538,1.45142 h -0.80719 z"
         style="font-style:normal;font-variant:normal;font-weight:normal;font-stretch:normal;font-size:medium;line-height:1.25;font-family:sans-serif;-inkscape-font-specification:sans-serif;letter-spacing:0px;word-spacing:0px;opacity:1;fill:#dd8e6f;fill-opacity:1;stroke:none;stroke-width:0.26458332"
         id="path941"
         inkscape:connector-curvature="0" />
      <path
         sodipodi:nodetypes="ccscscsccscssscc"
         d="m 150.47507,101.56568 v 4.39974 h 0.92466 c 0.78066,0 1.00909,-0.17685 1.37036,-0.53055 0.36381,-0.35369 0.54571,-0.91203 0.54571,-1.675 0,-0.75793 -0.1819,-1.31247 -0.54571,-1.66364 -0.36127,-0.3537 -0.5897,-0.53055 -1.37036,-0.53055 z m -0.7655,-0.62907 h 1.57268 c 1.09646,0 1.55858,0.22864 2.07144,0.68592 0.51286,0.45475 0.76929,1.1672 0.76929,2.13734 0,0.97519 -0.25769,1.69142 -0.77308,2.1487 -0.51539,0.45728 -0.97624,0.68592 -2.06765,0.68592 h -1.57268 z"
         style="font-style:normal;font-variant:normal;font-weight:normal;font-stretch:normal;font-size:medium;line-height:1.25;font-family:sans-serif;-inkscape-font-specification:sans-serif;letter-spacing:0px;word-spacing:0px;opacity:1;fill:#dd8e6f;fill-opacity:1;stroke:none;stroke-width:0.26458332"
         id="path943"
         inkscape:connector-curvature="0" />
      <path
         sodipodi:nodetypes="ccccccccc"
         d="m 92.296622,100.93661 h 4.16821 v 0.77786 h -1.674403 v 4.88002 h -0.76929 v -4.88002 h -1.724517 z"
         style="font-style:normal;font-variant:normal;font-weight:normal;font-stretch:normal;font-size:medium;line-height:1.25;font-family:sans-serif;-inkscape-font-specification:sans-serif;letter-spacing:0px;word-spacing:0px;opacity:1;fill:#dd8e6f;fill-opacity:1;stroke:none;stroke-width:0.26458332"
         id="path891-9"
         inkscape:connector-curvature="0" />
      <path
         sodipodi:nodetypes="ccccccccc"
         d="m 132.2981,100.9366 h 4.16821 v 0.77786 h -1.6744 v 4.88003 h -0.76929 v -4.88003 h -1.72452 z"
         style="font-style:normal;font-variant:normal;font-weight:normal;font-stretch:normal;font-size:medium;line-height:1.25;font-family:sans-serif;-inkscape-font-specification:sans-serif;letter-spacing:0px;word-spacing:0px;opacity:1;fill:#dd8e6f;fill-opacity:1;stroke:none;stroke-width:0.26458332"
         id="path891-3"
         inkscape:connector-curvature="0" />
      <path
         sodipodi:nodetypes="ccccccccc"
         d="m 140.19852,100.93661 h 4.16821 v 0.77786 h -1.6744 v 4.88002 h -0.76929 v -4.88002 h -1.72452 z"
         style="font-style:normal;font-variant:normal;font-weight:normal;font-stretch:normal;font-size:medium;line-height:1.25;font-family:sans-serif;-inkscape-font-specification:sans-serif;letter-spacing:0px;word-spacing:0px;opacity:1;fill:#dd8e6f;fill-opacity:1;stroke:none;stroke-width:0.26458332"
         id="path891-1"
         inkscape:connector-curvature="0" />
      <path
         sodipodi:nodetypes="ccccccccc"
         d="m 154.22816,100.93661 h 4.16821 v 0.77786 h -1.6744 v 4.88002 h -0.76929 v -4.88002 h -1.72452 z"
         style="font-style:normal;font-variant:normal;font-weight:normal;font-stretch:normal;font-size:medium;line-height:1.25;font-family:sans-serif;-inkscape-font-specification:sans-serif;letter-spacing:0px;word-spacing:0px;opacity:1;fill:#dd8e6f;fill-opacity:1;stroke:none;stroke-width:0.26458332"
         id="path891-4"
         inkscape:connector-curvature="0" />
      <path
         sodipodi:nodetypes="ccscscsccscssscc"
         d="m 109.08835,101.56568 v 4.39974 h 0.92466 c 0.78066,0 1.00909,-0.17685 1.37036,-0.53055 0.36381,-0.35369 0.54571,-0.91203 0.54571,-1.675 0,-0.75793 -0.1819,-1.31247 -0.54571,-1.66364 -0.36127,-0.3537 -0.5897,-0.53055 -1.37036,-0.53055 z m -0.7655,-0.62907 h 1.57268 c 1.09646,0 1.55858,0.22864 2.07144,0.68592 0.51286,0.45475 0.76929,1.1672 0.76929,2.13734 0,0.97519 -0.25769,1.69142 -0.77308,2.1487 -0.51539,0.45728 -0.97624,0.68592 -2.06765,0.68592 h -1.57268 z"
         style="font-style:normal;font-variant:normal;font-weight:normal;font-stretch:normal;font-size:medium;line-height:1.25;font-family:sans-serif;-inkscape-font-specification:sans-serif;letter-spacing:0px;word-spacing:0px;opacity:1;fill:#dd8e6f;fill-opacity:1;stroke:none;stroke-width:0.26458332"
         id="path943-8"
         inkscape:connector-curvature="0" />
      <path
         sodipodi:nodetypes="cccscsccccscsccccscscccsscsscc"
         d="m 139.68101,101.16867 v 0.73234 c -0.21632,-0.13631 -0.42043,-0.23792 -0.6123,-0.30484 -0.19187,-0.0669 -0.37716,-0.10038 -0.55587,-0.10038 -0.31038,0 -0.51331,0.0102 -0.68261,0.16876 -0.16742,0.15861 -0.25113,0.38413 -0.25113,0.67658 0,0.24535 0.0555,0.43123 0.16648,0.55763 0.11286,0.12391 0.26755,0.24082 0.57982,0.31765 l 0.34424,0.0929 c 0.42513,0.10656 0.73007,0.29491 0.93135,0.56506 0.20316,0.26765 0.32128,0.62701 0.32128,1.07806 0,0.5378 -0.10425,0.87934 -0.37889,1.15691 -0.27277,0.27757 -0.72305,0.48251 -1.25165,0.48251 -0.19939,0 -0.41196,-0.0297 -0.63769,-0.0892 -0.22386,-0.0594 -0.50578,-0.16392 -0.74657,-0.28048 l 0.0248,-0.83937 c 0.23138,0.17099 0.45805,0.29986 0.68003,0.38661 0.22197,0.0867 0.44018,0.13011 0.65463,0.13011 0.32543,0 0.46907,-0.002 0.6459,-0.17011 0.17682,-0.16852 0.26523,-0.40892 0.26523,-0.72119 0,-0.27261 -0.064,-0.48575 -0.19187,-0.63941 -0.12603,-0.15365 -0.20161,-0.2689 -0.4913,-0.34573 l -0.34706,-0.0891 c -0.42514,-0.11152 -0.78231,-0.28624 -0.9723,-0.52416 -0.18999,-0.23792 -0.28499,-0.56878 -0.28499,-0.99257 0,-0.49071 0.13074,-0.87733 0.39221,-1.15986 0.26336,-0.28253 0.67508,-0.42379 1.13596,-0.42379 0.19751,0 0.39879,0.0236 0.60383,0.0707 0.20505,0.0471 0.44402,0.11192 0.65847,0.20605 z"
         style="font-style:normal;font-variant:normal;font-weight:normal;font-stretch:normal;font-size:medium;line-height:1.25;font-family:sans-serif;-inkscape-font-specification:sans-serif;letter-spacing:0px;word-spacing:0px;opacity:1;fill:#dd8e6f;fill-opacity:1;stroke:none;stroke-width:0.22612405"
         id="path917-9"
         inkscape:connector-curvature="0" />
      <path
         sodipodi:nodetypes="ccccscsccccsccccccscsc"
         d="m 38.638868,104.04668 1.16696,2.54748 h -0.82235 l -1.01219,-2.38691 c 0,0 -0.21829,-0.004 -0.37825,-0.004 h -0.83371 v 2.39124 h -0.7655 v -5.65788 h 1.72806 c 0.64675,0 1.12929,0.13516 1.44762,0.40549 0.31833,0.27033 0.4775,0.67834 0.4775,1.22404 0,0.35622 -0.0834,0.65181 -0.25012,0.88677 -0.16421,0.23495 -0.44222,0.50315 -0.75802,0.5941 z m -1.87954,-2.48133 v 2.00849 h 0.96256 c 0.36885,0 0.64676,-0.0846 0.83371,-0.2539 0.18948,-0.17179 0.28422,-0.42317 0.28422,-0.75413 0,-0.33096 -0.0947,-0.57981 -0.28422,-0.74655 -0.18695,-0.16927 -0.46486,-0.25391 -0.83371,-0.25391 z"
         style="font-style:normal;font-variant:normal;font-weight:normal;font-stretch:normal;font-size:medium;line-height:1.25;font-family:sans-serif;-inkscape-font-specification:sans-serif;letter-spacing:0px;word-spacing:0px;opacity:1;fill:#dd8e6f;fill-opacity:1;stroke:none;stroke-width:0.26458332"
         id="path929-6"
         inkscape:connector-curvature="0" />
    </g>
    <path
       style="fill:#3b755d;fill-opacity:1;stroke-width:0.26458335"
       d="m 16.091914,97.396427 c -0.09388,-0.1519 -0.0569,-0.41979 0.08218,-0.59532 0.338963,-0.4278 0.507059,-1.47104 0.968009,-6.00768 0.619777,-6.09978 1.006977,-12.39952 0.822538,-13.38266 l -0.169748,-0.90484 h 2.25557 2.25557 l 0.520029,0.99219 c 0.286015,0.5457 0.812421,1.34874 1.169791,1.78452 l 0.649763,0.79233 0.5739,-0.51937 c 0.315645,-0.28566 0.942804,-1.08869 1.393688,-1.78452 l 0.819787,-1.26515 h 2.183995 2.183996 l -0.147851,1.95492 c -0.255512,3.37846 0.865127,17.2101 1.488776,18.3754 0.147819,0.27621 0.193577,0.57738 0.101683,0.66927 -0.09189,0.0919 -1.053455,0.16708 -2.136803,0.16708 h -1.969724 l 0.202758,-0.99219 c 0.235033,-1.15012 0.198012,-3.0729 -0.151554,-7.87135 -0.419509,-5.75856 -0.582308,-7.39326 -0.772007,-7.75188 -0.12303,-0.23258 -0.688739,0.2535 -1.751535,1.50501 -0.863397,1.0167 -1.705131,1.85591 -1.870522,1.8649 -0.16539,0.009 -0.982571,-0.81709 -1.815957,-1.83574 -0.833386,-1.01865 -1.60399,-1.85208 -1.712454,-1.85208 -0.540272,0 -1.599569,14.67511 -1.14603,15.87667 0.158073,0.41878 0.220976,0.82785 0.139785,0.90904 -0.268189,0.26819 -3.993447,0.15328 -4.16763,-0.12855 z m 27.725291,-0.7753 c -4.61891,-2.5179 -7.541128,-5.65197 -9.063309,-9.72036 -0.684849,-1.83042 -0.747827,-5.38855 -0.131546,-7.43196 0.232684,-0.77151 0.386855,-1.6626 0.342602,-1.9802 -0.06757,-0.48495 0.09641,-0.61525 1.02358,-0.81335 1.313208,-0.28058 2.997003,-0.0204 2.997003,0.46311 0,0.18914 -0.233207,0.55493 -0.518239,0.81288 -1.558624,1.41054 -1.779453,5.97299 -0.422938,8.73816 0.836599,1.70536 4.411185,5.54919 4.983008,5.35835 0.244834,-0.0817 0.319542,-1.78018 0.306358,-6.96505 -0.0096,-3.77134 -0.112765,-7.18441 -0.22928,-7.58459 l -0.211847,-0.7276 h 2.043526 c 1.841939,0 2.024853,0.0457 1.854234,0.46302 -0.104111,0.25466 -0.300138,0.84671 -0.435615,1.31566 -0.296021,1.02466 -0.162409,17.67359 0.14869,18.52809 0.327213,0.89875 -0.439597,0.76854 -2.686227,-0.45616 z m 8.552204,0.45616 c 0.119036,-0.32742 0.256852,-4.3312 0.30626,-8.89729 l 0.08984,-8.30198 -2.259777,0.11861 -2.259777,0.11861 v -1.71373 -1.71373 l 4.167187,0.16405 c 2.291953,0.0902 4.998784,0.0574 6.015178,-0.073 1.016394,-0.13037 1.898671,-0.18634 1.960621,-0.1244 0.224925,0.22493 -0.509159,2.15779 -0.982041,2.58575 -0.279519,0.25296 -1.181074,0.5119 -2.126224,0.61069 l -1.640935,0.17151 0.09174,8.09749 c 0.05046,4.45361 0.186671,8.4249 0.302701,8.82509 l 0.210963,0.7276 h -2.046076 c -2.009597,0 -2.04222,-0.0106 -1.829654,-0.59531 z m 12.98729,-0.26459 c 0.120705,-0.47294 0.219461,-4.43177 0.219461,-8.79739 v -7.9375 l -2.315104,0.0401 -2.315104,0.0401 v -1.56146 c 0,-1.04523 0.109344,-1.57855 0.330729,-1.61314 0.181901,-0.0284 2.592917,-0.0598 5.357812,-0.0697 2.764896,-0.01 5.372521,-0.12316 5.794719,-0.25164 l 0.767639,-0.23362 -0.152355,1.13589 c -0.218295,1.62749 -0.872136,2.16107 -2.883866,2.3534 l -1.674053,0.16005 v 7.27604 c 0,6.8126 0.07863,8.2298 0.539493,9.72344 0.179483,0.5817 0.137136,0.59531 -1.852573,0.59531 H 65.13724 Z m 8.721952,0.40212 c 0.23889,-0.489 0.32729,-18.49644 0.09647,-19.65055 l -0.132291,-0.66146 h 5.027083 5.027083 l 0.07732,1.59758 0.07732,1.59759 -3.450754,-0.10752 -3.450754,-0.10751 v 0.69274 0.69274 h 3.042709 3.042708 v 1.5875 1.5875 h -3.042718 -3.042709 v 5.04811 5.04811 l 3.373438,-0.12884 c 1.85539,-0.0709 3.671094,-0.16962 4.034896,-0.21946 0.647009,-0.0886 0.661458,-0.053 0.661458,1.62917 v 1.71979 l -5.785009,0.0714 c -5.457282,0.0674 -5.772047,0.0449 -5.55625,-0.39688 z m 12.701638,-0.26982 c 0.296447,-0.9497 0.295772,-17.8912 -7.94e-4,-19.1823 l -0.227851,-0.99218 h 4.623972 c 4.277319,0 4.676239,0.0411 5.321109,0.54837 1.159466,0.91204 0.966946,2.08394 -0.77928,4.74356 -0.81204,1.23678 -1.58509,2.44762 -1.71789,2.69076 -0.17264,0.31607 0.23801,1.78664 1.44071,5.15938 2.066656,5.79552 2.351026,6.47455 2.903236,6.93251 0.80418,0.66692 0.45401,0.8275 -1.804476,0.8275 h -2.24235 l 0.13497,-0.7276 c 0.0876,-0.47203 -0.29459,-1.93579 -1.08795,-4.16719 -0.672598,-1.89177 -1.285978,-3.64794 -1.363058,-3.90261 -0.21069,-0.69605 -0.466,-0.57073 -1.249613,0.61339 -0.686343,1.03713 -0.70865,1.18434 -0.611378,4.03489 0.05553,1.62717 0.195545,3.22639 0.311155,3.55381 0.20625,0.58412 0.171794,0.59531 -1.833716,0.59531 h -2.043917 z m 4.995558,-13.9312 c 1.888148,-2.89669 1.880428,-3.06828 -0.13823,-3.06828 h -1.587499 v 2.64583 c 0,1.45521 0.0622,2.64583 0.138227,2.64583 0.07603,0 0.7904,-1.00052 1.587502,-2.22338 z m 14.839283,14.06884 c 0.29274,-0.78024 0.3045,-17.71557 0.0133,-19.19357 l -0.2227,-1.13041 4.9852,0.0721 4.98519,0.0721 0.0772,1.5875 0.0772,1.5875 -3.45059,-0.0927 -3.45059,-0.0927 v 0.68802 0.68803 h 3.04271 3.0427 v 1.57884 1.57883 l -2.97656,0.0748 -2.97656,0.0748 -0.0721,4.98644 -0.0721,4.98644 3.64396,-0.1096 c 2.00417,-0.0603 3.85809,-0.20578 4.11982,-0.32333 0.43648,-0.19603 0.46933,-0.0631 0.39687,1.60545 l -0.079,1.81918 -5.65465,0.0715 -5.65466,0.0715 z m 12.45517,-0.005 c 0.2896,-0.79716 0.27834,-18.6524 -0.0123,-19.58512 l -0.22861,-0.73355 4.96287,0.0721 4.96287,0.0721 0.53777,0.7207 c 0.71533,0.95865 0.44754,1.8105 -1.56921,4.99179 l -1.54332,2.43449 1.14445,3.33484 c 1.83631,5.3509 2.67519,7.39263 3.38299,8.23381 0.82781,0.98379 0.58591,1.10974 -1.92244,1.00101 -1.67593,-0.0726 -1.82122,-0.12487 -1.76959,-0.63615 0.0709,-0.7021 -2.65079,-8.37763 -3.0135,-8.49854 -0.14769,-0.0492 -0.59179,0.399 -0.9869,0.99605 -0.69156,1.04502 -0.71424,1.19104 -0.60745,3.91106 0.061,1.55404 0.20122,3.15294 0.31159,3.55313 l 0.20066,0.7276 h -2.03305 c -1.99603,0 -2.02911,-0.0108 -1.81678,-0.59531 z m 3.87797,-12.22172 c 0.0805,-0.20989 0.75406,-1.29916 1.49672,-2.42061 0.74265,-1.12145 1.28624,-2.20586 1.20798,-2.40981 -0.10449,-0.2723 -0.54733,-0.34971 -1.66684,-0.29137 l -1.52456,0.0794 -0.0754,2.71197 c -0.0684,2.45873 0.15596,3.38874 0.5621,2.33037 z m 9.40143,12.70097 c -0.0913,-0.0945 0.0121,-0.77974 0.22993,-1.52264 0.54893,-1.87261 0.37862,-17.48412 -0.20065,-18.39145 -0.54031,-0.84633 -0.18627,-0.99882 1.46235,-0.62988 7.06839,1.58184 12.45625,9.76376 10.5831,16.07133 -0.57116,1.92332 -1.41085,3.00751 -2.91286,3.761 -1.18718,0.59556 -1.71655,0.67493 -5.15938,0.7736 -2.11005,0.0605 -3.91117,0.0326 -4.00249,-0.062 z m 6.47546,-3.30774 c 4.56324,-1.05892 3.80353,-8.29823 -1.25589,-11.96744 -1.79953,-1.30506 -1.74624,-1.48005 -1.74624,5.73395 v 6.48229 l 0.99219,-0.006 c 0.5457,-0.003 1.45017,-0.11259 2.00994,-0.24249 z m 7.31115,2.64026 c 0.27436,-0.51263 0.26572,-18.48067 -0.009,-19.72167 -0.11376,-0.51302 0.0381,-0.53136 4.97589,-0.60102 l 5.09322,-0.0719 v 1.55 1.55001 l -3.43958,-0.1242 -3.43958,-0.12421 v 0.82887 0.82887 h 3.1882 3.18821 l -0.0794,1.52135 -0.0793,1.52136 -3.10886,0.0745 -3.10885,0.0745 v 5.15098 5.15098 l 2.05052,-0.009 c 1.8077,-0.008 4.74042,-0.28583 5.88698,-0.55844 0.32175,-0.0765 0.39687,0.23118 0.39687,1.62543 v 1.7198 l -5.89901,0.0712 c -5.82752,0.0704 -5.89558,0.0648 -5.61583,-0.45791 z"
       id="path1174"
       inkscape:connector-curvature="0" />
  </g>
  <g
     inkscape:groupmode="layer"
     id="layer3"
     inkscape:label="rechteck"
     style="display:none"
     transform="translate(-15.861858,-76.428447)">
    <rect
       style="opacity:0.3260002;fill:#ffffff;fill-opacity:1;stroke:none;stroke-width:0.76499999;stroke-linecap:round;stroke-linejoin:round;stroke-miterlimit:4;stroke-dasharray:none;stroke-dashoffset:0;stroke-opacity:1;paint-order:stroke markers fill"
       id="rect846"
       width="142.03699"
       height="21.417435"
       x="15.80173"
       y="76.200821"
       ry="0" />
  </g>
  <g
     inkscape:groupmode="layer"
     id="layer2"
     inkscape:label="Layer 2"
     transform="translate(-15.861858,-76.428447)" />
</svg>
