<?xml version="1.0" encoding="UTF-8" standalone="no"?>
<!-- Created with Inkscape (http://www.inkscape.org/) -->

<svg
   xmlns:dc="http://purl.org/dc/elements/1.1/"
   xmlns:cc="http://creativecommons.org/ns#"
   xmlns:rdf="http://www.w3.org/1999/02/22-rdf-syntax-ns#"
   xmlns:svg="http://www.w3.org/2000/svg"
   xmlns="http://www.w3.org/2000/svg"
   xmlns:sodipodi="http://sodipodi.sourceforge.net/DTD/sodipodi-0.dtd"
   xmlns:inkscape="http://www.inkscape.org/namespaces/inkscape"
   width="49.99992mm"
   height="49.99992mm"
   viewBox="0 0 49.99992 49.99992"
   version="1.1"
   id="svg13775"
   inkscape:version="0.92.4 (5da689c313, 2019-01-14)"
   sodipodi:docname="nein.svg">
  <defs
     id="defs13769" />
  <sodipodi:namedview
     id="base"
     pagecolor="#ffffff"
     bordercolor="#666666"
     borderopacity="1.0"
     inkscape:pageopacity="0.0"
     inkscape:pageshadow="2"
     inkscape:zoom="1.979899"
     inkscape:cx="44.70127"
     inkscape:cy="111.42279"
     inkscape:document-units="mm"
     inkscape:current-layer="g11609"
     showgrid="false"
     fit-margin-top="0"
     fit-margin-left="0"
     fit-margin-right="0"
     fit-margin-bottom="0"
     inkscape:window-width="1280"
     inkscape:window-height="768"
     inkscape:window-x="0"
     inkscape:window-y="0"
     inkscape:window-maximized="0" />
  <metadata
     id="metadata13772">
    <rdf:RDF>
      <cc:Work
         rdf:about="">
        <dc:format>image/svg+xml</dc:format>
        <dc:type
           rdf:resource="http://purl.org/dc/dcmitype/StillImage" />
        <dc:title />
      </cc:Work>
    </rdf:RDF>
  </metadata>
  <g
     inkscape:label="Layer 1"
     inkscape:groupmode="layer"
     id="layer1"
     transform="translate(-187.70859,-219.73168)">
    <g
       transform="matrix(2.3098922,0,0,2.3098922,-301.64005,-725.4159)"
       id="g11609">
      <path
         inkscape:connector-curvature="0"
         style="fill:#0080ff;fill-opacity:1;fill-rule:nonzero;stroke:none;stroke-width:1.33333337"
         d="m -295.18945,815.49805 c -7.94824,0 -14.42969,6.48146 -14.42969,14.42968 0,7.94823 6.48145,14.43165 14.42969,14.43165 7.94822,0 14.43164,-6.48342 14.43164,-14.43165 0,-7.94822 -6.48342,-14.42968 -14.43164,-14.42968 z"
         transform="matrix(0.74999997,0,0,0.74999997,444.06347,-202.44962)"
         id="path8707" />
      <g
         id="g11600">
        <path
           sodipodi:nodetypes="ccccssccc"
           inkscape:connector-curvature="0"
           id="path11592"
           d="m 227.77715,427.20829 c 1.08292,-0.61518 0.86872,-0.82147 1.51631,-1.07915 0.13196,-0.42175 -3.24703,-3.34593 -4.3181,-4.64997 -0.98606,-1.20057 -4.45815,-5.62852 -5.88687,-6.8739 -1.66043,-1.44734 -1.99564,-1.99356 -2.52252,-1.46081 -0.52687,0.53274 -0.75889,1.27852 -0.8749,1.27852 -0.11601,0 2.03845,1.78986 2.99967,2.9831 0.96123,1.19324 2.96237,3.27011 3.94433,4.59066 0.96123,1.29268 4.53339,3.94313 5.14208,5.21155 z"
           style="fill:#ffffff;fill-opacity:1;stroke:none;stroke-width:0.74999994px;stroke-linecap:butt;stroke-linejoin:miter;stroke-opacity:1" />
        <path
           sodipodi:nodetypes="ccccccccc"
           inkscape:connector-curvature="0"
           id="path11594"
           d="m 216.11593,425.16419 c 0.48943,1.23708 1.37776,1.75512 1.88281,2.09375 1.2674,-1.51752 1.56969,-2.06856 3.10739,-3.84989 0.62635,-0.72559 4.31558,-5.13975 4.78048,-5.86615 0.75,-1.17188 2.20312,-4.125 2.71875,-4.05469 -0.70313,-0.60939 -1.2216,-0.94672 -1.57032,-1.10156 -0.39844,0.0937 -4.35937,5.76562 -5.0625,6.35156 -0.70312,0.58594 -1.82812,1.96875 -2.41406,2.67188 -0.58594,0.70312 -3.27573,3.08053 -3.44255,3.7551"
           style="fill:#ffffff;fill-opacity:1;stroke:none;stroke-width:0.74999994px;stroke-linecap:butt;stroke-linejoin:miter;stroke-opacity:1" />
      </g>
    </g>
  </g>
</svg>
