<?xml version="1.0" encoding="UTF-8" standalone="no"?>
<!-- Created with Inkscape (http://www.inkscape.org/) -->

<svg
   xmlns:dc="http://purl.org/dc/elements/1.1/"
   xmlns:cc="http://creativecommons.org/ns#"
   xmlns:rdf="http://www.w3.org/1999/02/22-rdf-syntax-ns#"
   xmlns:svg="http://www.w3.org/2000/svg"
   xmlns="http://www.w3.org/2000/svg"
   xmlns:sodipodi="http://sodipodi.sourceforge.net/DTD/sodipodi-0.dtd"
   xmlns:inkscape="http://www.inkscape.org/namespaces/inkscape"
   width="49.999992mm"
   height="49.999992mm"
   viewBox="0 0 49.999992 49.999992"
   version="1.1"
   id="svg13775"
   inkscape:version="0.92.3 (2405546, 2018-03-11)"
   sodipodi:docname="vielleicht.svg">
  <defs
     id="defs13769" />
  <sodipodi:namedview
     id="base"
     pagecolor="#ffffff"
     bordercolor="#666666"
     borderopacity="1.0"
     inkscape:pageopacity="0.0"
     inkscape:pageshadow="2"
     inkscape:zoom="1.979899"
     inkscape:cx="-112.23932"
     inkscape:cy="194.40117"
     inkscape:document-units="mm"
     inkscape:current-layer="layer1"
     showgrid="false"
     fit-margin-top="0"
     fit-margin-left="0"
     fit-margin-right="0"
     fit-margin-bottom="0"
     inkscape:window-width="1920"
     inkscape:window-height="1015"
     inkscape:window-x="0"
     inkscape:window-y="0"
     inkscape:window-maximized="1" />
  <metadata
     id="metadata13772">
    <rdf:RDF>
      <cc:Work
         rdf:about="">
        <dc:format>image/svg+xml</dc:format>
        <dc:type
           rdf:resource="http://purl.org/dc/dcmitype/StillImage" />
        <dc:title></dc:title>
      </cc:Work>
    </rdf:RDF>
  </metadata>
  <g
     inkscape:label="Layer 1"
     inkscape:groupmode="layer"
     id="layer1"
     transform="translate(-217.49884,-229.76453)">
    <g
       id="g13446"
       transform="matrix(6.5472932,0,0,6.5472932,913.76351,-1322.6714)">
      <g
         id="g13454">
        <path
           inkscape:connector-curvature="0"
           style="fill:#bfbfbf;fill-opacity:1;fill-rule:nonzero;stroke:none;stroke-width:3.04580641;stroke-miterlimit:4;stroke-dasharray:none"
           d="m -387.49805,896.16797 c -7.94823,0 -14.43164,6.48337 -14.43164,14.43164 0,7.94819 6.48341,14.43164 14.43164,14.43164 7.94824,0 14.43164,-6.48345 14.43164,-14.43164 0,-7.94827 -6.4834,-14.43164 -14.43164,-14.43164 z"
           transform="scale(0.26458333)"
           id="path9019" />
        <path
           inkscape:connector-curvature="0"
           id="path13448"
           d="m -102.52539,238.34766 c -1.42014,0 -2.58008,1.16188 -2.58008,2.58203 0,1.42014 1.15994,2.58008 2.58008,2.58008 1.42014,0 2.580078,-1.15994 2.580078,-2.58008 0,-1.42015 -1.159938,-2.58203 -2.580078,-2.58203 z m 0,0.88672 c 0.94107,0 1.69336,0.75424 1.69336,1.69531 0,0.94106 -0.75229,1.69336 -1.69336,1.69336 -0.94107,0 -1.69531,-0.7523 -1.69531,-1.69336 0,-0.94107 0.75424,-1.69531 1.69531,-1.69531 z"
           style="color:#000000;font-style:normal;font-variant:normal;font-weight:normal;font-stretch:normal;font-size:medium;line-height:normal;font-family:sans-serif;font-variant-ligatures:normal;font-variant-position:normal;font-variant-caps:normal;font-variant-numeric:normal;font-variant-alternates:normal;font-feature-settings:normal;text-indent:0;text-align:start;text-decoration:none;text-decoration-line:none;text-decoration-style:solid;text-decoration-color:#000000;letter-spacing:normal;word-spacing:normal;text-transform:none;writing-mode:lr-tb;direction:ltr;text-orientation:mixed;dominant-baseline:auto;baseline-shift:baseline;text-anchor:start;white-space:normal;shape-padding:0;clip-rule:nonzero;display:inline;overflow:visible;visibility:visible;opacity:1;isolation:auto;mix-blend-mode:normal;color-interpolation:sRGB;color-interpolation-filters:linearRGB;solid-color:#000000;solid-opacity:1;vector-effect:none;fill:#ffffff;fill-opacity:1;fill-rule:nonzero;stroke:none;stroke-width:0.88645655;stroke-linecap:round;stroke-linejoin:round;stroke-miterlimit:4;stroke-dasharray:none;stroke-dashoffset:0;stroke-opacity:1;paint-order:markers stroke fill;color-rendering:auto;image-rendering:auto;shape-rendering:auto;text-rendering:auto;enable-background:accumulate" />
      </g>
    </g>
  </g>
</svg>
